doghouse,0.08918574116480117
hey,0.0767178765088047
doc,0.07549886092770475
waldo,0.07224369395723451
squat,0.06752567190124735
stinks,0.06716790099701868
chicks,0.06704241337602702
powerbar,0.06353428411333084
yadda,0.06353428411333084
chick,0.06262961249247989
maxine,0.06175127958437209
bs,0.06175127958437209
guys,0.060117822458394664
got,0.059397392315720464
yeah,0.05923774002065327
ta,0.05774760781850197
kinda,0.05654114606080706
total,0.05651498345749183
guy,0.056477287441764175
whoa,0.055795986702664085
oh,0.05487650823193085
sports,0.054333960717103405
heh,0.054306793113287906
saints,0.054306793113287906
gretsky,0.054306793113287906
fans,0.05408939697841742
sonics,0.05408939697841742
know,0.05389889077709245
ya,0.0531140170662008
suck,0.053070689300951414
okay,0.05264111224268335
just,0.05259602059278644
bulldog,0.05245266100721941
right,0.05212445889386913
like,0.05212445889386913
roz,0.05163145534851413
come,0.05148072232376952
look,0.05148072232376952
oxy,0.051259060378252175
dis,0.051259060378252175
cheerleaders,0.051259060378252175
uglier,0.051259060378252175
roth,0.051259060378252175
farina,0.051259060378252175
darlene,0.051259060378252175
thongs,0.051259060378252175
yo,0.051259060378252175
raiders,0.051259060378252175
crescendo,0.051259060378252175
el,0.051259060378252175
cosell,0.051259060378252175
briscoe,0.051259060378252175
reggie,0.048532400796412634
bucks,0.04791148269795066
peas,0.04775978405791352
sharon,0.04775978405791352
huh,0.04754218574204829
na,0.04744785347930075
want,0.04697933678327643
great,0.04658495840166841
going,0.04658495840166841
gon,0.046116952117318206
did,0.04575037668646228
uh,0.04518507549183752
way,0.04484616898373757
ok,0.044645708918784
trying,0.044645708918784
let,0.044470445788878946
time,0.04385965188925083
little,0.04385965188925083
slugger,0.04381437874042547
cocky,0.04381437874042547
dork,0.04381437874042547
symbol,0.04381437874042547
studio,0.04381437874042547
toenails,0.04381437874042547
po,0.04381437874042547
leftovers,0.04381437874042547
hangin,0.04381437874042547
football,0.04381437874042547
bob,0.04381437874042547
ca,0.04370967990188377
kate,0.04354943566847829
wait,0.043330561088287145
wow,0.04300099895290891
face,0.04300099895290891
thing,0.04289640711304449
golf,0.04268152930727242
aw,0.04268152930727242
er,0.04254965053434849
baby,0.04234357827015697
game,0.04234357827015697
big,0.04234357827015697
said,0.04218800949887741
good,0.04218800949887741
man,0.04218800949887741
minute,0.042022838643002186
really,0.042022838643002186
tell,0.04156817163861993
hi,0.04113638058080781
mom,0.04113638058080781
think,0.04091074549011202
tonight,0.04021087619426155
need,0.04021087619426155
best,0.04005364184929138
nice,0.04005364184929138
hero,0.0398253479304684
stole,0.0398253479304684
pull,0.039770858660632305
kid,0.039770858660632305
hate,0.039770858660632305
leave,0.03948257812496826
hell,0.03948257812496826
second,0.03948257812496826
love,0.03946270298645984
new,0.03946270298645984
team,0.038983836643173515
luck,0.038983836643173515
boy,0.038983836643173515
everybody,0.038983836643173515
dad,0.038983836643173515
listen,0.03893014642050789
ah,0.03865906055130745
say,0.03865906055130745
feel,0.03865906055130745
make,0.03865906055130745
strained,0.03853229305787058
syllable,0.03853229305787058
salmon,0.03853229305787058
hiya,0.03853229305787058
mclemore,0.03853229305787058
fries,0.03853229305787058
awesome,0.03853229305787058
classy,0.03853229305787058
comin,0.03853229305787058
brenda,0.03853229305787058
wayne,0.03853229305787058
denver,0.03853229305787058
seahawks,0.03853229305787058
patterson,0.03853229305787058
work,0.037791060596086425
guess,0.03768817984402193
talking,0.0368474909252707
tape,0.03643791753197233
tickets,0.03643791753197233
lot,0.03643791753197233
win,0.03643791753197233
week,0.03643791753197233
pizza,0.03636989226934128
beat,0.03636989226934128
french,0.03636989226934128
gil,0.03636989226934128
different,0.03636989226934128
kidding,0.03629977933507456
place,0.03629977933507456
getting,0.03629977933507456
sure,0.035813927291470565
heard,0.035813927291470565
easy,0.03579410742435734
lock,0.03502416379517439
clean,0.03502416379517439
roll,0.03502416379517439
trick,0.03502416379517439
sunday,0.03502416379517439
job,0.0347257406592401
happy,0.0347257406592401
things,0.0347257406592401
better,0.03467137570206083
mean,0.03467137570206083
freezing,0.03443518910034538
sixteen,0.03443518910034538
dishes,0.03443518910034538
coach,0.03443518910034538
hockey,0.03443518910034538
nah,0.03443518910034538
shrinks,0.03443518910034538
blah,0.03443518910034538
promos,0.03443518910034538
scaring,0.03443518910034538
jeez,0.03443518910034538
loser,0.03443518910034538
lady,0.03345650009765473
working,0.03345650009765473
start,0.03345650009765473
coming,0.03345650009765473
money,0.03345650009765473
play,0.03345650009765473
life,0.03345650009765473
date,0.03345650009765473
talk,0.03345650009765473
night,0.03339411169329543
maybe,0.03339411169329543
people,0.03339411169329543
does,0.03339411169329543
hurt,0.03332196436756303
playing,0.03332196436756303
breakfast,0.03332196436756303
boss,0.03332196436756303
took,0.03332196436756303
shut,0.03332196436756303
damn,0.03332196436756303
kacl,0.03332196436756303
head,0.03332196436756303
mike,0.03332196436756303
sex,0.03332196436756303
wo,0.03290864636264605
saying,0.03290864636264605
woman,0.03290864636264605
hear,0.03290864636264605
radio,0.03290864636264605
pick,0.03290864636264605
station,0.03290864636264605
air,0.03290864636264605
deserve,0.031985284002496187
round,0.031985284002496187
truth,0.031985284002496187
hurts,0.031985284002496187
bite,0.031985284002496187
blame,0.031985284002496187
pretty,0.031985284002496187
noel,0.031985284002496187
christmas,0.031985284002496187
sister,0.031985284002496187
figured,0.031985284002496187
long,0.03194606918964326
hello,0.03194606918964326
sorry,0.03194606918964326
stop,0.03194606918964326
frasier,0.03194606918964326
muffins,0.031087611420043865
points,0.031087611420043865
cards,0.031087611420043865
joking,0.031087611420043865
kicked,0.031087611420043865
loud,0.031087611420043865
king,0.031087611420043865
classic,0.031087611420043865
chuck,0.031087611420043865
milk,0.031087611420043865
costume,0.031087611420043865
gosh,0.031087611420043865
shrink,0.031087611420043865
crack,0.031087611420043865
aliens,0.031087611420043865
constant,0.031087611420043865
thorpe,0.031087611420043865
dump,0.031087611420043865
incredible,0.031087611420043865
believe,0.030759479966703505
bad,0.030759479966703505
wanted,0.030759479966703505
cold,0.030595499952466024
calling,0.030595499952466024
hot,0.030595499952466024
hour,0.030595499952466024
help,0.030595499952466024
kind,0.030595499952466024
party,0.030595499952466024
went,0.030595499952466024
couple,0.030595499952466024
having,0.030595499952466024
sit,0.030595499952466024
surround,0.030274426799269838
huddle,0.030274426799269838
ginseng,0.030274426799269838
suppressants,0.030274426799269838
calorie,0.030274426799269838
whiner,0.030274426799269838
tacos,0.030274426799269838
tut,0.030274426799269838
everyb,0.030274426799269838
impound,0.030274426799269838
archive,0.030274426799269838
latches,0.030274426799269838
childproof,0.030274426799269838
plainly,0.030274426799269838
dislocate,0.030274426799269838
jerks,0.030274426799269838
pacifier,0.030274426799269838
sirens,0.030274426799269838
drown,0.030274426799269838
ymca,0.030274426799269838
dirtball,0.030274426799269838
ram,0.030274426799269838
gigs,0.030274426799269838
schlitz,0.030274426799269838
dumperacha,0.030274426799269838
anklet,0.030274426799269838
splice,0.030274426799269838
nugents,0.030274426799269838
boinked,0.030274426799269838
myrna,0.030274426799269838
warmest,0.030274426799269838
blends,0.030274426799269838
schnozzola,0.030274426799269838
dyslexic,0.030274426799269838
dyslexia,0.030274426799269838
january,0.030274426799269838
guffrey,0.030274426799269838
ump,0.030274426799269838
lecturing,0.030274426799269838
copping,0.030274426799269838
phutt,0.030274426799269838
trainers,0.030274426799269838
vasectomy,0.030274426799269838
nomin,0.030274426799269838
planting,0.030274426799269838
unstoppable,0.030274426799269838
greasin,0.030274426799269838
wimps,0.030274426799269838
patriots,0.030274426799269838
packers,0.030274426799269838
enhanced,0.030274426799269838
eggheads,0.030274426799269838
lpga,0.030274426799269838
rancheros,0.030274426799269838
huevos,0.030274426799269838
posterity,0.030274426799269838
quicker,0.030274426799269838
ugliest,0.030274426799269838
kith,0.030274426799269838
juth,0.030274426799269838
senile,0.030274426799269838
souvlaki,0.030274426799269838
stiffs,0.030274426799269838
tyson,0.030274426799269838
bodacious,0.030274426799269838
curvaceous,0.030274426799269838
giveaway,0.030274426799269838
lizards,0.030274426799269838
expansion,0.030274426799269838
irving,0.030274426799269838
postcards,0.030274426799269838
delicately,0.030274426799269838
baggable,0.030274426799269838
saran,0.030274426799269838
guarding,0.030274426799269838
pantyline,0.030274426799269838
corduroys,0.030274426799269838
gypsy,0.030274426799269838
nicks,0.030274426799269838
hardbody,0.030274426799269838
snapping,0.030274426799269838
harassment,0.030274426799269838
screamer,0.030274426799269838
flunked,0.030274426799269838
ditka,0.030274426799269838
rammed,0.030274426799269838
boner,0.030274426799269838
doo,0.030274426799269838
broncos,0.030274426799269838
offending,0.030274426799269838
stairmaster,0.030274426799269838
documents,0.030274426799269838
greencards,0.030274426799269838
umpires,0.030274426799269838
commentary,0.030274426799269838
topped,0.030274426799269838
vitamin,0.030274426799269838
ivories,0.030274426799269838
harass,0.030274426799269838
camaro,0.030274426799269838
indy,0.030274426799269838
looped,0.030274426799269838
rawhide,0.030274426799269838
squirts,0.030274426799269838
tomcatting,0.030274426799269838
porker,0.030274426799269838
scorched,0.030274426799269838
paquito,0.030274426799269838
goner,0.030274426799269838
practiced,0.030274426799269838
gimmick,0.030274426799269838
clispy,0.030274426799269838
extla,0.030274426799269838
awrays,0.030274426799269838
pekin,0.030274426799269838
parace,0.030274426799269838
sweetcakes,0.030274426799269838
tot,0.030274426799269838
lasorda,0.030274426799269838
fantasizes,0.030274426799269838
home,0.030274426799269838
told,0.030274426799269838
yes,0.030274426799269838
rub,0.02930480205782764
set,0.02930480205782764
doctor,0.02930480205782764
figure,0.02930480205782764
birthday,0.02930480205782764
end,0.02930480205782764
crazy,0.02930480205782764
gone,0.02930480205782764
worry,0.02930480205782764
important,0.02930480205782764
goes,0.02930480205782764
came,0.028297293494653975
seattle,0.028297293494653975
today,0.028297293494653975
thought,0.028297293494653975
crane,0.028297293494653975
low,0.02825727481987862
cookie,0.02825727481987862
ordered,0.02825727481987862
eh,0.02825727481987862
ratings,0.02825727481987862
ugly,0.02825727481987862
fault,0.02825727481987862
camera,0.02825727481987862
scary,0.02825727481987862
attitude,0.02825727481987862
charity,0.02825727481987862
ted,0.02825727481987862
won,0.02825727481987862
pal,0.02825727481987862
dumped,0.02825727481987862
whipped,0.02825727481987862
stage,0.02825727481987862
hanging,0.02825727481987862
floor,0.02825727481987862
meter,0.02825727481987862
introduce,0.02825727481987862
cup,0.02825727481987862
throat,0.02825727481987862
butt,0.02825727481987862
john,0.02825727481987862
gorgeous,0.02825727481987862
idiot,0.02825727481987862
spirit,0.02825727481987862
girlfriend,0.02825727481987862
lines,0.02825727481987862
page,0.02825727481987862
movies,0.02825727481987862
words,0.02812911288127018
morning,0.02812911288127018
weekend,0.02812911288127018
real,0.02812911288127018
hope,0.02812911288127018
day,0.02812911288127018
thanks,0.02812911288127018
open,0.02812911288127018
old,0.02812911288127018
god,0.02812911288127018
coffee,0.02812911288127018
line,0.02812911288127018
dreams,0.0269070292518551
stick,0.0269070292518551
wear,0.0269070292518551
spent,0.0269070292518551
stupid,0.0269070292518551
word,0.0269070292518551
longer,0.0269070292518551
stuff,0.0269070292518551
booth,0.0269070292518551
bit,0.0269070292518551
sense,0.0269070292518551
sound,0.0269070292518551
table,0.0269070292518551
comes,0.0269070292518551
far,0.0269070292518551
use,0.0269070292518551
dinner,0.0269070292518551
stay,0.0269070292518551
supposed,0.0269070292518551
later,0.0269070292518551
knew,0.0269070292518551
ask,0.0269070292518551
hit,0.0269070292518551
news,0.0269070292518551
flaming,0.02587747789647885
y,0.02587747789647885
congrats,0.02587747789647885
quarterback,0.02587747789647885
wrestle,0.02587747789647885
movement,0.02587747789647885
blackballed,0.02587747789647885
healed,0.02587747789647885
hallucinating,0.02587747789647885
sneezing,0.02587747789647885
iq,0.02587747789647885
tycoon,0.02587747789647885
engineer,0.02587747789647885
jerked,0.02587747789647885
november,0.02587747789647885
squirt,0.02587747789647885
bernice,0.02587747789647885
factory,0.02587747789647885
forum,0.02587747789647885
looky,0.02587747789647885
doolittle,0.02587747789647885
glittery,0.02587747789647885
december,0.02587747789647885
boozer,0.02587747789647885
vouch,0.02587747789647885
gong,0.02587747789647885
bruise,0.02587747789647885
aggravate,0.02587747789647885
handicap,0.02587747789647885
golfer,0.02587747789647885
pacemaker,0.02587747789647885
narrow,0.02587747789647885
pea,0.02587747789647885
maestro,0.02587747789647885
salsa,0.02587747789647885
terminal,0.02587747789647885
kane,0.02587747789647885
maids,0.02587747789647885
mikado,0.02587747789647885
syllables,0.02587747789647885
liven,0.02587747789647885
sprinklers,0.02587747789647885
iceman,0.02587747789647885
crybabies,0.02587747789647885
sleigh,0.02587747789647885
cheeseburgers,0.02587747789647885
struggle,0.02587747789647885
towed,0.02587747789647885
eccentric,0.02587747789647885
ledge,0.02587747789647885
coleslaw,0.02587747789647885
observes,0.02587747789647885
poppin,0.02587747789647885
narrowed,0.02587747789647885
peaches,0.02587747789647885
foreman,0.02587747789647885
september,0.02587747789647885
drum,0.02587747789647885
donuts,0.02587747789647885
greetings,0.02587747789647885
nativity,0.02587747789647885
scram,0.02587747789647885
playmate,0.02587747789647885
outfits,0.02587747789647885
impartial,0.02587747789647885
wept,0.02587747789647885
blindfold,0.02587747789647885
planets,0.02587747789647885
griffey,0.02587747789647885
skippy,0.02587747789647885
buffalo,0.02587747789647885
sniffin,0.02587747789647885
bingo,0.02587747789647885
scarier,0.02587747789647885
snooze,0.02587747789647885
rookie,0.02587747789647885
jets,0.02587747789647885
flea,0.02587747789647885
lettuce,0.02587747789647885
aloha,0.02587747789647885
puke,0.02587747789647885
transmitter,0.02587747789647885
housekeepers,0.02587747789647885
canoe,0.02587747789647885
slutty,0.02587747789647885
coot,0.02587747789647885
java,0.02587747789647885
budner,0.02587747789647885
liz,0.02587747789647885
payton,0.02587747789647885
keyhole,0.02587747789647885
weirdos,0.02587747789647885
sayonara,0.02587747789647885
away,0.02587747789647885
doing,0.02587747789647885
thank,0.02587747789647885
seen,0.02587747789647885
miles,0.02580552573748897
brave,0.02580552573748897
soft,0.02580552573748897
video,0.02580552573748897
goodbye,0.02580552573748897
gun,0.02580552573748897
war,0.02580552573748897
awkward,0.02580552573748897
sir,0.02580552573748897
difference,0.02580552573748897
tea,0.02580552573748897
willing,0.02580552573748897
amazing,0.02580552573748897
seriously,0.02580552573748897
attention,0.02580552573748897
ha,0.02580552573748897
wearing,0.02580552573748897
bunch,0.02580552573748897
dog,0.02580552573748897
friday,0.02580552573748897
interview,0.02580552573748897
hungry,0.02580552573748897
pretend,0.02580552573748897
sleep,0.02580552573748897
company,0.02580552573748897
born,0.02580552573748897
meant,0.02580552573748897
girl,0.02580552573748897
producer,0.02580552573748897
lost,0.02580552573748897
gee,0.02580552573748897
dress,0.02580552573748897
crap,0.02580552573748897
times,0.02580552573748897
alright,0.02580552573748897
thirty,0.02580552573748897
waiting,0.02473797990884167
moment,0.02473797990884167
probably,0.02473797990884167
friend,0.02473797990884167
fun,0.02473797990884167
saw,0.02473797990884167
wants,0.02473797990884167
remember,0.02473797990884167
live,0.02473797990884167
minutes,0.02473797990884167
turn,0.02473797990884167
problem,0.02473797990884167
forget,0.02473797990884167
happen,0.02473797990884167
um,0.02364292978221715
feet,0.02364292978221715
admit,0.02364292978221715
speech,0.02364292978221715
save,0.02364292978221715
young,0.02364292978221715
loved,0.02364292978221715
ice,0.02364292978221715
worth,0.02364292978221715
power,0.02364292978221715
bebe,0.02364292978221715
close,0.02364292978221715
high,0.02364292978221715
respect,0.02364292978221715
glad,0.02364292978221715
kids,0.02364292978221715
plan,0.02364292978221715
nuts,0.02364292978221715
clear,0.02364292978221715
break,0.02364292978221715
saturday,0.02364292978221715
hospital,0.02364292978221715
women,0.02364292978221715
making,0.02364292978221715
calls,0.02364292978221715
means,0.02364292978221715
record,0.02364292978221715
drink,0.02364292978221715
answer,0.02364292978221715
funny,0.02364292978221715
point,0.02364292978221715
fan,0.02364292978221715
double,0.02364292978221715
likes,0.02364292978221715
car,0.02364292978221715
somebody,0.02364292978221715
thinking,0.02364292978221715
weeks,0.02364292978221715
bed,0.02364292978221715
busting,0.02275779300245325
sneeze,0.02275779300245325
pony,0.02275779300245325
bottoms,0.02275779300245325
disabled,0.02275779300245325
clinging,0.02275779300245325
soldiers,0.02275779300245325
cabinet,0.02275779300245325
chuckle,0.02275779300245325
brew,0.02275779300245325
disturb,0.02275779300245325
mindy,0.02275779300245325
jill,0.02275779300245325
hut,0.02275779300245325
poking,0.02275779300245325
mysteries,0.02275779300245325
link,0.02275779300245325
scale,0.02275779300245325
icy,0.02275779300245325
temper,0.02275779300245325
scores,0.02275779300245325
cubes,0.02275779300245325
defensive,0.02275779300245325
distraction,0.02275779300245325
phones,0.02275779300245325
fetching,0.02275779300245325
greek,0.02275779300245325
masterpiece,0.02275779300245325
giants,0.02275779300245325
humour,0.02275779300245325
protecting,0.02275779300245325
events,0.02275779300245325
chilly,0.02275779300245325
costas,0.02275779300245325
bothered,0.02275779300245325
stones,0.02275779300245325
reservation,0.02275779300245325
tackling,0.02275779300245325
drip,0.02275779300245325
butterflies,0.02275779300245325
pucker,0.02275779300245325
ken,0.02275779300245325
guatemala,0.02275779300245325
irony,0.02275779300245325
threatening,0.02275779300245325
chicago,0.02275779300245325
porch,0.02275779300245325
brilliance,0.02275779300245325
microphone,0.02275779300245325
wrestled,0.02275779300245325
tequila,0.02275779300245325
trademark,0.02275779300245325
august,0.02275779300245325
groin,0.02275779300245325
sandy,0.02275779300245325
overpaid,0.02275779300245325
ducks,0.02275779300245325
coyote,0.02275779300245325
booze,0.02275779300245325
cups,0.02275779300245325
nfl,0.02275779300245325
snowman,0.02275779300245325
pastrami,0.02275779300245325
shooter,0.02275779300245325
engines,0.02275779300245325
tuned,0.02275779300245325
voting,0.02275779300245325
crank,0.02275779300245325
july,0.02275779300245325
accuracy,0.02275779300245325
liquor,0.02275779300245325
somethin,0.02275779300245325
excellence,0.02275779300245325
poisoning,0.02275779300245325
shempsky,0.02275779300245325
accepting,0.02275779300245325
tomatoes,0.02275779300245325
equals,0.02275779300245325
weddings,0.02275779300245325
victoria,0.02275779300245325
aww,0.02275779300245325
wandering,0.02275779300245325
millionaire,0.02275779300245325
jello,0.02275779300245325
pinched,0.02275779300245325
format,0.02275779300245325
babysitter,0.02275779300245325
peeling,0.02275779300245325
webber,0.02275779300245325
unemployment,0.02275779300245325
wang,0.02275779300245325
bugging,0.02275779300245325
sloppy,0.02275779300245325
bridesmaid,0.02275779300245325
penthouse,0.02275779300245325
recording,0.02275779300245325
emcee,0.02275779300245325
feeling,0.02275779300245325
newsroom,0.02275779300245325
ned,0.02275779300245325
actually,0.02275779300245325
peeve,0.02275779300245325
kenny,0.021708421779963783
music,0.021708421779963783
quick,0.021708421779963783
tip,0.021708421779963783
proud,0.021708421779963783
drive,0.021708421779963783
catch,0.021708421779963783
felt,0.021708421779963783
write,0.021708421779963783
knock,0.021708421779963783
bag,0.021708421779963783
chance,0.021708421779963783
fine,0.021708421779963783
reason,0.021708421779963783
miss,0.021708421779963783
box,0.021708421779963783
used,0.021708421779963783
caught,0.021708421779963783
perfect,0.021708421779963783
wrong,0.021708421779963783
door,0.021708421779963783
wish,0.021708421779963783
men,0.021708421779963783
heart,0.021708421779963783
ready,0.021708421779963783
suppose,0.021708421779963783
world,0.021708421779963783
deal,0.021708421779963783
house,0.021708421779963783
excuse,0.021708421779963783
sweet,0.021708421779963783
injured,0.020337977404278125
arrives,0.020337977404278125
pinned,0.020337977404278125
buns,0.020337977404278125
similar,0.020337977404278125
fires,0.020337977404278125
mercy,0.020337977404278125
colour,0.020337977404278125
method,0.020337977404278125
crawled,0.020337977404278125
measured,0.020337977404278125
cart,0.020337977404278125
comforting,0.020337977404278125
slap,0.020337977404278125
bout,0.020337977404278125
wonders,0.020337977404278125
cherry,0.020337977404278125
julius,0.020337977404278125
blown,0.020337977404278125
wednesday,0.020337977404278125
papa,0.020337977404278125
pumped,0.020337977404278125
october,0.020337977404278125
maker,0.020337977404278125
snacks,0.020337977404278125
platter,0.020337977404278125
arguing,0.020337977404278125
guide,0.020337977404278125
compliments,0.020337977404278125
brag,0.020337977404278125
ahh,0.020337977404278125
pace,0.020337977404278125
steamer,0.020337977404278125
bypass,0.020337977404278125
bmw,0.020337977404278125
confession,0.020337977404278125
mixed,0.020337977404278125
aah,0.020337977404278125
bleeding,0.020337977404278125
mantle,0.020337977404278125
camping,0.020337977404278125
relaxing,0.020337977404278125
watering,0.020337977404278125
zero,0.020337977404278125
gotcha,0.020337977404278125
honored,0.020337977404278125
slogan,0.020337977404278125
salty,0.020337977404278125
repay,0.020337977404278125
forces,0.020337977404278125
truly,0.020337977404278125
babe,0.020337977404278125
rolling,0.020337977404278125
confidential,0.020337977404278125
lumps,0.020337977404278125
sophisticated,0.020337977404278125
lousy,0.020337977404278125
c,0.020337977404278125
curse,0.020337977404278125
daly,0.020337977404278125
nick,0.020337977404278125
producing,0.020337977404278125
microsoft,0.020337977404278125
mommy,0.020337977404278125
equipment,0.020337977404278125
lizard,0.020337977404278125
memorial,0.020337977404278125
painted,0.020337977404278125
needy,0.020337977404278125
outta,0.020337977404278125
madeline,0.020337977404278125
receptionist,0.020337977404278125
sucks,0.020337977404278125
weems,0.020337977404278125
miller,0.020337977404278125
canned,0.020337977404278125
lighten,0.020337977404278125
room,0.01995844642746579
send,0.01995844642746579
ladies,0.01995844642746579
idea,0.01995844642746579
year,0.01995844642746579
years,0.01995844642746579
promise,0.01995844642746579
run,0.01995844642746579
manager,0.01995844642746579
makes,0.01995844642746579
wife,0.01995844642746579
hard,0.01995844642746579
mind,0.01995844642746579
family,0.01995844642746579
story,0.01995844642746579
left,0.01995844642746579
fetch,0.01836084409966226
enter,0.01836084409966226
delighted,0.01836084409966226
worthless,0.01836084409966226
noises,0.01836084409966226
rooms,0.01836084409966226
injury,0.01836084409966226
hawaii,0.01836084409966226
illegal,0.01836084409966226
collar,0.01836084409966226
allow,0.01836084409966226
hurting,0.01836084409966226
dollar,0.01836084409966226
oven,0.01836084409966226
finger,0.01836084409966226
apron,0.01836084409966226
sheet,0.01836084409966226
passed,0.01836084409966226
pound,0.01836084409966226
frosty,0.01836084409966226
integrity,0.01836084409966226
slim,0.01836084409966226
locker,0.01836084409966226
serving,0.01836084409966226
cash,0.01836084409966226
pete,0.01836084409966226
whining,0.01836084409966226
underneath,0.01836084409966226
signals,0.01836084409966226
alert,0.01836084409966226
deliver,0.01836084409966226
wasting,0.01836084409966226
fed,0.01836084409966226
sack,0.01836084409966226
horn,0.01836084409966226
stone,0.01836084409966226
paint,0.01836084409966226
sneak,0.01836084409966226
roof,0.01836084409966226
storage,0.01836084409966226
halloween,0.01836084409966226
tail,0.01836084409966226
garage,0.01836084409966226
beef,0.01836084409966226
decency,0.01836084409966226
center,0.01836084409966226
chew,0.01836084409966226
scheduled,0.01836084409966226
athletic,0.01836084409966226
lit,0.01836084409966226
maid,0.01836084409966226
beating,0.01836084409966226
avoiding,0.01836084409966226
bike,0.01836084409966226
rescue,0.01836084409966226
cafe,0.01836084409966226
comment,0.01836084409966226
sisters,0.01836084409966226
artist,0.01836084409966226
doll,0.01836084409966226
appetite,0.01836084409966226
seats,0.01836084409966226
secrets,0.01836084409966226
jerk,0.01836084409966226
bastard,0.01836084409966226
caring,0.01836084409966226
dumping,0.01836084409966226
weenie,0.01836084409966226
pushy,0.01836084409966226
assistant,0.01836084409966226
winter,0.01836084409966226
numbers,0.01836084409966226
lincoln,0.01836084409966226
cow,0.01836084409966226
prize,0.01836084409966226
thirsty,0.01836084409966226
fling,0.01836084409966226
pole,0.01836084409966226
stripper,0.01836084409966226
hooker,0.01836084409966226
helps,0.01836084409966226
jobs,0.01836084409966226
wears,0.01836084409966226
honour,0.01836084409966226
anymore,0.01836084409966226
tender,0.01836084409966226
o,0.01836084409966226
moron,0.01836084409966226
eat,0.01836084409966226
thighs,0.01836084409966226
ugh,0.01836084409966226
hook,0.01836084409966226
lies,0.01836084409966226
stockings,0.01836084409966226
wild,0.01836084409966226
stink,0.01836084409966226
naughty,0.01836084409966226
offended,0.01836084409966226
screw,0.01836084409966226
yell,0.01836084409966226
tires,0.01836084409966226
crowded,0.01836084409966226
pounding,0.01836084409966226
charge,0.01836084409966226
report,0.01836084409966226
pasta,0.01836084409966226
ma,0.01836084409966226
liver,0.01836084409966226
picks,0.01836084409966226
following,0.01836084409966226
stretch,0.01836084409966226
ticket,0.01836084409966226
linda,0.01836084409966226
marshall,0.01836084409966226
dave,0.01836084409966226
chopper,0.01836084409966226
sponsor,0.01836084409966226
kidney,0.01836084409966226
broadcasting,0.01836084409966226
dated,0.01836084409966226
cutest,0.01836084409966226
alike,0.01836084409966226
rip,0.01836084409966226
slot,0.01836084409966226
paranoid,0.01836084409966226
breaks,0.01836084409966226
losers,0.01836084409966226
crawl,0.01836084409966226
catalogue,0.01836084409966226
winner,0.01836084409966226
bra,0.01836084409966226
wallet,0.01836084409966226
stops,0.01836084409966226
general,0.01836084409966226
tomorrow,0.01836084409966226
letters,0.01836084409966226
called,0.01836084409966226
lift,0.01668920170928884
turkey,0.01668920170928884
professional,0.01668920170928884
privacy,0.01668920170928884
surgery,0.01668920170928884
senses,0.01668920170928884
sending,0.01668920170928884
ground,0.01668920170928884
losing,0.01668920170928884
fridge,0.01668920170928884
rice,0.01668920170928884
ends,0.01668920170928884
leg,0.01668920170928884
ironic,0.01668920170928884
holes,0.01668920170928884
skills,0.01668920170928884
parents,0.01668920170928884
spin,0.01668920170928884
faces,0.01668920170928884
attack,0.01668920170928884
taught,0.01668920170928884
prank,0.01668920170928884
knee,0.01668920170928884
piano,0.01668920170928884
deep,0.01668920170928884
jack,0.01668920170928884
moves,0.01668920170928884
wind,0.01668920170928884
headed,0.01668920170928884
george,0.01668920170928884
draw,0.01668920170928884
deli,0.01668920170928884
steel,0.01668920170928884
pour,0.01668920170928884
listened,0.01668920170928884
skip,0.01668920170928884
walked,0.01668920170928884
burning,0.01668920170928884
headache,0.01668920170928884
begging,0.01668920170928884
bitch,0.01668920170928884
disease,0.01668920170928884
fancy,0.01668920170928884
finds,0.01668920170928884
bobby,0.01668920170928884
smile,0.01668920170928884
cook,0.01668920170928884
toy,0.01668920170928884
hates,0.01668920170928884
letting,0.01668920170928884
familiar,0.01668920170928884
condition,0.01668920170928884
wan,0.01668920170928884
responsible,0.01668920170928884
junior,0.01668920170928884
heavy,0.01668920170928884
shake,0.01668920170928884
group,0.01668920170928884
eighteen,0.01668920170928884
begins,0.01668920170928884
toe,0.01668920170928884
player,0.01668920170928884
ran,0.01668920170928884
mystery,0.01668920170928884
friendship,0.01668920170928884
cares,0.01668920170928884
airport,0.01668920170928884
yesterday,0.01668920170928884
anytime,0.01668920170928884
rule,0.01668920170928884
explain,0.01668920170928884
wrap,0.01668920170928884
streets,0.01668920170928884
stood,0.01668920170928884
elevator,0.01668920170928884
songs,0.01668920170928884
flash,0.01668920170928884
tank,0.01668920170928884
restaurants,0.01668920170928884
shoes,0.01668920170928884
forehead,0.01668920170928884
limo,0.01668920170928884
apology,0.01668920170928884
boring,0.01668920170928884
dirt,0.01668920170928884
snow,0.01668920170928884
chemistry,0.01668920170928884
park,0.01668920170928884
squeeze,0.01668920170928884
games,0.01668920170928884
lose,0.01668920170928884
bother,0.01668920170928884
tired,0.01668920170928884
shot,0.01668920170928884
event,0.01668920170928884
sleeping,0.01668920170928884
model,0.01668920170928884
slow,0.01668920170928884
cute,0.01668920170928884
needle,0.01668920170928884
challenge,0.01668920170928884
threw,0.01668920170928884
case,0.01668920170928884
interested,0.01668920170928884
dressed,0.01668920170928884
introduced,0.01668920170928884
support,0.01668920170928884
smart,0.01668920170928884
million,0.01668920170928884
bonnie,0.01668920170928884
passing,0.01668920170928884
dating,0.01668920170928884
swing,0.01668920170928884
knees,0.01668920170928884
spot,0.01668920170928884
skirt,0.01668920170928884
fight,0.01668920170928884
underwear,0.01668920170928884
crowd,0.01668920170928884
shoe,0.01668920170928884
shower,0.01668920170928884
ad,0.01668920170928884
jar,0.01668920170928884
touching,0.01668920170928884
honey,0.01668920170928884
blood,0.015241159205636661
steal,0.015241159205636661
egg,0.015241159205636661
wreck,0.015241159205636661
arm,0.015241159205636661
fall,0.015241159205636661
load,0.015241159205636661
age,0.015241159205636661
drinking,0.015241159205636661
duck,0.015241159205636661
tears,0.015241159205636661
moving,0.015241159205636661
green,0.015241159205636661
sandwich,0.015241159205636661
turned,0.015241159205636661
doctors,0.015241159205636661
giant,0.015241159205636661
sec,0.015241159205636661
talks,0.015241159205636661
gentleman,0.015241159205636661
return,0.015241159205636661
cool,0.015241159205636661
wondering,0.015241159205636661
certain,0.015241159205636661
early,0.015241159205636661
competition,0.015241159205636661
ways,0.015241159205636661
list,0.015241159205636661
fingers,0.015241159205636661
bodies,0.015241159205636661
asleep,0.015241159205636661
cancel,0.015241159205636661
miracle,0.015241159205636661
hurry,0.015241159205636661
sexual,0.015241159205636661
cousin,0.015241159205636661
paid,0.015241159205636661
santa,0.015241159205636661
yep,0.015241159205636661
broken,0.015241159205636661
health,0.015241159205636661
tongue,0.015241159205636661
involved,0.015241159205636661
knocked,0.015241159205636661
excited,0.015241159205636661
chase,0.015241159205636661
turns,0.015241159205636661
jump,0.015241159205636661
hug,0.015241159205636661
celebrate,0.015241159205636661
matters,0.015241159205636661
nerve,0.015241159205636661
kitchen,0.015241159205636661
nightmare,0.015241159205636661
fishing,0.015241159205636661
rules,0.015241159205636661
sad,0.015241159205636661
opera,0.015241159205636661
worried,0.015241159205636661
telling,0.015241159205636661
finding,0.015241159205636661
champagne,0.015241159205636661
small,0.015241159205636661
eats,0.015241159205636661
pool,0.015241159205636661
smoking,0.015241159205636661
quiet,0.015241159205636661
promised,0.015241159205636661
burn,0.015241159205636661
forever,0.015241159205636661
bus,0.015241159205636661
experience,0.015241159205636661
phil,0.015241159205636661
foot,0.015241159205636661
frederick,0.015241159205636661
killing,0.015241159205636661
handle,0.015241159205636661
camp,0.015241159205636661
tough,0.015241159205636661
push,0.015241159205636661
prefer,0.015241159205636661
decide,0.015241159205636661
pants,0.015241159205636661
opening,0.015241159205636661
club,0.015241159205636661
fat,0.015241159205636661
books,0.015241159205636661
acting,0.015241159205636661
edge,0.015241159205636661
worst,0.015241159205636661
owe,0.015241159205636661
jokes,0.015241159205636661
gym,0.015241159205636661
disgusting,0.015241159205636661
wet,0.015241159205636661
warn,0.015241159205636661
book,0.015241159205636661
stuck,0.015241159205636661
suddenly,0.015241159205636661
traffic,0.015241159205636661
ones,0.015241159205636661
till,0.015241159205636661
welcome,0.015241159205636661
living,0.015241159205636661
eye,0.015241159205636661
finish,0.015241159205636661
ahead,0.015241159205636661
worse,0.015241159205636661
tv,0.015241159205636661
conversation,0.015241159205636661
building,0.015241159205636661
brings,0.015241159205636661
keys,0.015241159205636661
concerned,0.015241159205636661
interesting,0.015241159205636661
present,0.015241159205636661
ass,0.015241159205636661
gave,0.015241159205636661
touch,0.015241159205636661
contract,0.015241159205636661
dance,0.015241159205636661
glass,0.015241159205636661
spend,0.015241159205636661
pet,0.015241159205636661
completely,0.015241159205636661
says,0.015241159205636661
cooking,0.015241159205636661
parts,0.015241159205636661
broke,0.015241159205636661
dropped,0.015241159205636661
owner,0.013963895196871268
eggs,0.013963895196871268
memories,0.013963895196871268
moon,0.013963895196871268
scene,0.013963895196871268
ouch,0.013963895196871268
spring,0.013963895196871268
bottle,0.013963895196871268
fired,0.013963895196871268
skin,0.013963895196871268
bought,0.013963895196871268
chest,0.013963895196871268
wrote,0.013963895196871268
lovely,0.013963895196871268
wonder,0.013963895196871268
agent,0.013963895196871268
black,0.013963895196871268
candy,0.013963895196871268
body,0.013963895196871268
knowing,0.013963895196871268
known,0.013963895196871268
boys,0.013963895196871268
wedding,0.013963895196871268
met,0.013963895196871268
cream,0.013963895196871268
naked,0.013963895196871268
changed,0.013963895196871268
drop,0.013963895196871268
sudden,0.013963895196871268
quit,0.013963895196871268
chef,0.013963895196871268
nose,0.013963895196871268
bedroom,0.013963895196871268
finally,0.013963895196871268
feels,0.013963895196871268
giving,0.013963895196871268
lunch,0.013963895196871268
town,0.013963895196871268
starting,0.013963895196871268
started,0.013963895196871268
heat,0.013963895196871268
busy,0.013963895196871268
half,0.013963895196871268
sick,0.013963895196871268
mouth,0.013963895196871268
food,0.013963895196871268
missed,0.013963895196871268
calm,0.013963895196871268
slip,0.013963895196871268
simple,0.013963895196871268
generous,0.013963895196871268
chair,0.013963895196871268
space,0.013963895196871268
honest,0.013963895196871268
asking,0.013963895196871268
older,0.013963895196871268
loves,0.013963895196871268
piece,0.013963895196871268
business,0.013963895196871268
happens,0.013963895196871268
friends,0.013963895196871268
water,0.013963895196871268
fell,0.013963895196871268
window,0.013963895196871268
entire,0.013963895196871268
doyle,0.013963895196871268
middle,0.013963895196871268
totally,0.013963895196871268
kept,0.013963895196871268
brother,0.013963895196871268
looked,0.012821343607461537
kick,0.012821343607461537
saved,0.012821343607461537
check,0.012821343607461537
natural,0.012821343607461537
dream,0.012821343607461537
feelings,0.012821343607461537
join,0.012821343607461537
past,0.012821343607461537
bet,0.012821343607461537
voice,0.012821343607461537
short,0.012821343607461537
closet,0.012821343607461537
ride,0.012821343607461537
running,0.012821343607461537
hired,0.012821343607461537
bring,0.012821343607461537
number,0.012821343607461537
complete,0.012821343607461537
extra,0.012821343607461537
picture,0.012821343607461537
laugh,0.012821343607461537
personal,0.012821343607461537
asked,0.012821343607461537
afternoon,0.012821343607461537
trust,0.012821343607461537
happened,0.012821343607461537
brought,0.012821343607461537
married,0.012821343607461537
biggest,0.012821343607461537
evening,0.012821343607461537
tried,0.012821343607461537
advice,0.012821343607461537
instead,0.012821343607461537
mother,0.012821343607461537
change,0.012821343607461537
pay,0.012821343607461537
ooh,0.012821343607461537
hours,0.012821343607461537
walk,0.012821343607461537
looking,0.012821343607461537
gets,0.012821343607461537
son,0.012821343607461537
cut,0.012821343607461537
congratulations,0.011787779973661403
quite,0.011787779973661403
leaving,0.011787779973661403
understand,0.011787779973661403
watch,0.011787779973661403
father,0.011787779973661403
eyes,0.011787779973661403
needed,0.011787779973661403
stand,0.011787779973661403
niles,0.011787779973661403
hand,0.011787779973661403
beautiful,0.011787779973661403
ago,0.011787779973661403
course,0.010844210302845672
