hi,0.12491508574429074
asmodeus,0.12366116839059778
prosper,0.12366116839059778
bakula,0.10570106489208977
roz,0.10177749081249755
crane,0.10028214787318981
oh,0.09520275875418133
scott,0.09295816866605759
dr,0.09295816866605759
just,0.08889362673558031
learn,0.08449489680174703
planet,0.08307401045740913
hey,0.08071294834135243
guys,0.0771636772478162
convention,0.07499806516754957
nomination,0.07499806516754957
announcing,0.07303627812775346
lusts,0.07303627812775346
demon,0.07303627812775346
destroyer,0.07303627812775346
cramps,0.07303627812775346
incapacitating,0.07303627812775346
digestive,0.07303627812775346
fairest,0.07303627812775346
roddenberry,0.07303627812775346
delivers,0.07303627812775346
dna,0.07303627812775346
septaurus,0.07303627812775346
welshed,0.07303627812775346
autography,0.07303627812775346
captains,0.07303627812775346
herd,0.07303627812775346
rustler,0.07303627812775346
trekker,0.07303627812775346
splendiferous,0.07303627812775346
phasers,0.07303627812775346
triumphant,0.07303627812775346
electra,0.07303627812775346
anonymously,0.07303627812775346
ixnay,0.07303627812775346
enterprise,0.07303627812775346
starship,0.07303627812775346
outweigh,0.07303627812775346
dissed,0.07303627812775346
blindness,0.07303627812775346
metered,0.07303627812775346
congratulating,0.07303627812775346
adhesion,0.07303627812775346
say,0.07303627812775346
did,0.07303627812775346
great,0.06826649474295124
got,0.06826649474295124
pay,0.06491251791685397
worlds,0.062428751679539804
priests,0.062428751679539804
sunrise,0.062428751679539804
guided,0.062428751679539804
query,0.062428751679539804
gene,0.062428751679539804
klingon,0.062428751679539804
hound,0.062428751679539804
restraining,0.062428751679539804
shatner,0.062428751679539804
quo,0.062428751679539804
translate,0.062428751679539804
filly,0.062428751679539804
coworkers,0.062428751679539804
coincidences,0.062428751679539804
hangout,0.062428751679539804
headphones,0.062428751679539804
ribbon,0.062428751679539804
napoleon,0.062428751679539804
dictionary,0.062428751679539804
saver,0.062428751679539804
gravel,0.062428751679539804
various,0.062428751679539804
producers,0.062428751679539804
talented,0.062428751679539804
lunchroom,0.062428751679539804
posted,0.062428751679539804
negotiating,0.062428751679539804
tiberius,0.062428751679539804
eater,0.062428751679539804
phaser,0.062428751679539804
good,0.062428751679539804
want,0.062428751679539804
make,0.062428751679539804
mitzvah,0.06225516894151737
needs,0.06225516894151737
noel,0.06225516894151737
thanks,0.059679742011978024
live,0.059679742011978024
okay,0.059679742011978024
speech,0.057037961669041556
making,0.057037961669041556
guy,0.057037961669041556
friends,0.057037961669041556
m,0.054902591891223027
launch,0.054902591891223027
fastest,0.054902591891223027
clan,0.054902591891223027
laughingstock,0.054902591891223027
quid,0.054902591891223027
overhear,0.054902591891223027
lookin,0.054902591891223027
mere,0.054902591891223027
mating,0.054902591891223027
supper,0.054902591891223027
superior,0.054902591891223027
depends,0.054902591891223027
nothin,0.054902591891223027
shempsky,0.054902591891223027
bells,0.054902591891223027
trek,0.054902591891223027
memo,0.054902591891223027
hebrew,0.054902591891223027
collins,0.054902591891223027
long,0.054902591891223027
kirk,0.054902591891223027
night,0.054902591891223027
know,0.054902591891223027
like,0.054902591891223027
little,0.054902591891223027
check,0.052371010732868935
knock,0.052371010732868935
working,0.052371010732868935
bar,0.052371010732868935
care,0.052371010732868935
date,0.052371010732868935
later,0.052371010732868935
steaks,0.04906484882781159
glen,0.04906484882781159
appears,0.04906484882781159
joan,0.04906484882781159
pro,0.04906484882781159
manner,0.04906484882781159
comb,0.04906484882781159
item,0.04906484882781159
blocking,0.04906484882781159
balloons,0.04906484882781159
weapon,0.04906484882781159
blocks,0.04906484882781159
sweetest,0.04906484882781159
organ,0.04906484882781159
bump,0.04906484882781159
appearance,0.04906484882781159
petition,0.04906484882781159
disorder,0.04906484882781159
smiled,0.04906484882781159
watch,0.04814924008105137
uh,0.04814924008105137
send,0.04814924008105137
best,0.04814924008105137
friend,0.04814924008105137
promise,0.04814924008105137
hard,0.04814924008105137
coffee,0.04814924008105137
left,0.04814924008105137
vision,0.04429506544300936
fox,0.04429506544300936
william,0.04429506544300936
timing,0.04429506544300936
bid,0.04429506544300936
stunning,0.04429506544300936
officer,0.04429506544300936
thermos,0.04429506544300936
shots,0.04429506544300936
thunder,0.04429506544300936
character,0.04429506544300936
shhh,0.04429506544300936
root,0.04429506544300936
deserves,0.04429506544300936
wig,0.04429506544300936
regret,0.04429506544300936
kinds,0.04429506544300936
charades,0.04429506544300936
ship,0.04429506544300936
spice,0.04429506544300936
effect,0.04429506544300936
wore,0.04429506544300936
language,0.04429506544300936
cancelled,0.04429506544300936
collection,0.04429506544300936
away,0.04429506544300936
sweater,0.04429506544300936
doing,0.04429506544300936
hello,0.04429506544300936
sorry,0.04429506544300936
wait,0.04429506544300936
autograph,0.04429506544300936
love,0.04429506544300936
sure,0.04429506544300936
need,0.04429506544300936
time,0.04429506544300936
new,0.04429506544300936
told,0.04429506544300936
people,0.04429506544300936
right,0.04429506544300936
frasier,0.04429506544300936
think,0.04429506544300936
tomorrow,0.04429506544300936
heard,0.04429506544300936
does,0.04429506544300936
ironic,0.040262271053111934
salary,0.040262271053111934
holes,0.040262271053111934
faint,0.040262271053111934
skills,0.040262271053111934
honor,0.040262271053111934
block,0.040262271053111934
tuesday,0.040262271053111934
pocket,0.040262271053111934
rain,0.040262271053111934
auction,0.040262271053111934
goin,0.040262271053111934
size,0.040262271053111934
jealous,0.040262271053111934
rack,0.040262271053111934
rose,0.040262271053111934
regular,0.040262271053111934
suggesting,0.040262271053111934
using,0.040262271053111934
shoot,0.040262271053111934
plays,0.040262271053111934
screen,0.040262271053111934
listeners,0.040262271053111934
teach,0.040262271053111934
diet,0.040262271053111934
explains,0.040262271053111934
neck,0.040262271053111934
james,0.040262271053111934
keeps,0.040262271053111934
growing,0.040262271053111934
fantasy,0.040262271053111934
kill,0.040262271053111934
rings,0.040262271053111934
legs,0.036768905654692575
egg,0.036768905654692575
stars,0.036768905654692575
julia,0.036768905654692575
arm,0.036768905654692575
especially,0.036768905654692575
cruel,0.036768905654692575
near,0.036768905654692575
named,0.036768905654692575
giant,0.036768905654692575
tux,0.036768905654692575
beer,0.036768905654692575
return,0.036768905654692575
gun,0.036768905654692575
competition,0.036768905654692575
class,0.036768905654692575
rented,0.036768905654692575
secret,0.036768905654692575
outfit,0.036768905654692575
bear,0.036768905654692575
treated,0.036768905654692575
forever,0.036768905654692575
count,0.036768905654692575
joke,0.036768905654692575
strike,0.036768905654692575
sat,0.036768905654692575
nature,0.036768905654692575
earth,0.036768905654692575
edge,0.036768905654692575
sea,0.036768905654692575
showing,0.036768905654692575
perfectly,0.036768905654692575
parking,0.036768905654692575
warn,0.036768905654692575
read,0.036768905654692575
captain,0.036768905654692575
nominated,0.036768905654692575
keys,0.036768905654692575
concerned,0.036768905654692575
ass,0.036768905654692575
dance,0.036768905654692575
seconds,0.036768905654692575
worn,0.0336875389947957
um,0.0336875389947957
stomach,0.0336875389947957
wall,0.0336875389947957
bringing,0.0336875389947957
order,0.0336875389947957
warm,0.0336875389947957
candy,0.0336875389947957
set,0.0336875389947957
outside,0.0336875389947957
playing,0.0336875389947957
boss,0.0336875389947957
changed,0.0336875389947957
huge,0.0336875389947957
high,0.0336875389947957
question,0.0336875389947957
heat,0.0336875389947957
city,0.0336875389947957
seat,0.0336875389947957
missed,0.0336875389947957
ok,0.0336875389947957
true,0.0336875389947957
surprised,0.0336875389947957
birthday,0.0336875389947957
sign,0.0336875389947957
saturday,0.0336875389947957
luck,0.0336875389947957
means,0.0336875389947957
point,0.0336875389947957
car,0.0336875389947957
mom,0.0336875389947957
ta,0.0336875389947957
star,0.0336875389947957
favorite,0.03093116259128115
kenny,0.03093116259128115
stick,0.03093116259128115
music,0.03093116259128115
tip,0.03093116259128115
drive,0.03093116259128115
catch,0.03093116259128115
wear,0.03093116259128115
join,0.03093116259128115
lady,0.03093116259128115
hands,0.03093116259128115
bet,0.03093116259128115
stupid,0.03093116259128115
closet,0.03093116259128115
speaking,0.03093116259128115
replace,0.03093116259128115
bag,0.03093116259128115
booth,0.03093116259128115
complete,0.03093116259128115
extra,0.03093116259128115
sound,0.03093116259128115
late,0.03093116259128115
personal,0.03093116259128115
asked,0.03093116259128115
box,0.03093116259128115
table,0.03093116259128115
caught,0.03093116259128115
afternoon,0.03093116259128115
trust,0.03093116259128115
door,0.03093116259128115
comes,0.03093116259128115
easy,0.03093116259128115
far,0.03093116259128115
brought,0.03093116259128115
knows,0.03093116259128115
tried,0.03093116259128115
school,0.03093116259128115
ready,0.03093116259128115
world,0.03093116259128115
deal,0.03093116259128115
expect,0.03093116259128115
party,0.03093116259128115
son,0.03093116259128115
hit,0.03093116259128115
cut,0.03093116259128115
congratulations,0.028437716835182515
quite,0.028437716835182515
words,0.028437716835182515
leaving,0.028437716835182515
understand,0.028437716835182515
surprise,0.028437716835182515
probably,0.028437716835182515
morning,0.028437716835182515
weekend,0.028437716835182515
share,0.028437716835182515
fun,0.028437716835182515
real,0.028437716835182515
saw,0.028437716835182515
open,0.028437716835182515
minute,0.028437716835182515
run,0.028437716835182515
manager,0.028437716835182515
guess,0.028437716835182515
makes,0.028437716835182515
person,0.028437716835182515
minutes,0.028437716835182515
turn,0.028437716835182515
hand,0.028437716835182515
place,0.028437716835182515
pick,0.028437716835182515
yeah,0.028437716835182515
bad,0.028437716835182515
beautiful,0.028437716835182515
wanted,0.028437716835182515
station,0.028437716835182515
air,0.028437716835182515
ah,0.02616137920647892
anymore,0.02616137920647892
eat,0.02616137920647892
came,0.02616137920647892
feeling,0.02616137920647892
thank,0.02616137920647892
seattle,0.02616137920647892
said,0.02616137920647892
today,0.02616137920647892
maybe,0.02616137920647892
course,0.02616137920647892
thought,0.02616137920647892
actually,0.02616137920647892
tonight,0.02616137920647892
seen,0.02616137920647892
home,0.02616137920647892
better,0.02616137920647892
stop,0.02616137920647892
feel,0.02616137920647892
man,0.02616137920647892
talking,0.02616137920647892
mean,0.02616137920647892
work,0.02616137920647892
going,0.02616137920647892
way,0.02616137920647892
tell,0.02616137920647892
called,0.02616137920647892
yes,0.02616137920647892
