Frasier,This is Dr. Frasier Crane. We'll be right back after this.
Roz,"OK, after this spot we're gonna come back in 15 seconds,  you do a station ID and then toss it to the news. I'll  count you down."
Frasier,"That won't be necessary. I have a built in mental stopwatch.  As a child playing ""Hide and Go Seek"" I was the only one who  didn't need to say, ""One Hippopotamus Two Hippopotamus."""
Roz,"Frasier, I've heard you. You're always either talking into  the news or running short."
Frasier,I am not!
Roz,I'll bet you 20 bucks you blow  this one.
Frasier,"All right, you're on."
Roz,"No, you are."
Frasier,"Hello, we're back. This is Dr. Frasier Crane tuning in for  our second hour on the ""Dr. Frasier Crane Show."" In our  first hour we covered everything from anorexia to xenophobia.  What will be next? As always of course that's entirely up to  you. So stick around — the Doctor is in and he's listening. Ooh, this is KACL  780 AM..."
Kate,That was very smooth.
Frasier,Thank you.
Roz,"Oh, let's see. ""One Andrew  Jackson, Two Andrew Jackson..."""
Kate,"Look Frasier, I've been getting a lot of complaints from  sponsors saying that their ads are getting buried in huge  commercial blocks."
Frasier,I see.
Kate,So instead of having four blocks per hour we're going to have  eight...
Kate,"...only they're only going to be half as long. I thought it  might help you. And you want to stay on top, don't you,  Frasier? ...Frasier?"
Frasier,"Of course, very much so, yes!"
Kate,Good.
Roz,"Frasier, what was that?"
Frasier,What was what?
Roz,"Call me crazy, but when you were talking to Kate you had this  goofy little teenage look on your face. If I didn't know  better, I'd swear you got a thing for her."
Frasier,For Kate?
Roz,Mmm-hmm. Look at you. You're flushed.
Frasier,I had Mexican for lunch. It's not lust — it's a Chimichanga.
Roz,"Frasier, I'm sorry but I'm never wrong about these things."
Frasier,Have you lost your mind?
Roz,Look me in the eye and tell me I'm wrong.
Frasier,"Roz, you're wrong."
Roz,Oh my God. I'm sitting on a powder-keg here. You've got a  crush on Kate!
Frasier,Stop it. Everybody knows you are the biggest gossip in the  entire station. You'll be sworn to secrecy.
Roz,I swear I won't tell anyone.
Frasier,"No, it doesn't count until you shake my hand."
Roz,"Oh, all right."
Frasier,"Roz, Kate and I..."
Roz,"Oh my God! Kate's ""Dirty Girl""!"
Roz,"Kate is the woman you had sex with on the air in this booth  and you were calling ""Dirty Girl""? Oh my God! I just need  a minute."
Frasier,Alright. Of course it happened months ago. Only a couple of  times.
Roz,Uh-huh.
Frasier,"Our relationship started out so antagonistic. Then suddenly  it just spilled over into passion. Intense, romantic,  exciting..."
Frasier,"...the whole thing's over now, but Roz, you will say nothing,  absolutely nothing... Roz? Roz?"
Roz,"Boy, I'll never do that again!"
Niles,I notice you're grating that carrot at a 45-degree angle.  Does that enhance the flavour?
Daphne,"No, no. Just an old habit."
Niles,Ah! And why exactly did you choose to grate carrots?
Daphne,Because we have carrots!
Niles,I hope you don't mind all the questions. It's just now that  I'm separated I'm going to have to learn to cook for myself.
Daphne,Quite alright. Tell you what. Why don't you grate while I  put the chicken in?
Niles,Thousands of little metal teeth able to tear the flesh right  off your...
Niles,"No, no, false alarm. Normally I bleed like the Russian royal  Family, but not today."
Niles,"Interesting. You put a toothpick in that chicken. Now, is  that to check when it's done?"
Daphne,"No, no. I'm just marking which one is yours. Dr. Crane,  would you mind setting the table?"
Niles,"Oh, certainly. Just give a yell if there's anything else that  you need to have grated."
Daphne,You've done enough grating for one night!
Niles,Writing a letter?
Martin,"No, I'm writing my memoirs!"
Niles,I'll take that as a Yes.
Martin,My old army buddy.
Niles,You know that's  the improper use of a hyphen.
Martin,Somehow I don't think Maurie Dingman will mind.
Niles,Then I'm sure he won't notice that missing comma and that  run-on sentence. Although this is a particularly glaring  error. It's best not to end a sentence with a preposition.
Niles,"Not to be technical, but ""Off"" is a preposition too!"
Frasier,Evening all.
Niles,Good news. I have tickets for the symphony tomorrow night.  Are you free?
Frasier,"Well, actually no. I have a date."
Martin,With who?
Frasier,Some woman I met at my accountant's.
Martin,"Yeah, when I was in the service — first thing I'd do when I  hit a new port was go straight to an accountant and find out  where the action was."
Frasier,"I must admit I'm having a little trouble working up my  enthusiasm about it. It's not the woman's fault. It's just  that I find myself preoccupied with somebody else right now.  Well, frankly, it's gone a bit beyond preoccupation. I'm  having fantasies about her all the time."
Martin,"Well there's nothing wrong with that. You know, when I first  met your mother she was so upbeat and bouncy I used to  fantasize about her wearing a skimpy little cheerleader's  outfit, shaking her pom-poms..."
Martin,Grow up you two! I'm just saying it's perfectly natural.  I can't tell you the number of times I was on a stake-out  in the cold picturing your mother in front of a warm fire  wearing nothing but a...
Frasier/Niles,DAD!!!
Martin,"Oh, I'm sorry. One day your mother and I went on a church  picnic and the two of you came floating down the river in  little wicker baskets!"
Niles,Was that so hard?
Frasier,"You know, I'm beginning to wonder if I have real feelings  for this woman? I mean I think about her all the time."
Daphne,Ooh this sounds interesting. Who are we talking about?
Frasier,Kate from the office.
Martin,"Oh, ""Dirty Girl."" She seemed nice."
Frasier,"She is nice. Intelligent, accomplished."
Daphne,"Well, if you think so much of her why don't you ask her out?"
Frasier,"Well, we agreed we wouldn't pursue things. Frankly, she  hasn't given me any indication since that she's even had a  second thought about me."
Niles,"Added to which, if Frasier did pursue her and she rejected  him, he could hardly rationalise it by saying she doesn't  know what she's missing. She would know exactly what she's  missing - she just didn't miss it!"
Frasier,"Thank you, Niles!"
Daphne,You can't let fear of rejection stop you Dr. Crane.
Frasier,"Well, you know Daphne, it's just not that easy really. Maybe  I'm letting this romantic fantasy run away with me. Truth is  we don't really know each other very well and, if she did  reject me, I'd end up going to work every day feeling like a  fool."
Martin,"Hey, am I getting a whiff of chicken here?"
Frasier,"Oh fine Dad! Frankly I've had enough of you and  your adolescent wisecracks. I am not ""chicken."" I am just  merely hesitant. I will ask her out tomorrow. Fine. I hope  that makes you happy!"
Martin,I just thought I smelled dinner!
Frasier,Oh Kate. Hi. There you are. I wanted to talk with you.
Kate,I'm just going down to the Billing department.
Frasier,"I'll ride along with you. You know,  it seems every time we speak lately the conversation always  leads to ratings, commercials, demographics..."
Frasier,"...hirings and firings, promotions, demotions, the odd  skirmish over the expense account. It just seems all so  dry and impersonal. Did I hit  the right button?"
Kate,"Oh, yes! Yes. Yeah. You did. You did.  You hit the right button. I'm sorry — I've got a lot on my  mind."
Frasier,"Yeah, so do I. Kate I wanted to ask you"
Kate,"Frasier, I'm leaving KACL. I'm moving to Chicago."
Frasier,What?
Kate,"Yeah. I'm taking over a station there. In fact I'm going out  on the ""Redeye"" tonight. I thought, given our history,  I should tell you first."
Frasier,"Well, I'm at a loss for words."
Kate,Wouldn't you know it — on the day I'm leaving?
Frasier,Well congratulations. This is a big step for you.
Kate,"Thanks. Boy, this was not an easy decision believe me.  You never know if you're leaving a place too soon."
Frasier,All I know is that for the time you've been here I've  certainly enjoyed having you. Having you...
Kate,I know. I guess this is goodbye.
Frasier,"I suppose so. Goodbye, Kate."
Daphne,My. Don't you look dashing?
Frasier,Thank you.
Daphne,"So, tell me about this woman you're going out with."
Frasier,"Well, her name's Donna. She's an art director. Or a park  director — I forget."
Daphne,"Look, I know you're upset about Kate leaving but cheer up.  There's nothing quite as exciting as a first date. All those  questions you ask. ""What's your favourite food?"" ""What's  your favourite colour?"" ""If you were to come back as an  animal, what sort of animal would you be?"" If she were to  ask you that one, what would you say?"
Frasier,"""Cheque please"" comes to mind!"
Martin,"Hello? Niles, no one was mean to you last night. No, if you  want to come over, that's great. Yeah, we'd love to see you.  OK. Bye."
Frasier,Hey Niles.
Martin,No traffic?
Niles,"Dad, you sounded lonely so I rented some movies."
Martin,"Oh, didn't you know the VCR is broken?"
Niles,No subtitles this time!
Martin,"Oh, that's right, I got it fixed. What'd you bring?"
Niles,"I have ""The Way We Were"" and a classic, ""Casablanca."""
Daphne,"Oh, I just love that movie. Is there any more heartbreaking  moment in all of film than when Humphrey Bogart tells Ingrid  Bergman to get on that plane with Victor Laszlow even though  Bogey loves her? What an ending!"
Niles,"Well, there goes my need to finally see that one."
Frasier,He cares deeply for her and yet he lets her go. Wonder why  Bogey did that?
Niles,Why don't we put the movie in and find out?
Daphne,Because Laszlow needed her by his side to fight the Nazis.
Martin,Forget the Nazis. No man in his right mind would give up  Ingrid Bergman.
Daphne,Oh sure! Sacrifice the entire free world for a little  Swedish meatball?
Martin,"Look, I don't like Nazis any more than the next guy but what's  Ingrid going to do with Laszlow?"
Daphne,You're missing the point. What makes the movie so romantic  is seeing Bogey go from a cynical playboy to a noble self- sacrificing patriot.
Niles,Oh why don't you  just put on some trenchcoats and act it out?
Daphne,"I'm telling you, if you're in his shoes you've only got one  choice."
Martin,I'll say you do. You get the hell down to the airport and  tell her to get off the plane.
Daphne,She's going to Lisbon to fight the Nazis!
Frasier,"No, she's  not. She's going to Chicago to turn a Country & Western  station into an all-talk format."
Martin,Where are you going?
Frasier,To stop Kate from getting on that plane!
Martin,Well your date's gonna be here in a minute. What are we  supposed to tell her?
Frasier,"Oh, I don't know. Tell her I'm visiting a sick friend or  something. Better yet — just tell her the truth. Sometimes  two people just aren't meant to be together."
Daphne,"Ooh — it's just like Redford and Streisand at the end of  ""The Way We Were."""
Niles,And that's another one  down.
Kate,Frasier!
Frasier,"Don't say anything. Just listen. Kate, this afternoon I  wanted to say something to you but when I found out you were  leaving I held back. Well, I'm not holding back any more.  I can't stop thinking about you. Not just about the times we  made love but about the possibility that we might have a  future together. Now if there's any part of you that wonders  the same thing about me, we owe it to ourselves to see it  through. You see, if you get on that plane tonight you'll  regret it. Maybe not today, maybe not tomorrow, but soon and  for the rest of our lives. Anyway I think I made my point.  What do you think?"
Tony,Kate!
Frasier,"More importantly, what do you think?"
Martin,"Aw, for God's sake, you've been bawling the whole movie."
Niles,I have not — my eyes just itch!
Frasier,"Well, it turns out Bogey was right to let her go."
Martin,"Frasier, what are you doing here? Look, Donna stayed to watch ""Casablanca"" with us."
Frasier,"Donna, hi."
Donna,"Hello, Frasier. How's your friend?"
Martin,In the hospital?
Frasier,"Oh, he's doing much better actually. They're thinking of  sending him home tomorrow."
Donna,After a heart transplant?
Frasier,"Well, he's with an HMO! So... er... what do you say we have  that dinner?"
Donna,"Great, I'll just grab my coat."
Frasier,Kate!
Kate,OK; now you listen to me. I was so touched by what you just  said at my apartment. You said everything that I've wanted  to say to you for the last two months. Tony's just a guy  that I went out with a couple of times. He just came over to  say goodbye to me before I went to the airport. When you saw  him you just looked so hurt...
Donna,You had a date with her tonight too?
Kate,...but apparently you rebounded! I'm sorry. I thought you  were sincere. Hold the  elevator!
Frasier,"Kate! I was, Kate! This woman means nothing to me."
Donna,Thanks a lot!
Frasier,"Oh, I'm sorry, Donna. I'm truly sorry. It was very  inconsiderate, but that woman means a great deal to me.  I'm sure you'll hate me, but I just gotta do what I gotta  do."
Martin,I'm really sorry about this.
Daphne,Why don't you stay and watch the end of the movie.
Donna,"Thank you, but I've spent quite enough time in this house  tonight."
Frasier,Well... this is lucky. We can ride down together.
Frasier,Kate!
Kate,Frasier!
Frasier,Oh my God. I know you're upset. I don't even care about that  woman. She's just a blind date I didn't even want to go on.  I wanted to be with you tonight.
Kate,I know. I overreacted. I've been standing here for a half  an hour hoping you'd come. I never thought you'd come.
Frasier,I can't believe I waited so long when all I had to do was  say something.
Kate,"Listen, it's not your fault. I could have said something."
Frasier,Well it doesn't matter. We're together now.
Attendant,"Your boarding pass, please?"
Frasier,Go ahead. Go ahead. Couldn't you just stay one more night? Just call  them. Tell them you'll come in tomorrow.
Kate,I can't. I can't. I have a board meeting in the morning.
Frasier,Oh damn. All right I'll call you. Where are you staying?
Kate,"I'm staying at The Drake. But, you know what? I'll call  you. I'll call you the minute I get in."
Attendant,"Ma'am, we're closing the doors."
Kate,Goodbye
Frasier,Goodbye. I'll miss you.
Kate,I'll miss you.
Attendant,Ladies and Gentlemen. I just spoke with our captain and  we're having a little technical snag. So Flight 487 to  Chicago will be delayed indefinitely.
Kate,I missed you!
Frasier,I missed you too! The minute that door closed I started  praying for something bad to happen to your plane.
Kate,It's just like fate — like somebody's willing us to get  together.
Frasier,I felt that way since the moment I met you.
Kate,Me too. Why don't you come with me tonight?
Frasier,I gotta work. I could come out next weekend.
Kate,"Oh, yeah. Oh, great. You know what, you can meet my twin  sister. She lives in Chicago."
Frasier,You've got a twin?
Kate,Yes.
Frasier,Wow. You know there's so much we don't know about each  other.
Kate,"Well, ask me. Ask me anything."
Frasier,"Er... oh, I know. What's your favourite colour?"
Kate,Blue. What's yours?
Frasier,Arctic silver. It's available on all the big BMW's.
Kate,Where's your favorite city?
Frasier,Paris! Museum?
Kate,The Prada! Musical?
Frasier,Yours?
Kate,""
Frasier,Really?
Kate,Well I love cats. I have a cat. Would you like to meet  Louie?
Frasier,"No, no. Allergies. Allergies. Cats. Not really much of a  pet person."
Kate,"Oh, really? Oh, no. All right, we'll work around that. You  Know, what we can do when you come out? We can go jogging  around the lake. Oh Frasier, the lake is so beautiful. Do  you ever jog?"
Frasier,Once. In a dark parking lot. When a truck backfired.
Kate,"Oh, all right. We can do something that you like. What do  you like? What do you like?"
Frasier,"Well, we could go antiquing."
Kate,"You know what? I'm not one of those people for whom  ""antique"" is a verb."
Frasier,"Ah! Well, this is all good. The contrasts between us will  make our relationship more vibrant."
Kate,Vive la difference!
Kate,"Louie's getting to you, isn't he?"
Frasier,"No, no. It's all right."
Kate,"Well, you know, if this is really gonna be a problem there's  a shot."
Frasier,"Yes — and I understand they're completely humane! Oh, you meant an allergy shot, didn't  you?"
Kate,"I'm sorry. I'm sorry, Frasier. I'm just afraid that if I  move Louie any further away they're gonna think he's a bomb!"
Frasier,It's all right. It's all right. So... er... you were saying  that you love animals?
Kate,Oh yeah. I think that's one of the main things that motivates  me to work so hard. I've always had this dream to get a ranch  in Montana — you know? To ski in the morning and ride horses  in the afternoon? I just always wanted to raise horses.
Frasier,"Wow, life on a ranch raising horses. I always pictured myself  in a penthouse raising children."
Kate,You still want more children then?
Frasier,Yes. You like kids?
Kate,"Oh yeah. I love kids. I don't see myself mothering one,  though."
Kate,"You know, just to be on the safe side  let me just check to see if there's another flight?"
Frasier,"Yeah, it couldn't hurt."
Kate,Excuse me — is there another flight to Chicago tonight?
Attendant,Not until morning.
Frasier,How about on another airline?
Attendant,American has one connecting through  Atlanta leaving in 10 minutes.
Kate,Atlanta's good. That's a hub.
Attendant,"Yeah, but they're way on the other side of the airport!"
Kate,Oh damn. I'll never get there.
Frasier,Look Kate — fate to  the rescue once again. Sir — this woman has to get across the terminal  post-haste.
Driver,"Hey pal, this'll go a lot faster with just one person."
Frasier,"Good point. Bye. Pity, though!"
Kate,Isn't it?
Frasier,"Well, Louie. This looks like the beginning of a beautiful  friendship."
Credits,"Niles, Daphne, Martin and Eddie are still in the apartment. Niles is watching the video whilst Martin and Eddie are asleep and Daphne is asleep on his shoulder. Niles tries to reach out for his drink but is restricted by Eddie on his lap and Daphne on his shoulder. He leans forward, trying no to wake Daphne, but ends up spilling the drink all over the carpet."
