Waiter,"Hey, how're you doing, doc? The usual?"
Frasier,Please.
Niles,"I'll have my usual, too."
Waiter,And that would be...?
Niles,Ah! I come here every day. You must remember... my usual  is... a half-caf... cappuccino... with a light dusting  of...
Waiter,Nutmeg.
Niles,"Cinnamon! God, that's infuriating!"
Frasier,"Oh, Niles."
Niles,I come in here every bit as often as you do.
Frasier,"Don't take it to heart, Niles. This person just happened to  remember me best, the next person might just as easily..."
Woman,"Oh my God, you're Frasier Crane. Could I bother you for an  autograph?"
Frasier,"No, you can't. It's never a bother."
Woman,I love your show.
Frasier,"Oh, thank you."
Woman,I just think you're like the smartest guy on the face of the  earth.
Frasier,"Well, one does hear tales of a certain wise man in Tibet,  but why split hairs? There you go."
Woman,Thanks.
Frasier,Where was I?
Niles,You were last seen hiking up Mount Ego!
Martin,Shut up already! You've been yakking about this all  morning.
Daphne,"Well, it's a stupid rule and it's always we foreigners that  suffer for it."
Frasier,"Began driving on the wrong side of the road today, did we?"
Daphne,"No! It's about my friend, Xena... oh, you don't want to  hear about it."
Niles,"Xena, isn't she the Greek one?"
Daphne,"Yeah, we've been planning a trip together. You see, her  mother's taking a luxury cruise and her ship will be docked  in Mazatlan for a week, she invited us down to join her.  Only I can't go because my bloody passport's expired."
Niles,"Still, don't give up, one way or another we'll get you across  that border. If I have to, I'll snuggle you under an old  blanket!"
Daphne,Don't you mean smuggle?
Niles,"I'm using code language, you can't be too careful!"
Waiter,"There you go, Doc. Anything for you, ma'am?"
Daphne,"Oh, thanks, I've already ordered."
Waiter,"Oh, I'm sorry, you had the..."
Niles,"Absent-minded waiter, I'll get it myself!"
Daphne,"Oh, Roz called. She wanted me to remind you about your  meeting with the station manager."
Frasier,"Ah, yes, that, he probably wants to discuss my  one-thousandth radio broadcast that's coming up next week."
Martin,You've done a thousand shows?
Frasier,"Yes, and if I know the station manager, he'll want to mark  the occasion with some sort of gaudy celebration. Press  parties and God knows what! No, I don't really kind of go in  for that sort of self-congratulatory hoopla! The work is the  thing for me!"
Daphne,"But still, a thousand shows! That's quite an achievement."
Frasier,"Yeah, I suppose, who'd have thought?"
Martin,"Not me, that's for damn sure. Yeah, those first two weeks.  Peeuw! Open a window!"
Frasier,"All right, dad!"
Bulldog,"Hey, morning, Roz."
Roz,"Morning, Bulldog."
Roz,"Oh, my gosh, look what Frasier got for me. It's so cute! ""Dear Roz, a huggy bear for the mom to be.  Love, Bulldog""?"
Bulldog,I guess I should have known you'd think it was from Frasier.
Roz,"I'm so sorry, Bulldog."
Bulldog,"No, no, it's okay. I know I'm not the warmest guy in the  world, but when it comes to kids I get kinda, well, you  know..."
Roz,"Oh! Bulldog, come here. Come here."
Bulldog,"Oh, you're going to make a good mother, Roz."
Roz,"Thank you, Bulldog, that's sweet."
Roz,Bulldog?
Roz,"Oh, get off me! You just wanted to hug me because my breasts  are getting bigger."
Bulldog,"No, I was just trying to get close enough to feel a little  kick."
Roz,Get out! Pervert!
Frasier,"Morning, Roz. I got you one of those little muffins that  you love."
Roz,You're not getting a hug!
Frasier,"Oh, I see those mood swings are leveled off nicely. I'll  just run upstairs and have that little meeting with Greg in  his office."
Roz,"Oh, wait, it's been cancelled. He wanted to talk to you  about your thousandth show but I ran into him and I handled  it."
Frasier,"All right, let me have it! What kind of public circus am I  in for? I suppose a garish outdoor rally like the one they  gave for Bob and Nipsy over at KPLK!"
Roz,"I told him just what you said. That how the work is its own  reward, so you're off the hook."
Frasier,They're not doing anything?
Roz,Nope.
Frasier,"Well, well done, Roz. That's a relief.  Although, I'm not sure I'm being fair to you. You see, I  did hear that after that rally, Bob and Nipsy's ratings went  up thirty percent. Their producer got a handsome raise."
Roz,"Oh, yeah."
Frasier,And you with the little one coming...
Roz,"Well, it's too late now."
Frasier,"Right. Can't be helped. Best to just leave it alone. Still... for the benefit of the station, what's  good for KACL's good for all of us, isn't it?"
Roz,"Yeah, that's true."
Frasier,"You know, well, I suppose you could just give Greg a call  and tell him I'd be willing, well for your sake and the  station's, to submit to a small tasteful, low-key... public  rally."
Daphne,"I just want to renew my passport! No, I'm a resident alien  here from England - you know, the country that used to own you  people!"
Martin,She'll go right to the head of the line  now!
Daphne,"I can't wait two weeks! My friend Xena's flying down to meet  her mum's ship, Sunday. Don't you put me on hold  again! I'll hang up, I mean it! I showed him!"
Frasier,"Well, it's official. My thousandth show is  now an event!"
Martin,What's going on?
Frasier,"Oh, well, nothing short of a media circus with you-know-who  in the centre ring. They're planning a promotional  blitzkrieg capped off by a public rally in my honour at the  foot of the Space Needle!"
Martin,Wow! That's great! You're going to be thrilled.
Frasier,"Well, of course I'm flattered, I'm just a little bit  embarrassed, dad. I'd have been content with a pat on the  back and an ice cream cake. Oh, dad, they've asked if you  might say a few words at the rally. You don't have to, if it  makes you nervous."
Martin,"Oh, no problem! Yeah, I can't tell you how many retirement  dinners I've spoken at. I can just dig out my old joke book;  ""One Thousand And One Side-Splitters, Rib-Ticklers and  Thigh-Slappers""."
Frasier,I'm sure you're a veritable chiropractor at mirth but I think what they're looking for is something  just a bit more personal.
Frasier,"Hello. All right, Roz. Roz, slow down. Oh, good Lord, the mayor! Well, has ""Frasier"" fever swept  all the way to city hall?! Well, all right, Roz, I'll see  you tomorrow."
Daphne,The mayor's going to be there?
Frasier,"Yes! And not just be there, he's going to present me with a  key to the city, after which he's going to proclaim it  ""Frasier Crane Day"" in Seattle!"
Martin,"Way to go, kid!"
Frasier,Who can this be? The mechanic from the Vatican with my Pope- mobile?!
Frasier,Niles.
Niles,"Frasier, dinner's on me. I got some very good news today."
Daphne,What a coincidence! Your brother just got some good news  too!
Niles,"Not so good as mine, I suspect. But first of all, I have to  apologise for being so snippy this morning. I've been  feeling a bit eclipsed lately, but all that vanished when I  reached my office, and what was waiting on my desk, but a  gift from the self-esteem ferry?"
Frasier,"""The American Journal of Psychiatry""?"
Niles,"Hmm-mmm, hmm-mmm. I refer you to the letters page, third  one down."
Frasier,"""Dear Sirs, Dr. Egmond Sandeling's recent article  on Trichotilimania contains several errors. He would do well  to read the groundbreaking work on the subject published by,  among others, Dr. Alan Corville, Dr. Milo Lordestein..."
Niles,Skip to the end.
Frasier,"...Oh, Dr. Geraldine Fenley and Dr. Niles Crane!"
Niles,"Not too shabby, eh?"
Frasier,And quite an accolade.
Daphne,"Yeah, I had no idea you were such a well-known expert on...  on the thing that the letter mentioned."
Martin,And the way they saved you for last so you really stand out.
Niles,"Nothing to kick away the clouds like a heavy sip from the  goblet of fame! Which reminds me, I told Jean-Claude to  start my victory Martini shaking at precisely eight o'  clock."
Frasier,"Off we go, then!"
Niles,"Oh, wait, you had some news yourself. Do tell."
Frasier,"Oh, well, let's just wait for that Martini, shall we?"
Niles,"Happy Frasier Crane Day. Or is it Merry Frasier Crane Day,  I can never remember."
Frasier,Very amusing.
Niles,"I'll have a half-caf cappucino. Sorry I'm late, I stopped half way to listen to a jolly band  of Frasier Crane Day carolers! I tried to join in on ""The  Twelve Days Of Frasier"" but, er, forgot the words around day  seven. How does it go again?"
Frasier,"I believe it's ""seven snobs a' sniping."" Well, you just  snipe away. I take your jealousy as the compliment that it  is."
Niles,"Oh, now, if I indulge in a little affectionate joshing,  doesn't mean I'm jealous. I'm nothing but happy for you."
Frasier,"Oh, thank you, Niles. You know, I'm just a touch skittish  today. All this fuss over me. Say, is it  possible to get these two to go?"
Niles,To go? We're not due at the Space Needle for an hour.
Frasier,"Yes, well, I thought a walk might do us some good, get a  little exercise, then maybe I can stroll away my jitters."
Niles,"Oh, all right, I could use the fresh air, I'm feeling a tad  sluggish."
Frasier,"Oh, up late last night?"
Niles,"Oh, I'm afraid so, as usual I left it till the last minute  to write all my Frasier Crane Day cards!"
Frasier,"What a lovely day! I'm so glad we decided to walk. I feel  calmer already. Man: Hey, Doc'! Way to go!"
Frasier,"Oh, I'm listening. I just hope Dad doesn't get too nervous about his speech  today. I've been giving him little tips all week."
Niles,"Oh, really? As Daphne tells it, you wrote the whole thing  for him."
Frasier,"I did no such thing! I added a or two, tidied up  the language, removed any questionable material."
Niles,"There's not a word of his left, is there?"
Frasier,Not a comma! I'm listening!
Niles,"Here's a tip for you. The ones with cameras are tourists.  They have no idea who you are, much less why you're  listening."
Frasier,"Oh, Niles, don't be so churlish. The man clearly waved to  me first."
Niles,He didn't wave at you!
Frasier,Yes he did!
Niles,He was probably waving...
Frasier,I don't know why you're even objecting...
Niles,He was waving for a cab to get away from the scary listening  man!
Frasier,"Oh, I love this place. Here you can feel the pulse of the  city. You know what I think when I see all these people here  rustling about."
Niles,Low turnout over at Frasier Crane Day?
Frasier,No! I think that they're the reason I love this city.
Niles,Stop waving!
Frasier,"Why, there's nothing wrong with being friendly."
Niles,"Well, there is a difference between being friendly and  making a public spectacle of yourself."
Niles,"Frasier, did you see that man tried to assault me with a  fish!"
Frasier,"Good Lord, Niles, get a grip. God's sakes, you become  hysterical over the littlest things. Oh, my God! My suede  shoes, you've spilled Latte all over them, they're ruined."
Niles,"I'm sorry... and it was a half-caf cappuccino, why can no- one remember that!"
Frasier,"Well, I'll just have to replace them, I'll look foolish  otherwise."
Niles,Never in my life have I heard such caterwauling over a pair  of shoes.
Frasier,"I'll have you know, I spent a bundle on these shoes. They're  ""Joan and Davids."""
Niles,You named them?
Frasier,Shut up!
Frasier,"Well, these are quite handsome. Even though they are just a  bit snug."
Niles,We could always go back. I think there's a pair in there  you didn't try on!
Frasier,"We weren't in there that long! My God, the  rally's about to start. Give me your phone, I'll call Roz."
Niles,There you go.
Frasier,Thank you.
Roz,"Hello? Frasier, do you know what time it is? Where the hell  are you? We're on the air in two minutes!"
Frasier,"I'm sorry, I was involved in a small accident.  I'm fine! Just start without me, we'll take a cab!"
Niles,We'll have better luck at the corner.
Frasier,"Right. Niles, wait. Too many fans that  way, I'll be mobbed. We'll cut over one block through that  alley!"
Roz,"Frasier's running late so I've got to use you first, okay,  Martin?"
Martin,"Oh, oh, yeah, sure, okay. Jeez, I was hoping for  a little more time! I haven't even looked at this stuff  Frasier wrote for me."
Roz,"Good afternoon, everyone and welcome also to our  radio listeners. I'm Roz Doyle and I'd like to thank you all  for helping us congratulate Dr. Frasier Crane."
Roz,We've got the full program for you today and....
Daphne,Stop worrying. Dr. Crane's a very good writer.
Martin,"Well, look at this, I'm gonna die out there with this crap."
Roz,"Unfortunately, our guest of honour has been  detained but we do have the next best thing - his dad,  Martin Crane."
Martin,"Good afternoon. Twenty-three years ago, my  son, Frasier, came to me and asked if I would put him through  medical school. I agreed to pay for it but remarked ""I should  have my head examined."" Frasier replied, ""Give me eight years  and I'll do it for you!"""
Martin,"It was a hard eight years for Frasier but as someone once  quipped, a good psychiatrist never shrinks from a challenge!"
Martin,"Oh, Jeez!"
Frasier,"Oh, for God's sake, Niles, will you come outta there?!"
Niles,Our mugger specifically instructed us to wait for five  minutes!
Frasier,"If he wanted us to time it exactly, he wouldn't have taken  our watches!"
Niles,"All right, all right, calm down.  I see you're new to this whole mugging thing."
Frasier,"I just can't believe I'm missing my own rally. Come on!  These shoes are killing me, they're like the work of a  skilled Chinese foot binder!"
Frasier,"Niles, give me your phone, I'll have Roz send us a car!"
Niles,"My phone?! What do you think the mugger was reaching into  my breast pocket for? Well, the consolation is that he  jabbed himself on my emergency sewing kit."
Frasier,"Niles, a pay phone!"
Niles,It's not much use to us unless we can find a quarter.
Frasier,"Niles, look."
Niles,"You cannot be serious, you want to rob that poor old man?"
Frasier,Don't take it that serious!
Niles,"Frasier, he's blind."
Frasier,"I know! It's the first break we've had today. Niles, I'll  distract him."
Frasier,"Good afternoon. So, sounding lovely."
Girl,"Stop, thief!"
Frasier,"Dear God, run!"
Bulldog,I'd like to thank Frasier Crane for his friendship.
Daphne,"Excuse me, Mayor Rice?"
Mayor,Yes.
Daphne,I have a small bone to pick with you. I can't say I care for  the way your city treats us poor aliens.
Mayor,"Er, you're an alien?"
Daphne,"Yes, Daphne Moon. You see, my friend, Xena, and I, she's an  alien too, we're trying to get down to Mazatlan to  rendezvous with her mother's ship..."
Mayor,Her mothership?
Daphne,"And from what I hear, it's quite spectacular."
Mayor,I'm sure it is. Why don't you go with these  two gentlemen? I'm sure they could take care of you.
Daphne,"Well, thank you very much."
Daphne,Hello. Man: Hi.
Daphne,Do you two work for the mayor? Man: Yes.
Daphne,"Well, I suppose I should know that already - you see, I'm a  bit psychic."
Frasier,I can't go on any longer. My feet are killing me.
Niles,We lost... most of them dropped out after  the first quarter. But that short one with the pigtails was  a regular gazelle.
Frasier,Yes. Look! It's even farther away  than it was before.
Niles,The monorail! It goes to the Space  Needle.
Frasier,Let's go!
Niles,Do you think anyone saw us sneaking on?
Frasier,"No, I think we're all right."
Niles,I hate to say it but it was sort of exciting flaunting the  law like that. It gives you some idea as to why outlaws have  also been such romantic figures.
Frasier,"Yes, perhaps you might have cut a more dashing figure had  you vaulted over the turnstile rather than crawling  underneath it!"
Niles,I'm surprised the trains are even running on Frasier Crane  Day!
Frasier,"Yes, well, with any luck we'll still catch the last twenty  minutes of the rally. But how I'll explain my lateness, I  have no idea. I certainly can't tell them about the fish,  the little girls. I'll have to make something up I suppose,  any suggestions?"
Niles,The train stopped.
Frasier,That's not very original.
Niles,"No, Frasier, the train's stopped."
Frasier,"Good Lord. Excuse me, what's happening?"
Conductor,"There's an electrical problem ahead, we're going back to  West Lake."
Frasier,"What? But those people are waiting for me, they're so  close."
Conductor,I guess it just isn't your day.
Frasier,But it is my day!
Niles,Don't panic.
Frasier,"Don't panic? Yes, why should I have any reason  to panic? My God, I'm only going to miss a celebration in my  honour, I'm going to be a laughingstock forever. And why?  Because you spilt coffee on my shoes!"
Niles,You're blaming me?
Frasier,"Well, if you had the gripping abilities every species above  the tree sloth was born with..."
Niles,"You think of those forty-five minutes you and your ego spent  in that shoe store, trying on every pair of shoes - including  the ones the manager was wearing!"
Frasier,Are you calling me vain?
Niles,"If the ""Joan & David"" fits..."
Frasier,"I don't even know why I'm yelling at you. I guess I'm just  trying to blame you because I don't want to face the truth.  I'm a big, fat phony. I wanted my day! I wanted hoopla and  fuss, I practically planned the whole thing myself."
Niles,You did?
Frasier,"Yes. It says a lot about me as a psychiatrist, doesn't it?  I'm a small man!"
Niles,"Oh, what does it say about me that I was happy seeing you  miss your day?"
Frasier,You were?
Niles,Of course. I've been jealous of you all week. I'm a tiny  man.
Frasier,Next to me you're a giant!
Niles,I stare up at your ankles!
Frasier,I'd need a stepladder just to...
Niles,"Oh, let's not do this. You shouldn't feel guilty, Frasier.  Everyone deserves a fuss. You above all. You've helped a lot of people, they deserve a chance to thank you for it."
Frasier,"Thank you, Niles."
Roz,"Dr. Crane is on his way, he should be here any minute."
Frasier,"There it goes. Good bye, fuss. Good bye, day!"
Niles,"I hesitate to say this, but you still have time."
Frasier,"Stop it! Don't you dare get my hopes up! The ship has  sailed, that fat lady has..."
Frasier,"Oh, damn! I give up."
Niles,"Well, I don't. This is your day and if I can get you there  for a curtain call, I will. I still have the blind man's  quarter. Stay here, I'm going to call a cab."
Frasier,"Thank you, Niles. Good, run."
Driver,"Hey, did I hear you yelling for a cab?"
Frasier,Yes.
Driver,I can take you if you want.
Frasier,"Are you serious? Niles! Niles, let's go!"
Driver,What about your friend?
Frasier,"Oh, he'll be all right. He's got street smarts!"
Driver,Where are we going?
Frasier,"The Space Needle, please."
Driver,"No problem, I'll have you there in five minutes."
Frasier,That's the first good news I've had all day.
Driver,I've had a bit of a rough day myself.
Frasier,Oh?
Driver,"Yeah, my ex-wife is getting remarried in Pennsylvania. Are  you going to that rally over there?"
Frasier,"Er, as a matter of fact, I am."
Driver,"I told her I'd come to the wedding, but now I've got cold  feet. Better make up my mind soon, the plane leaves in a few  hours. They don't give you any bargains on those last minute  tickets, either."
Frasier,"Maybe this isn't the best time to tell you this, but I'll  have to owe you for this ride."
Driver,"Don't worry about it. We probably never should have gotten  married in the first place. We were dumb. Had a few good  years, though."
Frasier,"Oh, that's something at least."
Driver,At least the kids are going to be there tomorrow.
Frasier,Kids?
Driver,"Son and a daughter. I don't see them much. They went with  their mom after we divorced. Of course, I think I'm more  excited about seeing them than they are about seeing me."
Frasier,Why would you say that?
Driver,"Just a feeling. I didn't make much of my life back when  Marie and I were together. I turned it around, though. I  own this car."
Frasier,"Well, it's a nice one."
Driver,"The hardest part is, if I do go, I have to see my in-laws.  They never were too crazy about me. This new guy Marie's  marrying, he's supposed to be some kinda big success. I  don't know what to say to any of them. Part of me thinks I'd  just be best leaving the whole thing alone."
Frasier,And part of you doesn't?
Driver,"I'd like to see my kids. Especially now they're getting a  new dad. What a choice, eh?"
Frasier,"Well, you know, sometimes difficult choices like these can  be good things. They can teach us about who we are."
Driver,"I bet you hear enough about this. Besides, we're here."
Frasier,"Oh, don't worry about me, I've got plenty of time. Tell me  more about your kids."
Driver,"I'm John, by the way."
Frasier,I'm Frasier.
Credits,""
