Skyline,Christmas lights on the Space Needle.
Martin,"Hi, guys."
Frasier,"Oh hey, Dad."
Waiter,"Cappuccino to go. Holiday cookies, anyone?"
Frasier,"Oh yes, I believe I will, thank you."
Martin,"Oh, not for me."
Roz,Watching your weight?
Martin,"Yeah, and it's killing me. But the other night, Ronee made a  comment about my ""bowl full of jelly."""
Roz,"Well, everyone puts on a few this time of year."
Frasier,"Everyone doesn't sit around reading the newspaper, actually  slurping from a bowl full of jelly."
Roz,"Well, you look great to me, Martin."
Martin,Thanks.
Roz,Merry Christmas.
Martin,"Oh, Eddie and I must have walked about three miles.  I'm sweating like a pig."
Martin,What the hell are you doing?
Frasier,I am saving that seat for someone who may not wish to have it  bedewed with pig sweat.
Natalie,Frasier?
Frasier,"Oh, Natalie!"
Natalie,Hello.
Frasier,Hi.
Frasier,"This is my father, Martin Crane. Uh, Natalie Blanc of the  Seattle Tourism Board. She wants me to do a promo for her. He was just leaving."
Natalie,"Oh, that little dog is adorable."
Frasier,"Yes, and he's smart as a chimp too! Off you go!"
Frasier,Please. It's so lovely to finally  meet you.
Natalie,"Thank you, thank you."
Frasier,"Have a seat. So, tell me about this promo."
Natalie,"Well, it's pretty simple. It begins with you at home on the  couch. And you say..."
Frasier,"""Anybody feel like taking a walk? Then come to  Seattle."""
Natalie,"And then we see you walking at the Space Needle, the beach,  the fish market — but we do all of that with special effects.  It should only take a couple of hours tomorrow. So, are you  in?"
Frasier,"I'm ""een!"" You know,  it's funny, when you called me at the last minute, there was a  small, madly insecure part of me that wondered if I was your  second choice."
Natalie,"No, you weren't the second."
Natalie,Nice meeting you.
Martin,You too.
Natalie,"Oh, that dog is so precious."
Frasier,"Yes, there are times when I could just squeeze him to death!"
Natalie,"You know, maybe he should be in the spot with you."
Martin,Eddie in a commercial?
Natalie,Mm-hmm.
Frasier,"It's called a spot, Dad."
Natalie,You look so perfect together. He could just sit next to you  on the couch.
Frasier,"Well, I suppose there's no harm in a little window dressing."
Natalie,The director will love it. I'll call him right now.
Martin,"Oh, I don't believe it. Eddie's first TV spot."
Frasier,"Oh, knock it off. You didn't even know that term until ten  seconds ago."
Martin,"Hey Fras, how'd the big shoot go?"
Frasier,"Well, it went splendidly, Dad. I thought you were going with  Niles to the airport to pick up Freddie."
Martin,"Yeah, I decided to stay home, do some decorating."
Frasier,"Ah yes, that magical time of year when the Great Wall of China  and my apartment are the only two man-made structures visible  from space."
Frasier,I must say I'm really excited about seeing Freddie this trip.
Martin,"Yeah, what you got planned?"
Frasier,"Oh gosh, everything from whale-watching to a trip to the  garlic festival."
Frasier,"Niles, Daphne...! Where's Frederick?"
Niles,"Actually, he insisted on taking his own elevator."
Frasier,"Oh, priceless! You know, just when you worried that  he's on the brink of terrible teendom, there he is, still just  a little boy who wants to play in the elevator."
Freddie,"Hey, Dad."
Frasier,There he is...
Freddie,"Nice greeting, Dad."
Frasier,"Freddie, why are you dressed like this?"
Daphne,He's a Goth now.
Freddie,You all don't have to treat me like I'm some kind of freak.
Martin,"No, we're not, Freddie. It's great to see you."
Martin,Maybe you could move up that trip to the  garlic festival.
Frasier,"Listen, Freddie, I don't understand. Um, the Goths were  plunderers. Apart from your tendency to be overaggressive  with your rooks at chess camp, I don't see the connection."
Freddie,"It's just what I'm into now, okay? Me, my friend Andi,  a bunch of us. But if you don't get it, you don't get it."
Frasier,"I didn't mean anything by it, I simply thought... Oh, dear God! Well, thank you Lilith, for mentioning  this little development!"
Daphne,"Oh, it's just a phase. All teenagers go through a rebellious  period. It always passes. You should have seen me at that  age — dating the older boys, hitch-hiking, drinking, shop- lifting. Do you know I can carry a frozen turkey between my  knees?"
Niles,That'll come in handy if we ever misplace our serving platter  at Thanksgiving.
Daphne,"Hey, and didn't you once tell me you went streaking?"
Frasier,"Well, I had shin splints at the time, so it was really more of  a brisk nude walk."
Daphne,"What did you do, Niles? How did you rebel?"
Niles,"Oh, the usual ways."
Frasier,"Thank you, Niles."
Daphne,Like what?
Niles,"Oh, like what? Well, uh..."
Martin,"Never happened, Niles. Your mother and I kept waiting for it."
Niles,I find it hard to believe that I never...
Martin,"Nope, nope. You were one of those good kids. One time  I found a bag of something that looked suspicious in your  dresser, but it turned out to be just something to make  your sweaters smell nice."
Niles,"Well, one time..."
Martin,"Face it, Niles — you just didn't have it in you to be bad."
Frasier,"Freddie, hi. Listen, I was thinking maybe we could take in a  movie tonight."
Freddie,"Can't, Dad. I made plans with my friend Andi."
Frasier,Your friend Andi from school is here?
Freddie,"Yeah, visiting relatives. We're seeing a movie."
Frasier,But you just got here.
Freddie,"We've got all week, okay? Be cool."
Freddie,Hey.
Andi,Hey.
Freddie,"Well, see ya."
Niles,"Well, at least he's not dating outside the faith."
Husband,"Excuse me, are you using this chair?"
Frasier,"Well, doesn't that have a familiar ring to it? The weary holiday traveler  and his pregnant wife seeking kindness from a stranger..."
Natalie,Frasier?
Frasier,"...I'm afraid I am, yes. So..."
Natalie,"I'm so glad I ran into you. Um, cappuccino to go,  please."
Natalie,The ad agency loves the spot.
Frasier,Oh!
Natalie,Apparently they got quite creative with it. I'll messenger  you a copy.
Frasier,"Oh, that's wonderful news. Listen, I realize you're dashing  off, but do you think we could celebrate tonight over a drink?"
Natalie,"Sure. How about, uh... 7:00 at Garagiste?"
Frasier,Could you say that again?
Natalie,Garagiste. You don't know it?
Frasier,"Oh yes, I do. I just love hearing you say it."
Natalie,"Oh, thank you."
Frasier,Let me get that for you.
Natalie,Thank you. I'll see you then.
Frasier,"Yes, take care."
Natalie,Hello.
Niles,Hello.
Niles,"Well, that was a yummy little stocking stuffer."
Frasier,Yes. She's the one I told you about. The girl with the  accent.
Niles,"Oh, yes."
Frasier,"God, she could read me the phone book, and I would melt like  an overripe Camembert. Imagine what she would do with that —"
Niles,""
Frasier,""
Niles,""
Frasier,We're terrible!
Frasier,"Well, at least it will be nice to have something  to do this evening — for a change."
Niles,Is Frederick still spending all his time with his little  ghoul-friend?
Frasier,"Yes, they're going to a concert this evening. And, of course,  I don't begrudge him a social life, it's just that I feel so  rejected."
Niles,Mm.
Frasier,"You know, when one has something they'd clearly rather do than  spend time with you, it just feels like..."
Frasier,What the hell are you doing?
Niles,"I'm sorry, I'm waiting for someone."
Frasier,Who?
Niles,"Well, it really bothered me when said that I never rebelled.  I mean, I've been obsessing about it. What kind of self- respecting psychiatrist — not to mention father-to-be —  completely misses one of life's prime rites of passage?  So... I've decided to rebel tonight. Right under  Dad's nose."
Frasier,How?
Niles,You ready?
Frasier,Yes.
Niles,You sure?
Frasier,Positive.
Niles,"Move your coffee, it might..."
Frasier,Niles!
Niles,I'm getting high on reefer.
Frasier,What?
Niles,"I've waited for this all my life, Frasier — one act of utter,  devil-may-care, crotch-grabbing brazenness! And of course  I'll have a nurse on speed-dial in case things get too hairy."
Frasier,And exactly which of your connections in the Seattle  demimonde is going to get you this reefer?
Roz,"Okay, Niles, you're hooked up."
Niles,"Well, oh... I'll just take a look. Ah, yes, thick  and gooey. Ganja in its purest form."
Roz,"It's a pot brownie, you idiot. My neighbor makes them."
Frasier,Oh.
Niles,"Damn it, my car alarm again! I'll be right back."
Roz,"Wait! But Niles...! Well, I can't wait, I got a date."
Frasier,"Well, you're not leaving that thing with me."
Roz,"Oh, come on, Frasier, just give it to Niles."
Frasier,"No, no, no, I refuse."
Frasier,"Just stop that, stop that. It is illegal. I will have  nothing to do with it, for God's sakes. What do you take  me for, some kind of common drug mule?"
Roz,"""Mule"" is one word for it."
Frasier,"Oh, hey Dad."
Martin,How are you doing?
Frasier,I'll see you back at home.
Martin,All right.
Roz,"Hey, Martin."
Martin,"Hi, how you doing, Roz?"
Roz,Good. How are the holidays treating you?
Waiter,Cookie?
Martin,"Oh... no, just trying to stay away from things that are bad  for me."
Roz,"Well, that's where you and I are different. Can you give this to Niles?  He'll be right back."
Martin,"Yeah, sure. Uh, coffee to go, please."
Martin,Mmm... mmm...
Martin,"Could I have a brownie, please?"
Waiter,Okay.
Niles,"Hey, Dad."
Martin,"Oh hey, Niles. Um, uh, Roz wanted me to give you this."
Niles,"Thank you. Hey, uh, you're going to be  home tonight?"
Martin,"Yeah, I'm walking home right now."
Niles,"Oh, good. I'll see you there. Have a nice trip."
Martin,"You, too."
Niles,"Oh, I will!"
Freddie,"Hi, Dad."
Frasier,"Hey, Freddie. Oh, Andi. How was the mall?"
Freddie,Boring.
Andi,Except when that fat kid threw up in Santa's beard. That was  goth.
Freddie,"Oh, the doorman had this for you."
Frasier,"Oh gosh, this must be my tourism promo! I'll tell you what —  why don't we have a look at it?"
Freddie,I just came to get a jacket. We're going to the concert.
Frasier,"Oh, come on, Freddie. You can spare a couple of minutes to  check out your old man's debut as a spokesman."
Frasier,"All right, where is that...? Here we go."
Eddie,Anybody want to go for a walk?  Then why not come to Seattle?
Frasier,"Oh, dear God!"
Eddie,"Where else can you see... an ocean wave, a fish fly,  a mountain peak, and the world's largest needle? Come  to Seattle. Let's go for a walk."
Freddie,That is so goth.
Frasier,It is not goth! It's outrageous! It's like some hideous  Frankenstein hybrid of me and that no-talent dog!
Freddie,"Let's go. By the way, I'm staying at Andi's  tonight."
Frasier,What?
Freddie,At her uncle's. We have plans all day tomorrow.
Frasier,"I'm sorry, Frederick, you're not staying anywhere until I hear  from her uncle first."
Freddie,Oh my God!
Frasier,"I'm sorry, but that is the rule."
Freddie,Dad! I'll meet you downstairs.
Freddie,Do you know how much you're embarrassing me? What's your  problem?!
Frasier,My problem is that you've hardly spent one minute here since  you arrived! Now you tell me you have plans all day tomorrow.
Freddie,You're really making me want to spend time with you now.
Frasier,I'd like to know when you're going to be home.
Frasier,"Tomorrow, okay? I'll have her uncle call you. I never should have come here in the first place."
Frasier,Freddie...
Niles,"Hey, Frasier. What's up?"
Frasier,Just another joyous holiday moment with my son to be pasted  into my scrapbook.
Niles,Ah. Aren't you going to ask me what's up?
Frasier,"Didn't intend to, no."
Niles,I'd like you to.
Frasier,All right. What's up?
Niles,"I am. I'm as high as the Himalayas! If I were a  city in Germany, I'd be High-delburg! Is Dad home yet?"
Frasier,No.
Niles,I'll use this opportunity to up my dosage.
Frasier,"Oh, Niles! You realize that this is illegal? Did you  actually drive yourself here?"
Niles,"I'm a little too toasted for that, Frasier. No, the minute  I knew I was getting baked tonight, I called a cab. And I  printed my name and address on a card in my pocket in case  I'm still too crispy to speak to the cab driver taking me  home."
Frasier,I judge by all this rich terminology that you've done some  research?
Niles,"Yes, I know all the symptoms I can expect to experience. I'm  especially looking forward to something called the ""munchies""  stage. It's where one enjoys bizarre food combinations. I'm thinking of pairing  this Chilean sea bass with an aggressive Zinfandel!"
Frasier,And this is all to prove a point to Dad?
Niles,"To Dad, and for myself. Don't I have the right, just once,  to sip the sweet nectar of rebellion?"
Frasier,"You know, I've got to go put a jacket on for my date.  Why don't you go see if you can help Dad at the door?"
Martin,"Hi, Niles!"
Niles,Funny you should say that!
Martin,"Yeah, it is!"
Martin,"Hey, hey, Niles, let me ask you something. Do you ever feel  like you'd just like to go straight?"
Niles,What?
Martin,"Well, you know, I was walking home, and I kept thinking about  all the turns we have to make — right turn, left turn. How  much easier it'd be if we just could go straight over the  trees, over a building. That's what a giant would do. They  should let everybody be a giant for a day."
Niles,If you had any idea how strange you seem to me right now.
Martin,Why is everybody saying that to me?
Martin,"By the way, you are welcome."
Niles,Oh... for what?
Martin,For turning you on to the best thing you will ever eat:  barbecue pudding chips!
Niles,"No, thanks."
Martin,"Oh, they looked at me funny in the store, too, but you taste  that and tell me that's not better than a woman."
Frasier,Do you mind?
Frasier,"Oh, I see. Now you're such a big star that the whole world  has to revolve around you. Fine."
Frasier,I'll tell you what. You just gloat all you  like. This is not over between us!
Martin,Why am I putting these chips in this pudding?
Niles,"Well, I was going to say."
Martin,"I should be dumping the pudding in with the chips! You know, I've been having these great ideas all day. I wrote  some of them down. There. What do you think this means? ""Dog  army."" Oh, that cold medicine I took this morning is making  me feel funny. I think I'm going to go sit down for a while."
Niles,Whatever.
Eddie,Anybody want to go for a walk?
Eddie,Then why not come to Seattle?
Martin,Sweet mother!
Eddie,"Where else can you see... an ocean wave, a fish fly,  a mountain peak, and the world's largest needle? Come  to Seattle. Let's go for a walk."
Martin,Eddie?
Frasier,I know what you're doing!
Frasier,"You're sitting there thinking you're the king! Well, you're  not!"
Martin,Niles?!
Frasier,"All right, I'm off to my date. Oh, for heaven's sake,  Niles! That knife is as sharp as a machete. You should  not be chopping with it in your condition. Do that  for him, will you, Dad?"
Niles,I've come dangerously close to over-braising my chard. It's almost as if something dulled my motor skills.
Martin,You sure you don't want a little of this on the side? I can  scoop around the Lucky Charms.
Niles,"No, thanks."
Niles,"You know me, Dad. I'm not much of a rebel. Too much of a goody-two- shoes."
Niles,"Hi, Frasier."
Martin,"But you've got to open your mind up.  That's where all the great inventions come from. Like, it  used to be people would eat too much, their pants would get  tight! Big problem! Then one day, somebody said, ""Wait a  minute! Why not put elastic in them?"""
Martin,"Hi, Fras."
Frasier,"Dad, where are your pants?"
Martin,"In the fridge. I had a reason. ""Fridge pants."""
Frasier,"Dad, when you were at the café today, you didn't eat a brownie  that Roz brought for Niles, did you?"
Martin,Yeah - but I replaced it.
Frasier,For God's sake! That was a pot brownie! You're stoned off  your ass!
Niles,"Well, someone must feel pretty out of it, being the only one  here who isn't completely burnt."
Frasier,"Oh, knock it off, you imbecile, you're as sober as I am!"
Martin,I knew I was feeling woozy. I thought it was that cold  medicine I took this morning.
Frasier,"It's all right,  Dad."
Niles,"Oh my God, I am so sorry. Dad, are you all right?"
Martin,"Yeah, I'll be fine. But I better go lie down before it really  hits me."
Martin,"Come on, boy."
Frasier,I'll be in there in a minute to check on you.
Martin,"Oh, suit yourself, Eddie!"
Frasier,Didn't it occur to you that he was behaving strangely?
Niles,I thought it was me! I thought it was the Mary Jane talking.
Frasier,"Oh, Niles, please, will you drop the drug lingo?"
Niles,"Frasier, I feel terrible."
Frasier,"Yes well, at least you had a better night than I did. Halfway  through our date, Natalie got a phone call - an emergency at  home. I decided to take a little walk.  Twenty minutes later I saw her in a different bar with another  man."
Niles,There was no emergency?
Frasier,Not unless he had an infected earlobe which required an  immediate tongue-flicking. It's been a hell of a Christmas.
Niles,"I'm so sorry, Frasier."
Frasier,"Truth be told, I'm most disappointed about how things turned  out with Frederick. I've just felt us drifting apart lately,  and I was hoping that we could bond again on this trip."
Niles,"Well, you may have given him a wonderful gift just by letting  him rebel against you."
Niles,Something which I am obviously completely incapable of  achieving. I'm going home.
Frasier,"You're a good man, Niles. In a way, isn't that rebelling  against rebellion?"
Niles,Nice try.
Frasier,"All right, look at it this way — you did get our cop father  stoned tonight."
Niles,"I did, didn't I?"
Frasier,Yeah.
Frasier,"Hmm... Oh, madness!"
Frasier,Frederick.
Freddie,Hey.
Frasier,What are you doing home? I thought you were spending the  night at Andi's.
Freddie,I changed my mind. Good night.
Frasier,Did something happen at the concert?
Freddie,No.
Frasier,Are you sure? I can't help noticing your mascara's run a  little.
Freddie,"Andi ran into a ""friend"" from her old school."
Frasier,Ah... another boy?
Freddie,She hardly talked to me the whole night.
Frasier,"I'm sorry, son. These things happen, and... well, they always  stink."
Freddie,"Did it ever happen to you, Dad?"
Frasier,"It may have. Tell you what — you know, I've got a box of that  cereal you used to like. What do you say I pour us a bowl and  I'll tell you a story or two."
Freddie,It's happened to you more than once?
Frasier,I'll pour you a big bowl.
Credits,"Frasier is seated on the couch and rises to answer the door. He looks through the peephole and is irritated to see a pizza delivery man. He opens the door to reveal that the man has a large stack of pizzas. He begins to explain that he made no such order, when Martin rushes out in his underwear, claims the stack, and runs back to his room, leaving Frasier to pay the bill."
