transcripts/S05E09.csv,another reason we didn't need this tree.
transcripts/S05E09.csv,this thing's a fire hazard.
transcripts/S05E09.csv,it causes cancer.
transcripts/S05E09.csv,we've probably got about twenty minutes of oxygen.
transcripts/S05E09.csv,"you haven't got a gas oven up there, have you?"
transcripts/S05E09.csv,"uhhh, that's a pretty small opening."
transcripts/S05E09.csv,"all right, come on now, grab his feet and we'll push him  through."
transcripts/S09E13.csv,maybe you could have a view from your balcony in
transcripts/S09E13.csv,"oh, that's a good idea!"
transcripts/S09E13.csv,credit grabber!
transcripts/S10E13.csv,sorry. i'm a nervous flyer.
transcripts/S10E13.csv,"no, actually, i'm always this pale. my ex-wife used to say she could tell when i was embarrassed because i'd turn off-white."
transcripts/S10E13.csv,"both, hopefully. i'm relocating for work. how about you?"
transcripts/S10E13.csv,it's a long trip just to ask for a favor.
transcripts/S10E13.csv,well i hope your friend complies.
transcripts/S10E13.csv,you should be a comedian.
transcripts/S10E13.csv,"hey, pasty."
transcripts/S10E13.csv,may i?
transcripts/S10E13.csv,"oh, it wasn't a fit. i'm going back to boston. i don't know, call me neurotic, i just can't work in a lab that's not immaculate."
transcripts/S10E13.csv,mm-hmm. i'm a physicist.
transcripts/S10E13.csv,"ah, the demon-goddess. are you like the independent fireball that was your predecessor?"
transcripts/S10E13.csv,albert.
transcripts/S10E13.csv,what happened with your friend? did you get your favor?
transcripts/S10E13.csv,"well, it's, it's a long flight."
transcripts/S05E09.csv,another reason we didn't need this tree.
transcripts/S05E09.csv,this thing's a fire hazard.
transcripts/S05E09.csv,it causes cancer.
transcripts/S05E09.csv,we've probably got about twenty minutes of oxygen.
transcripts/S05E09.csv,"you haven't got a gas oven up there, have you?"
transcripts/S05E09.csv,"uhhh, that's a pretty small opening."
transcripts/S05E09.csv,"all right, come on now, grab his feet and we'll push him  through."
transcripts/S09E13.csv,maybe you could have a view from your balcony in
transcripts/S09E13.csv,"oh, that's a good idea!"
transcripts/S09E13.csv,credit grabber!
transcripts/S10E13.csv,sorry. i'm a nervous flyer.
transcripts/S10E13.csv,"no, actually, i'm always this pale. my ex-wife used to say she could tell when i was embarrassed because i'd turn off-white."
transcripts/S10E13.csv,"both, hopefully. i'm relocating for work. how about you?"
transcripts/S10E13.csv,it's a long trip just to ask for a favor.
transcripts/S10E13.csv,well i hope your friend complies.
transcripts/S10E13.csv,you should be a comedian.
transcripts/S10E13.csv,"hey, pasty."
transcripts/S10E13.csv,may i?
transcripts/S10E13.csv,"oh, it wasn't a fit. i'm going back to boston. i don't know, call me neurotic, i just can't work in a lab that's not immaculate."
transcripts/S10E13.csv,mm-hmm. i'm a physicist.
transcripts/S10E13.csv,"ah, the demon-goddess. are you like the independent fireball that was your predecessor?"
transcripts/S10E13.csv,albert.
transcripts/S10E13.csv,what happened with your friend? did you get your favor?
transcripts/S10E13.csv,"well, it's, it's a long flight."
transcripts/S05E09.csv,another reason we didn't need this tree.
transcripts/S05E09.csv,this thing's a fire hazard.
transcripts/S05E09.csv,it causes cancer.
transcripts/S05E09.csv,we've probably got about twenty minutes of oxygen.
transcripts/S05E09.csv,"you haven't got a gas oven up there, have you?"
transcripts/S05E09.csv,"uhhh, that's a pretty small opening."
transcripts/S05E09.csv,"all right, come on now, grab his feet and we'll push him  through."
transcripts/S09E13.csv,maybe you could have a view from your balcony in
transcripts/S09E13.csv,"oh, that's a good idea!"
transcripts/S09E13.csv,credit grabber!
transcripts/S10E13.csv,sorry. i'm a nervous flyer.
transcripts/S10E13.csv,"no, actually, i'm always this pale. my ex-wife used to say she could tell when i was embarrassed because i'd turn off-white."
transcripts/S10E13.csv,"both, hopefully. i'm relocating for work. how about you?"
transcripts/S10E13.csv,it's a long trip just to ask for a favor.
transcripts/S10E13.csv,well i hope your friend complies.
transcripts/S10E13.csv,you should be a comedian.
transcripts/S10E13.csv,"hey, pasty."
transcripts/S10E13.csv,may i?
transcripts/S10E13.csv,"oh, it wasn't a fit. i'm going back to boston. i don't know, call me neurotic, i just can't work in a lab that's not immaculate."
transcripts/S10E13.csv,mm-hmm. i'm a physicist.
transcripts/S10E13.csv,"ah, the demon-goddess. are you like the independent fireball that was your predecessor?"
transcripts/S10E13.csv,albert.
transcripts/S10E13.csv,what happened with your friend? did you get your favor?
transcripts/S10E13.csv,"well, it's, it's a long flight."
