transcripts/S04E12.csv,"hi dr. crane, my name is alice and i'm usually a happy  person but today, well, i just started thinking about all  kinds of sad things. my job isn't that exciting, my kids  don't call me... pretty soon i was in a full-blown funk."
transcripts/S04E12.csv,"well, it's three 'o clock and i'm still in my bathrobe."
transcripts/S04E12.csv,"well, i was wondering, what happened to roz and the  gynecologist?"
transcripts/S04E12.csv,"i'll do that right now. thank you, dr. crane, i really do  feel better."
transcripts/S05E03.csv,trick or treat!
transcripts/S09E05.csv,"come on, mom."
transcripts/S09E05.csv,don't be a wuss.
transcripts/S09E05.csv,roger's here.
transcripts/S09E05.csv,let's go see him.
transcripts/S09E05.csv,why?
transcripts/S09E05.csv,why?
transcripts/S09E05.csv,why?
transcripts/S09E05.csv,i like roger.
transcripts/S09E05.csv,do you like roger?
transcripts/S09E05.csv,okay...
transcripts/S09E19.csv,cartoons.
transcripts/S09E19.csv,where's mommy?
transcripts/S09E19.csv,can we watch hockey?
transcripts/S09E19.csv,i miss my hamster.
transcripts/S09E19.csv,what is hamster heaven?
transcripts/S09E19.csv,mommy said he was lost.
transcripts/S09E19.csv,when will he come back?
transcripts/S09E19.csv,why?
transcripts/S09E19.csv,hamster food.
transcripts/S09E19.csv,does cats have a heaven too?
transcripts/S09E19.csv,what about dogs?
transcripts/S09E19.csv,is eddie going?
transcripts/S09E19.csv,how old is he?
transcripts/S09E19.csv,that's not a puppy!
transcripts/S09E19.csv,a new hamster!
transcripts/S09E19.csv,"because animals don't come back from heaven. right, uncle  martin?"
transcripts/S09E19.csv,i like this one better.
transcripts/S09E19.csv,"goodnight, uncle martin. bye, eddie."
transcripts/S10E01.csv,is it because you rode dinosaurs?
transcripts/S10E01.csv,congratulations.
transcripts/S10E13.csv,punch buggy blue!
transcripts/S10E13.csv,punch buggy red.
transcripts/S10E14.csv,lookit. i wrote my name really big.
transcripts/S10E14.csv,"there, and there, and there, and there!"
transcripts/S10E14.csv,"i'm sorry, mommy."
transcripts/S10E14.csv,'cause mine is prettier.
transcripts/S10E16.csv,are you okay?
transcripts/S10E24.csv,got you!
transcripts/S10E24.csv,now you chase me!
transcripts/S11E15.csv,five.
transcripts/S11E15.csv,"hi, uncle niles!"
transcripts/S11E15.csv,"come on, mommy, let's go!"
transcripts/S11E23.csv,sure!
transcripts/S04E12.csv,"hi dr. crane, my name is alice and i'm usually a happy  person but today, well, i just started thinking about all  kinds of sad things. my job isn't that exciting, my kids  don't call me... pretty soon i was in a full-blown funk."
transcripts/S04E12.csv,"well, it's three 'o clock and i'm still in my bathrobe."
transcripts/S04E12.csv,"well, i was wondering, what happened to roz and the  gynecologist?"
transcripts/S04E12.csv,"i'll do that right now. thank you, dr. crane, i really do  feel better."
transcripts/S05E03.csv,trick or treat!
transcripts/S09E05.csv,"come on, mom."
transcripts/S09E05.csv,don't be a wuss.
transcripts/S09E05.csv,roger's here.
transcripts/S09E05.csv,let's go see him.
transcripts/S09E05.csv,why?
transcripts/S09E05.csv,why?
transcripts/S09E05.csv,why?
transcripts/S09E05.csv,i like roger.
transcripts/S09E05.csv,do you like roger?
transcripts/S09E05.csv,okay...
transcripts/S09E19.csv,cartoons.
transcripts/S09E19.csv,where's mommy?
transcripts/S09E19.csv,can we watch hockey?
transcripts/S09E19.csv,i miss my hamster.
transcripts/S09E19.csv,what is hamster heaven?
transcripts/S09E19.csv,mommy said he was lost.
transcripts/S09E19.csv,when will he come back?
transcripts/S09E19.csv,why?
transcripts/S09E19.csv,hamster food.
transcripts/S09E19.csv,does cats have a heaven too?
transcripts/S09E19.csv,what about dogs?
transcripts/S09E19.csv,is eddie going?
transcripts/S09E19.csv,how old is he?
transcripts/S09E19.csv,that's not a puppy!
transcripts/S09E19.csv,a new hamster!
transcripts/S09E19.csv,"because animals don't come back from heaven. right, uncle  martin?"
transcripts/S09E19.csv,i like this one better.
transcripts/S09E19.csv,"goodnight, uncle martin. bye, eddie."
transcripts/S10E01.csv,is it because you rode dinosaurs?
transcripts/S10E01.csv,congratulations.
transcripts/S10E13.csv,punch buggy blue!
transcripts/S10E13.csv,punch buggy red.
transcripts/S10E14.csv,lookit. i wrote my name really big.
transcripts/S10E14.csv,"there, and there, and there, and there!"
transcripts/S10E14.csv,"i'm sorry, mommy."
transcripts/S10E14.csv,'cause mine is prettier.
transcripts/S10E16.csv,are you okay?
transcripts/S10E24.csv,got you!
transcripts/S10E24.csv,now you chase me!
transcripts/S11E15.csv,five.
transcripts/S11E15.csv,"hi, uncle niles!"
transcripts/S11E15.csv,"come on, mommy, let's go!"
transcripts/S11E23.csv,sure!
transcripts/S04E12.csv,"hi dr. crane, my name is alice and i'm usually a happy  person but today, well, i just started thinking about all  kinds of sad things. my job isn't that exciting, my kids  don't call me... pretty soon i was in a full-blown funk."
transcripts/S04E12.csv,"well, it's three 'o clock and i'm still in my bathrobe."
transcripts/S04E12.csv,"well, i was wondering, what happened to roz and the  gynecologist?"
transcripts/S04E12.csv,"i'll do that right now. thank you, dr. crane, i really do  feel better."
transcripts/S05E03.csv,trick or treat!
transcripts/S09E05.csv,"come on, mom."
transcripts/S09E05.csv,don't be a wuss.
transcripts/S09E05.csv,roger's here.
transcripts/S09E05.csv,let's go see him.
transcripts/S09E05.csv,why?
transcripts/S09E05.csv,why?
transcripts/S09E05.csv,why?
transcripts/S09E05.csv,i like roger.
transcripts/S09E05.csv,do you like roger?
transcripts/S09E05.csv,okay...
transcripts/S09E19.csv,cartoons.
transcripts/S09E19.csv,where's mommy?
transcripts/S09E19.csv,can we watch hockey?
transcripts/S09E19.csv,i miss my hamster.
transcripts/S09E19.csv,what is hamster heaven?
transcripts/S09E19.csv,mommy said he was lost.
transcripts/S09E19.csv,when will he come back?
transcripts/S09E19.csv,why?
transcripts/S09E19.csv,hamster food.
transcripts/S09E19.csv,does cats have a heaven too?
transcripts/S09E19.csv,what about dogs?
transcripts/S09E19.csv,is eddie going?
transcripts/S09E19.csv,how old is he?
transcripts/S09E19.csv,that's not a puppy!
transcripts/S09E19.csv,a new hamster!
transcripts/S09E19.csv,"because animals don't come back from heaven. right, uncle  martin?"
transcripts/S09E19.csv,i like this one better.
transcripts/S09E19.csv,"goodnight, uncle martin. bye, eddie."
transcripts/S10E01.csv,is it because you rode dinosaurs?
transcripts/S10E01.csv,congratulations.
transcripts/S10E13.csv,punch buggy blue!
transcripts/S10E13.csv,punch buggy red.
transcripts/S10E14.csv,lookit. i wrote my name really big.
transcripts/S10E14.csv,"there, and there, and there, and there!"
transcripts/S10E14.csv,"i'm sorry, mommy."
transcripts/S10E14.csv,'cause mine is prettier.
transcripts/S10E16.csv,are you okay?
transcripts/S10E24.csv,got you!
transcripts/S10E24.csv,now you chase me!
transcripts/S11E15.csv,five.
transcripts/S11E15.csv,"hi, uncle niles!"
transcripts/S11E15.csv,"come on, mommy, let's go!"
transcripts/S11E23.csv,sure!
