transcripts/S02E13.csv,"if that monkey did it, he'll swing for this."
transcripts/S02E13.csv,"if that monkey did it, he'll swing for this."
transcripts/S02E13.csv,"if that monkey did it, he'll swing for this."
