transcripts/S03E19.csv,and i'm pretty sure he's having an affair with his  secretary.
transcripts/S03E19.csv,no.
transcripts/S04E13.csv,"er, you don't want to hear about it."
transcripts/S04E13.csv,"yeah, their eyes just glaze over when the subject comes up."
transcripts/S04E13.csv,"well, that's a whole current trend - a living room feel in  the kitchen."
transcripts/S04E13.csv,that's funny! you're very witty.
transcripts/S04E13.csv,"yeah, this is fun."
transcripts/S04E13.csv,"and there's the chair. wow, he  wasn't kidding!"
transcripts/S04E13.csv,"well, sort of. we met this afternoon and the next thing we  knew, your sons were taking us out to dinner and then to the  seattle rep."
transcripts/S04E13.csv,sounds like fun.
transcripts/S04E13.csv,you are so funny.
transcripts/S04E13.csv,"don't you just love this air? oh, i am going to sleep like  a baby."
transcripts/S04E13.csv,"we should be able to manage that. come on, let's go look  around outside."
transcripts/S04E13.csv,okay.
transcripts/S04E13.csv,why don't we open up a bottle of wine and watch the sunset?
transcripts/S04E13.csv,that can wait.
transcripts/S04E13.csv,nothing i know of.
transcripts/S04E13.csv,"oh niles, we didn't bring that much."
transcripts/S04E13.csv,"yeah, it is getting kinda late. are you finished with that?"
transcripts/S04E13.csv,"well, i'm off to bed. niles, are you  coming?"
transcripts/S04E13.csv,"niles, what are you doing?"
transcripts/S04E13.csv,niles!
transcripts/S03E19.csv,and i'm pretty sure he's having an affair with his  secretary.
transcripts/S03E19.csv,no.
transcripts/S04E13.csv,"er, you don't want to hear about it."
transcripts/S04E13.csv,"yeah, their eyes just glaze over when the subject comes up."
transcripts/S04E13.csv,"well, that's a whole current trend - a living room feel in  the kitchen."
transcripts/S04E13.csv,that's funny! you're very witty.
transcripts/S04E13.csv,"yeah, this is fun."
transcripts/S04E13.csv,"and there's the chair. wow, he  wasn't kidding!"
transcripts/S04E13.csv,"well, sort of. we met this afternoon and the next thing we  knew, your sons were taking us out to dinner and then to the  seattle rep."
transcripts/S04E13.csv,sounds like fun.
transcripts/S04E13.csv,you are so funny.
transcripts/S04E13.csv,"don't you just love this air? oh, i am going to sleep like  a baby."
transcripts/S04E13.csv,"we should be able to manage that. come on, let's go look  around outside."
transcripts/S04E13.csv,okay.
transcripts/S04E13.csv,why don't we open up a bottle of wine and watch the sunset?
transcripts/S04E13.csv,that can wait.
transcripts/S04E13.csv,nothing i know of.
transcripts/S04E13.csv,"oh niles, we didn't bring that much."
transcripts/S04E13.csv,"yeah, it is getting kinda late. are you finished with that?"
transcripts/S04E13.csv,"well, i'm off to bed. niles, are you  coming?"
transcripts/S04E13.csv,"niles, what are you doing?"
transcripts/S04E13.csv,niles!
transcripts/S03E19.csv,and i'm pretty sure he's having an affair with his  secretary.
transcripts/S03E19.csv,no.
transcripts/S04E13.csv,"er, you don't want to hear about it."
transcripts/S04E13.csv,"yeah, their eyes just glaze over when the subject comes up."
transcripts/S04E13.csv,"well, that's a whole current trend - a living room feel in  the kitchen."
transcripts/S04E13.csv,that's funny! you're very witty.
transcripts/S04E13.csv,"yeah, this is fun."
transcripts/S04E13.csv,"and there's the chair. wow, he  wasn't kidding!"
transcripts/S04E13.csv,"well, sort of. we met this afternoon and the next thing we  knew, your sons were taking us out to dinner and then to the  seattle rep."
transcripts/S04E13.csv,sounds like fun.
transcripts/S04E13.csv,you are so funny.
transcripts/S04E13.csv,"don't you just love this air? oh, i am going to sleep like  a baby."
transcripts/S04E13.csv,"we should be able to manage that. come on, let's go look  around outside."
transcripts/S04E13.csv,okay.
transcripts/S04E13.csv,why don't we open up a bottle of wine and watch the sunset?
transcripts/S04E13.csv,that can wait.
transcripts/S04E13.csv,nothing i know of.
transcripts/S04E13.csv,"oh niles, we didn't bring that much."
transcripts/S04E13.csv,"yeah, it is getting kinda late. are you finished with that?"
transcripts/S04E13.csv,"well, i'm off to bed. niles, are you  coming?"
transcripts/S04E13.csv,"niles, what are you doing?"
transcripts/S04E13.csv,niles!
