transcripts/S01E07.csv,"""deck the halls with boughs of holly; fa-la-la-la-la-la-la-la-la! 'tis the season to be jolly; fa-la-la-la-la-la-la-la-la!"" etc."
transcripts/S01E20.csv,eww!
transcripts/S01E22.csv,"though some boys go to college, but we think they're all wussies, cause they get all the knowledge, and we get all the... ump-da, ump-da, ump-da, da-da-da, ump-da, ump-da, ump-da..."
transcripts/S02E05.csv,forbidden.
transcripts/S02E05.csv,"...and i'll be here, in sunshine or in shadow. oh, danny boy, oh, danny boy, i love you so..."
transcripts/S02E15.csv,hug!
transcripts/S03E16.csv,"bippity-boppity, hippity-dos something and something, and buttons and bows!"
transcripts/S04E03.csv,"dad, dad... dad, dad!"
transcripts/S04E03.csv,mother!
transcripts/S04E04.csv,"hi, dad."
transcripts/S04E07.csv,we're in!
transcripts/S04E08.csv,"hello, daphne."
transcripts/S04E08.csv,hello.
transcripts/S04E21.csv,how dare you!/i'm nothing like her.
transcripts/S05E13.csv,maris? ahhh!
transcripts/S05E20.csv,"madly!  because you held me tight, and stole  a kiss in the night!"
transcripts/S05E22.csv,"oh, love some/thank you, yes."
transcripts/S08E06.csv,spooky!
transcripts/S08E08.csv,...traffic lady!
transcripts/S08E19.csv,madly! because you held me tight and stole a kiss in the night.
transcripts/S08E19.csv,"hi, niles."
transcripts/S09E04.csv,"oh, when is it? tonight."
transcripts/S09E04.csv,oh...
transcripts/S09E07.csv,"""almond, harvest wheat""..."
transcripts/S09E15.csv,latent!
transcripts/S09E17.csv,lemon juice.
transcripts/S09E19.csv,"""always evidentiary!"""
transcripts/S11E23.csv,ow!
transcripts/S11E23.csv,"well, obviously you're the duchess..."
transcripts/S11E23.csv,disaster!
transcripts/S01E07.csv,"""deck the halls with boughs of holly; fa-la-la-la-la-la-la-la-la! 'tis the season to be jolly; fa-la-la-la-la-la-la-la-la!"" etc."
transcripts/S01E20.csv,eww!
transcripts/S01E22.csv,"though some boys go to college, but we think they're all wussies, cause they get all the knowledge, and we get all the... ump-da, ump-da, ump-da, da-da-da, ump-da, ump-da, ump-da..."
transcripts/S02E05.csv,forbidden.
transcripts/S02E05.csv,"...and i'll be here, in sunshine or in shadow. oh, danny boy, oh, danny boy, i love you so..."
transcripts/S02E15.csv,hug!
transcripts/S03E16.csv,"bippity-boppity, hippity-dos something and something, and buttons and bows!"
transcripts/S04E03.csv,"dad, dad... dad, dad!"
transcripts/S04E03.csv,mother!
transcripts/S04E04.csv,"hi, dad."
transcripts/S04E07.csv,we're in!
transcripts/S04E08.csv,"hello, daphne."
transcripts/S04E08.csv,hello.
transcripts/S04E21.csv,how dare you!/i'm nothing like her.
transcripts/S05E13.csv,maris? ahhh!
transcripts/S05E20.csv,"madly!  because you held me tight, and stole  a kiss in the night!"
transcripts/S05E22.csv,"oh, love some/thank you, yes."
transcripts/S08E06.csv,spooky!
transcripts/S08E08.csv,...traffic lady!
transcripts/S08E19.csv,madly! because you held me tight and stole a kiss in the night.
transcripts/S08E19.csv,"hi, niles."
transcripts/S09E04.csv,"oh, when is it? tonight."
transcripts/S09E04.csv,oh...
transcripts/S09E07.csv,"""almond, harvest wheat""..."
transcripts/S09E15.csv,latent!
transcripts/S09E17.csv,lemon juice.
transcripts/S09E19.csv,"""always evidentiary!"""
transcripts/S11E23.csv,ow!
transcripts/S11E23.csv,"well, obviously you're the duchess..."
transcripts/S11E23.csv,disaster!
transcripts/S01E07.csv,"""deck the halls with boughs of holly; fa-la-la-la-la-la-la-la-la! 'tis the season to be jolly; fa-la-la-la-la-la-la-la-la!"" etc."
transcripts/S01E20.csv,eww!
transcripts/S01E22.csv,"though some boys go to college, but we think they're all wussies, cause they get all the knowledge, and we get all the... ump-da, ump-da, ump-da, da-da-da, ump-da, ump-da, ump-da..."
transcripts/S02E05.csv,forbidden.
transcripts/S02E05.csv,"...and i'll be here, in sunshine or in shadow. oh, danny boy, oh, danny boy, i love you so..."
transcripts/S02E15.csv,hug!
transcripts/S03E16.csv,"bippity-boppity, hippity-dos something and something, and buttons and bows!"
transcripts/S04E03.csv,"dad, dad... dad, dad!"
transcripts/S04E03.csv,mother!
transcripts/S04E04.csv,"hi, dad."
transcripts/S04E07.csv,we're in!
transcripts/S04E08.csv,"hello, daphne."
transcripts/S04E08.csv,hello.
transcripts/S04E21.csv,how dare you!/i'm nothing like her.
transcripts/S05E13.csv,maris? ahhh!
transcripts/S05E20.csv,"madly!  because you held me tight, and stole  a kiss in the night!"
transcripts/S05E22.csv,"oh, love some/thank you, yes."
transcripts/S08E06.csv,spooky!
transcripts/S08E08.csv,...traffic lady!
transcripts/S08E19.csv,madly! because you held me tight and stole a kiss in the night.
transcripts/S08E19.csv,"hi, niles."
transcripts/S09E04.csv,"oh, when is it? tonight."
transcripts/S09E04.csv,oh...
transcripts/S09E07.csv,"""almond, harvest wheat""..."
transcripts/S09E15.csv,latent!
transcripts/S09E17.csv,lemon juice.
transcripts/S09E19.csv,"""always evidentiary!"""
transcripts/S11E23.csv,ow!
transcripts/S11E23.csv,"well, obviously you're the duchess..."
transcripts/S11E23.csv,disaster!
