transcripts/S07E03.csv,dr. crane?
transcripts/S07E03.csv,"dr. kaufmann. bob kaufmann of the national psychotherapy  institute. oh my gosh, it's six-fifteen in the morning  your time. i hope i didn't wake you."
transcripts/S07E03.csv,the national psychotherapy institute...
transcripts/S07E03.csv,"...in saddle river, new jersey."
transcripts/S07E03.csv,"oh, for pete's sake. no one called you? you won our radio  therapist of the year award. congratulations."
transcripts/S07E03.csv,thank you! and i'm sorry about the mix-up. the problem is  we're going to need some pictures of you so we can get started  on the statue.
transcripts/S07E03.csv,"for our hall of thinkers. angie, he never got the  packet!"
transcripts/S07E03.csv,"well, it's a little late now, but maybe if you describe your  body we could get started on the preliminary carving. the  sculptor's right here. fortunately we got herr gustav  brumhalt."
transcripts/S07E03.csv,"ah, ah..."
transcripts/S07E03.csv,"we're actually called ""carlos and the chicken."""
transcripts/S07E03.csv,"dr. crane, i hope we didn't go too far. we love your show."
transcripts/S07E03.csv,"oh yeah, we're big fans. and you know, the last thing we want  to do is step on your toes."
transcripts/S07E03.csv,"we totally get it, dr. crane, it felt wrong when we did it."
transcripts/S07E03.csv,and dr. crane: we're listening!
transcripts/S07E03.csv,"listeners, ""carlos and the chicken"" are offering one thousand  dollars for the best picture of frasier crane's humongous ass  for our website."
transcripts/S07E03.csv,i think we're going to have to throw a bucket of  water on those two.
transcripts/S07E03.csv,"you know, for a man carrying around a good fifty extra pounds  of ass, frasier crane has got unbelievable stamina. frasier,  where do you get your energy?"
transcripts/S07E03.csv,"oh my god, they're changing positions. i've never seen  that one before."
transcripts/S07E03.csv,"holy cow, look who just walked into the booth: frasier crane,  the automatic sex pilot."
transcripts/S07E03.csv,"hey, wait a second, i'm not your straight man. if anything,  i'm the funny one."
transcripts/S07E03.csv,"you're the one who just started it, on the air!"
transcripts/S07E03.csv,you always do this.
transcripts/S07E03.csv,i just wish you could say i was as funny as you are.
transcripts/S07E03.csv,"if i'm so unfunny, how come i get all the solo gigs?"
transcripts/S07E03.csv,don't believe me? ask our agent!
transcripts/S07E03.csv,i'm going.
transcripts/S07E03.csv,"great, because i don't need you and i don't need ""carlos and  the chicken."""
transcripts/S07E03.csv,"same to you, dwayne!"
transcripts/S07E03.csv,dr. crane?
transcripts/S07E03.csv,"dr. kaufmann. bob kaufmann of the national psychotherapy  institute. oh my gosh, it's six-fifteen in the morning  your time. i hope i didn't wake you."
transcripts/S07E03.csv,the national psychotherapy institute...
transcripts/S07E03.csv,"...in saddle river, new jersey."
transcripts/S07E03.csv,"oh, for pete's sake. no one called you? you won our radio  therapist of the year award. congratulations."
transcripts/S07E03.csv,thank you! and i'm sorry about the mix-up. the problem is  we're going to need some pictures of you so we can get started  on the statue.
transcripts/S07E03.csv,"for our hall of thinkers. angie, he never got the  packet!"
transcripts/S07E03.csv,"well, it's a little late now, but maybe if you describe your  body we could get started on the preliminary carving. the  sculptor's right here. fortunately we got herr gustav  brumhalt."
transcripts/S07E03.csv,"ah, ah..."
transcripts/S07E03.csv,"we're actually called ""carlos and the chicken."""
transcripts/S07E03.csv,"dr. crane, i hope we didn't go too far. we love your show."
transcripts/S07E03.csv,"oh yeah, we're big fans. and you know, the last thing we want  to do is step on your toes."
transcripts/S07E03.csv,"we totally get it, dr. crane, it felt wrong when we did it."
transcripts/S07E03.csv,and dr. crane: we're listening!
transcripts/S07E03.csv,"listeners, ""carlos and the chicken"" are offering one thousand  dollars for the best picture of frasier crane's humongous ass  for our website."
transcripts/S07E03.csv,i think we're going to have to throw a bucket of  water on those two.
transcripts/S07E03.csv,"you know, for a man carrying around a good fifty extra pounds  of ass, frasier crane has got unbelievable stamina. frasier,  where do you get your energy?"
transcripts/S07E03.csv,"oh my god, they're changing positions. i've never seen  that one before."
transcripts/S07E03.csv,"holy cow, look who just walked into the booth: frasier crane,  the automatic sex pilot."
transcripts/S07E03.csv,"hey, wait a second, i'm not your straight man. if anything,  i'm the funny one."
transcripts/S07E03.csv,"you're the one who just started it, on the air!"
transcripts/S07E03.csv,you always do this.
transcripts/S07E03.csv,i just wish you could say i was as funny as you are.
transcripts/S07E03.csv,"if i'm so unfunny, how come i get all the solo gigs?"
transcripts/S07E03.csv,don't believe me? ask our agent!
transcripts/S07E03.csv,i'm going.
transcripts/S07E03.csv,"great, because i don't need you and i don't need ""carlos and  the chicken."""
transcripts/S07E03.csv,"same to you, dwayne!"
transcripts/S07E03.csv,dr. crane?
transcripts/S07E03.csv,"dr. kaufmann. bob kaufmann of the national psychotherapy  institute. oh my gosh, it's six-fifteen in the morning  your time. i hope i didn't wake you."
transcripts/S07E03.csv,the national psychotherapy institute...
transcripts/S07E03.csv,"...in saddle river, new jersey."
transcripts/S07E03.csv,"oh, for pete's sake. no one called you? you won our radio  therapist of the year award. congratulations."
transcripts/S07E03.csv,thank you! and i'm sorry about the mix-up. the problem is  we're going to need some pictures of you so we can get started  on the statue.
transcripts/S07E03.csv,"for our hall of thinkers. angie, he never got the  packet!"
transcripts/S07E03.csv,"well, it's a little late now, but maybe if you describe your  body we could get started on the preliminary carving. the  sculptor's right here. fortunately we got herr gustav  brumhalt."
transcripts/S07E03.csv,"ah, ah..."
transcripts/S07E03.csv,"we're actually called ""carlos and the chicken."""
transcripts/S07E03.csv,"dr. crane, i hope we didn't go too far. we love your show."
transcripts/S07E03.csv,"oh yeah, we're big fans. and you know, the last thing we want  to do is step on your toes."
transcripts/S07E03.csv,"we totally get it, dr. crane, it felt wrong when we did it."
transcripts/S07E03.csv,and dr. crane: we're listening!
transcripts/S07E03.csv,"listeners, ""carlos and the chicken"" are offering one thousand  dollars for the best picture of frasier crane's humongous ass  for our website."
transcripts/S07E03.csv,i think we're going to have to throw a bucket of  water on those two.
transcripts/S07E03.csv,"you know, for a man carrying around a good fifty extra pounds  of ass, frasier crane has got unbelievable stamina. frasier,  where do you get your energy?"
transcripts/S07E03.csv,"oh my god, they're changing positions. i've never seen  that one before."
transcripts/S07E03.csv,"holy cow, look who just walked into the booth: frasier crane,  the automatic sex pilot."
transcripts/S07E03.csv,"hey, wait a second, i'm not your straight man. if anything,  i'm the funny one."
transcripts/S07E03.csv,"you're the one who just started it, on the air!"
transcripts/S07E03.csv,you always do this.
transcripts/S07E03.csv,i just wish you could say i was as funny as you are.
transcripts/S07E03.csv,"if i'm so unfunny, how come i get all the solo gigs?"
transcripts/S07E03.csv,don't believe me? ask our agent!
transcripts/S07E03.csv,i'm going.
transcripts/S07E03.csv,"great, because i don't need you and i don't need ""carlos and  the chicken."""
transcripts/S07E03.csv,"same to you, dwayne!"
