transcripts/S06E14.csv,sorry to keep you waiting.
transcripts/S06E14.csv,"what, and pass up dinner with the sexiest man in radio?"
transcripts/S06E14.csv,will you excuse me for a second?
transcripts/S06E14.csv,"you too, mario. and how's the sexiest maitre d' in  seattle?"
transcripts/S06E14.csv,sorry again for keeping you waiting. i got sucked in at  this cocktail party.
transcripts/S06E14.csv,"some benefit thing. it was very fancy. obviously, why  else would i show up wearing this?"
transcripts/S06E14.csv,"oh, they have the best wine list here. do you feel like  sharing a bottle?"
transcripts/S06E14.csv,"good thing i took a cab here, i'm a real lightweight.  then again, i'm sure a gentleman like you wouldn't mind  escorting me back to my room after dinner, will you?"
transcripts/S06E14.csv,i love the food here.
transcripts/S06E14.csv,"i'll start with the anchovies and red peppers, and then  the garlic chicken with scallions."
transcripts/S06E14.csv,are you in the mood for oysters?
transcripts/S06E14.csv,"oh, come on in. oh, thank  you so much for this coat."
transcripts/S06E14.csv,"oh, god, i can't believe we got caught in that rainstorm,  i'm freezing!"
transcripts/S06E14.csv,"oh, i know  something we can do to warm up real fast."
transcripts/S06E14.csv,have a brandy.
transcripts/S06E14.csv,the mini-bar's over there. i'll be right out.
transcripts/S06E14.csv,"oh, i just had to get out of that dress."
transcripts/S06E14.csv,i'll just go dry my hair.
transcripts/S06E14.csv,frasier? are you making yourself  comfortable?
transcripts/S06E14.csv,"if it's ok, i still have some questions about the ad  campaign i'd like to ask you."
transcripts/S06E14.csv,"or if you prefer, we could just talk about it over  breakfast tomorrow."
transcripts/S06E14.csv,"i hope i wasn't being presumptuous. we will be having  breakfast tomorrow, won't we?"
transcripts/S06E14.csv,great! so who else wil be there?
transcripts/S06E14.csv,"at the breakfast meeting. the one for the sponsors here  at the hotel, tomorrow. you just said you were going,  right?"
transcripts/S06E14.csv,"frasier, what are you doing?"
transcripts/S06E14.csv,i thought you said you were going to make yourself  comfortable. why don't you check the closet? i'm sure  you can find somthing to slip into. i'm just going to  take my lenses out.
transcripts/S06E14.csv,"you know, i'm really  glad i asked you to dinner."
transcripts/S06E14.csv,"you may not believe this, but i almost chickened out at  the last minute. it just goes to show it's always better  to take the risk. i mean, so you say ""no."" i'm an  adult, what's a little embarrassment?"
transcripts/S06E14.csv,did you find the slippers?
transcripts/S06E14.csv,in the closet.
transcripts/S06E14.csv,"you stepped in that puddle after dinner, i thought you  might want to get out of those wet shoes and socks. it's  up to you, i know some people feel funny about taking  their shoes off in someone else's room. my gosh, it's  really starting to come down out there. you know what  i'm thinking?"
transcripts/S06E14.csv,"well, it doesn't make much sense for you to drive home in  this weather, especially since you are coming back for  breakfast anyway. why don't you just stay over tonight?"
transcripts/S06E14.csv,stay here.
transcripts/S06E14.csv,"oh, my god!"
transcripts/S06E14.csv,i just can't believe it's so late. what are you sorry  for?
transcripts/S06E14.csv,"oh, that's all right. aren't you coming to bed?"
transcripts/S06E14.csv,"well, would you mind turning the lights out?"
transcripts/S06E21.csv,"morning, everyone!"
transcripts/S06E21.csv,you must be frasier's dad. i've heard all about you.
transcripts/S06E21.csv,nice to meet you!
transcripts/S06E21.csv,you are so cute! now i see where frasier got those gorgeous  eyes.
transcripts/S06E21.csv,hello.
transcripts/S06E21.csv,"oh, i could go for an english muffin."
transcripts/S06E21.csv,"no, i'll get it myself."
transcripts/S06E21.csv,good morning.
transcripts/S06E21.csv,"i won't, i wish i were in mine!"
transcripts/S06E21.csv,i brought you some pastries.
transcripts/S06E21.csv,"hi martin, dixie."
transcripts/S06E21.csv,"okay, alright, have a good day. oh, you know,  i'll just use the powder room."
transcripts/S06E21.csv,what are you doing?
transcripts/S06E21.csv,"well, i know you've got your game so i'll just get out of  your hair."
transcripts/S06E21.csv,"goodbye, everyone."
transcripts/S06E21.csv,of course.
transcripts/S06E21.csv,are you alright?
transcripts/S06E21.csv,"hi, honey."
transcripts/S06E21.csv,"double espresso, please. i have  great news."
transcripts/S06E21.csv,those new promos are working wonders. i just got the  numbers and you're really scoring with women between the  ages of 25 and 49.
transcripts/S06E21.csv,you alright?
transcripts/S06E21.csv,i know where we're going: a serious talk.
transcripts/S06E21.csv,"i know, whether we're going to be exclusive or not. i've  been wanting to talk to you about that too."
transcripts/S06E21.csv,"yes. you see, i thought you should know that i've been  seeing someone else."
transcripts/S06E21.csv,does that bother you?
transcripts/S06E21.csv,"oh, good."
transcripts/S06E21.csv,"not very long. you're not upset, are you?"
transcripts/S06E21.csv,he owns his own venture capital firm. although he spends  most of his time racing sail boats and rebuilding trails  for the sierra club.
transcripts/S06E21.csv,"you are upset, aren't you?"
transcripts/S06E21.csv,"really, there's no reason to be jealous of sloan!"
transcripts/S06E21.csv,frasier!
transcripts/S06E21.csv,"now, about those new promos...."
transcripts/S06E21.csv,what?
transcripts/S06E21.csv,"frasier, i'm so touched. if you only want us to be with  each other - that's great. i was supposed to see sloan  tonight, but i'm going to call him and cancel."
transcripts/S06E21.csv,"well, i called him. i probably should  feel guilty but i'm just so glad it's just the two of us  now."
transcripts/S06E21.csv,i know a cute little bed-and-breakfast we can go to this weekend.
transcripts/S06E21.csv,thank you.
transcripts/S06E21.csv,and they have the cutest little four poster beds in each room.
transcripts/S06E21.csv,"oh, you know, i meant to tell you, i really liked how you  handled that nasty caller yesterday. it was such a clever  way of..."
transcripts/S06E21.csv,"and then i ran into roz after the show, and she told me  the cutest little story that..."
transcripts/S06E24.csv,frasier!
transcripts/S06E24.csv,"great. actually i've been wanting to talk to you for a while. we've been sort of... avoiding each other at work and it just all seems so silly. i mean, i really don't have any hard feelings about the way things ended between us."
transcripts/S06E24.csv,"you dumped me. you're not allowed to have hard feelings. anyway, my life is great. i'm back together with sloan. you know, you and i should have coffee together sometime."
transcripts/S06E24.csv,i'm just glad we're putting all this awkwardness behind us.
transcripts/S06E24.csv,ouch!
transcripts/S06E24.csv,hello.
transcripts/S06E24.csv,"uh, yes..."
transcripts/S06E24.csv,"excuse me, is frasier still here? i just had something i needed to ask him."
transcripts/S06E24.csv,"oh, how do you do? i'm..."
transcripts/S06E14.csv,sorry to keep you waiting.
transcripts/S06E14.csv,"what, and pass up dinner with the sexiest man in radio?"
transcripts/S06E14.csv,will you excuse me for a second?
transcripts/S06E14.csv,"you too, mario. and how's the sexiest maitre d' in  seattle?"
transcripts/S06E14.csv,sorry again for keeping you waiting. i got sucked in at  this cocktail party.
transcripts/S06E14.csv,"some benefit thing. it was very fancy. obviously, why  else would i show up wearing this?"
transcripts/S06E14.csv,"oh, they have the best wine list here. do you feel like  sharing a bottle?"
transcripts/S06E14.csv,"good thing i took a cab here, i'm a real lightweight.  then again, i'm sure a gentleman like you wouldn't mind  escorting me back to my room after dinner, will you?"
transcripts/S06E14.csv,i love the food here.
transcripts/S06E14.csv,"i'll start with the anchovies and red peppers, and then  the garlic chicken with scallions."
transcripts/S06E14.csv,are you in the mood for oysters?
transcripts/S06E14.csv,"oh, come on in. oh, thank  you so much for this coat."
transcripts/S06E14.csv,"oh, god, i can't believe we got caught in that rainstorm,  i'm freezing!"
transcripts/S06E14.csv,"oh, i know  something we can do to warm up real fast."
transcripts/S06E14.csv,have a brandy.
transcripts/S06E14.csv,the mini-bar's over there. i'll be right out.
transcripts/S06E14.csv,"oh, i just had to get out of that dress."
transcripts/S06E14.csv,i'll just go dry my hair.
transcripts/S06E14.csv,frasier? are you making yourself  comfortable?
transcripts/S06E14.csv,"if it's ok, i still have some questions about the ad  campaign i'd like to ask you."
transcripts/S06E14.csv,"or if you prefer, we could just talk about it over  breakfast tomorrow."
transcripts/S06E14.csv,"i hope i wasn't being presumptuous. we will be having  breakfast tomorrow, won't we?"
transcripts/S06E14.csv,great! so who else wil be there?
transcripts/S06E14.csv,"at the breakfast meeting. the one for the sponsors here  at the hotel, tomorrow. you just said you were going,  right?"
transcripts/S06E14.csv,"frasier, what are you doing?"
transcripts/S06E14.csv,i thought you said you were going to make yourself  comfortable. why don't you check the closet? i'm sure  you can find somthing to slip into. i'm just going to  take my lenses out.
transcripts/S06E14.csv,"you know, i'm really  glad i asked you to dinner."
transcripts/S06E14.csv,"you may not believe this, but i almost chickened out at  the last minute. it just goes to show it's always better  to take the risk. i mean, so you say ""no."" i'm an  adult, what's a little embarrassment?"
transcripts/S06E14.csv,did you find the slippers?
transcripts/S06E14.csv,in the closet.
transcripts/S06E14.csv,"you stepped in that puddle after dinner, i thought you  might want to get out of those wet shoes and socks. it's  up to you, i know some people feel funny about taking  their shoes off in someone else's room. my gosh, it's  really starting to come down out there. you know what  i'm thinking?"
transcripts/S06E14.csv,"well, it doesn't make much sense for you to drive home in  this weather, especially since you are coming back for  breakfast anyway. why don't you just stay over tonight?"
transcripts/S06E14.csv,stay here.
transcripts/S06E14.csv,"oh, my god!"
transcripts/S06E14.csv,i just can't believe it's so late. what are you sorry  for?
transcripts/S06E14.csv,"oh, that's all right. aren't you coming to bed?"
transcripts/S06E14.csv,"well, would you mind turning the lights out?"
transcripts/S06E21.csv,"morning, everyone!"
transcripts/S06E21.csv,you must be frasier's dad. i've heard all about you.
transcripts/S06E21.csv,nice to meet you!
transcripts/S06E21.csv,you are so cute! now i see where frasier got those gorgeous  eyes.
transcripts/S06E21.csv,hello.
transcripts/S06E21.csv,"oh, i could go for an english muffin."
transcripts/S06E21.csv,"no, i'll get it myself."
transcripts/S06E21.csv,good morning.
transcripts/S06E21.csv,"i won't, i wish i were in mine!"
transcripts/S06E21.csv,i brought you some pastries.
transcripts/S06E21.csv,"hi martin, dixie."
transcripts/S06E21.csv,"okay, alright, have a good day. oh, you know,  i'll just use the powder room."
transcripts/S06E21.csv,what are you doing?
transcripts/S06E21.csv,"well, i know you've got your game so i'll just get out of  your hair."
transcripts/S06E21.csv,"goodbye, everyone."
transcripts/S06E21.csv,of course.
transcripts/S06E21.csv,are you alright?
transcripts/S06E21.csv,"hi, honey."
transcripts/S06E21.csv,"double espresso, please. i have  great news."
transcripts/S06E21.csv,those new promos are working wonders. i just got the  numbers and you're really scoring with women between the  ages of 25 and 49.
transcripts/S06E21.csv,you alright?
transcripts/S06E21.csv,i know where we're going: a serious talk.
transcripts/S06E21.csv,"i know, whether we're going to be exclusive or not. i've  been wanting to talk to you about that too."
transcripts/S06E21.csv,"yes. you see, i thought you should know that i've been  seeing someone else."
transcripts/S06E21.csv,does that bother you?
transcripts/S06E21.csv,"oh, good."
transcripts/S06E21.csv,"not very long. you're not upset, are you?"
transcripts/S06E21.csv,he owns his own venture capital firm. although he spends  most of his time racing sail boats and rebuilding trails  for the sierra club.
transcripts/S06E21.csv,"you are upset, aren't you?"
transcripts/S06E21.csv,"really, there's no reason to be jealous of sloan!"
transcripts/S06E21.csv,frasier!
transcripts/S06E21.csv,"now, about those new promos...."
transcripts/S06E21.csv,what?
transcripts/S06E21.csv,"frasier, i'm so touched. if you only want us to be with  each other - that's great. i was supposed to see sloan  tonight, but i'm going to call him and cancel."
transcripts/S06E21.csv,"well, i called him. i probably should  feel guilty but i'm just so glad it's just the two of us  now."
transcripts/S06E21.csv,i know a cute little bed-and-breakfast we can go to this weekend.
transcripts/S06E21.csv,thank you.
transcripts/S06E21.csv,and they have the cutest little four poster beds in each room.
transcripts/S06E21.csv,"oh, you know, i meant to tell you, i really liked how you  handled that nasty caller yesterday. it was such a clever  way of..."
transcripts/S06E21.csv,"and then i ran into roz after the show, and she told me  the cutest little story that..."
transcripts/S06E24.csv,frasier!
transcripts/S06E24.csv,"great. actually i've been wanting to talk to you for a while. we've been sort of... avoiding each other at work and it just all seems so silly. i mean, i really don't have any hard feelings about the way things ended between us."
transcripts/S06E24.csv,"you dumped me. you're not allowed to have hard feelings. anyway, my life is great. i'm back together with sloan. you know, you and i should have coffee together sometime."
transcripts/S06E24.csv,i'm just glad we're putting all this awkwardness behind us.
transcripts/S06E24.csv,ouch!
transcripts/S06E24.csv,hello.
transcripts/S06E24.csv,"uh, yes..."
transcripts/S06E24.csv,"excuse me, is frasier still here? i just had something i needed to ask him."
transcripts/S06E24.csv,"oh, how do you do? i'm..."
transcripts/S06E14.csv,sorry to keep you waiting.
transcripts/S06E14.csv,"what, and pass up dinner with the sexiest man in radio?"
transcripts/S06E14.csv,will you excuse me for a second?
transcripts/S06E14.csv,"you too, mario. and how's the sexiest maitre d' in  seattle?"
transcripts/S06E14.csv,sorry again for keeping you waiting. i got sucked in at  this cocktail party.
transcripts/S06E14.csv,"some benefit thing. it was very fancy. obviously, why  else would i show up wearing this?"
transcripts/S06E14.csv,"oh, they have the best wine list here. do you feel like  sharing a bottle?"
transcripts/S06E14.csv,"good thing i took a cab here, i'm a real lightweight.  then again, i'm sure a gentleman like you wouldn't mind  escorting me back to my room after dinner, will you?"
transcripts/S06E14.csv,i love the food here.
transcripts/S06E14.csv,"i'll start with the anchovies and red peppers, and then  the garlic chicken with scallions."
transcripts/S06E14.csv,are you in the mood for oysters?
transcripts/S06E14.csv,"oh, come on in. oh, thank  you so much for this coat."
transcripts/S06E14.csv,"oh, god, i can't believe we got caught in that rainstorm,  i'm freezing!"
transcripts/S06E14.csv,"oh, i know  something we can do to warm up real fast."
transcripts/S06E14.csv,have a brandy.
transcripts/S06E14.csv,the mini-bar's over there. i'll be right out.
transcripts/S06E14.csv,"oh, i just had to get out of that dress."
transcripts/S06E14.csv,i'll just go dry my hair.
transcripts/S06E14.csv,frasier? are you making yourself  comfortable?
transcripts/S06E14.csv,"if it's ok, i still have some questions about the ad  campaign i'd like to ask you."
transcripts/S06E14.csv,"or if you prefer, we could just talk about it over  breakfast tomorrow."
transcripts/S06E14.csv,"i hope i wasn't being presumptuous. we will be having  breakfast tomorrow, won't we?"
transcripts/S06E14.csv,great! so who else wil be there?
transcripts/S06E14.csv,"at the breakfast meeting. the one for the sponsors here  at the hotel, tomorrow. you just said you were going,  right?"
transcripts/S06E14.csv,"frasier, what are you doing?"
transcripts/S06E14.csv,i thought you said you were going to make yourself  comfortable. why don't you check the closet? i'm sure  you can find somthing to slip into. i'm just going to  take my lenses out.
transcripts/S06E14.csv,"you know, i'm really  glad i asked you to dinner."
transcripts/S06E14.csv,"you may not believe this, but i almost chickened out at  the last minute. it just goes to show it's always better  to take the risk. i mean, so you say ""no."" i'm an  adult, what's a little embarrassment?"
transcripts/S06E14.csv,did you find the slippers?
transcripts/S06E14.csv,in the closet.
transcripts/S06E14.csv,"you stepped in that puddle after dinner, i thought you  might want to get out of those wet shoes and socks. it's  up to you, i know some people feel funny about taking  their shoes off in someone else's room. my gosh, it's  really starting to come down out there. you know what  i'm thinking?"
transcripts/S06E14.csv,"well, it doesn't make much sense for you to drive home in  this weather, especially since you are coming back for  breakfast anyway. why don't you just stay over tonight?"
transcripts/S06E14.csv,stay here.
transcripts/S06E14.csv,"oh, my god!"
transcripts/S06E14.csv,i just can't believe it's so late. what are you sorry  for?
transcripts/S06E14.csv,"oh, that's all right. aren't you coming to bed?"
transcripts/S06E14.csv,"well, would you mind turning the lights out?"
transcripts/S06E21.csv,"morning, everyone!"
transcripts/S06E21.csv,you must be frasier's dad. i've heard all about you.
transcripts/S06E21.csv,nice to meet you!
transcripts/S06E21.csv,you are so cute! now i see where frasier got those gorgeous  eyes.
transcripts/S06E21.csv,hello.
transcripts/S06E21.csv,"oh, i could go for an english muffin."
transcripts/S06E21.csv,"no, i'll get it myself."
transcripts/S06E21.csv,good morning.
transcripts/S06E21.csv,"i won't, i wish i were in mine!"
transcripts/S06E21.csv,i brought you some pastries.
transcripts/S06E21.csv,"hi martin, dixie."
transcripts/S06E21.csv,"okay, alright, have a good day. oh, you know,  i'll just use the powder room."
transcripts/S06E21.csv,what are you doing?
transcripts/S06E21.csv,"well, i know you've got your game so i'll just get out of  your hair."
transcripts/S06E21.csv,"goodbye, everyone."
transcripts/S06E21.csv,of course.
transcripts/S06E21.csv,are you alright?
transcripts/S06E21.csv,"hi, honey."
transcripts/S06E21.csv,"double espresso, please. i have  great news."
transcripts/S06E21.csv,those new promos are working wonders. i just got the  numbers and you're really scoring with women between the  ages of 25 and 49.
transcripts/S06E21.csv,you alright?
transcripts/S06E21.csv,i know where we're going: a serious talk.
transcripts/S06E21.csv,"i know, whether we're going to be exclusive or not. i've  been wanting to talk to you about that too."
transcripts/S06E21.csv,"yes. you see, i thought you should know that i've been  seeing someone else."
transcripts/S06E21.csv,does that bother you?
transcripts/S06E21.csv,"oh, good."
transcripts/S06E21.csv,"not very long. you're not upset, are you?"
transcripts/S06E21.csv,he owns his own venture capital firm. although he spends  most of his time racing sail boats and rebuilding trails  for the sierra club.
transcripts/S06E21.csv,"you are upset, aren't you?"
transcripts/S06E21.csv,"really, there's no reason to be jealous of sloan!"
transcripts/S06E21.csv,frasier!
transcripts/S06E21.csv,"now, about those new promos...."
transcripts/S06E21.csv,what?
transcripts/S06E21.csv,"frasier, i'm so touched. if you only want us to be with  each other - that's great. i was supposed to see sloan  tonight, but i'm going to call him and cancel."
transcripts/S06E21.csv,"well, i called him. i probably should  feel guilty but i'm just so glad it's just the two of us  now."
transcripts/S06E21.csv,i know a cute little bed-and-breakfast we can go to this weekend.
transcripts/S06E21.csv,thank you.
transcripts/S06E21.csv,and they have the cutest little four poster beds in each room.
transcripts/S06E21.csv,"oh, you know, i meant to tell you, i really liked how you  handled that nasty caller yesterday. it was such a clever  way of..."
transcripts/S06E21.csv,"and then i ran into roz after the show, and she told me  the cutest little story that..."
transcripts/S06E24.csv,frasier!
transcripts/S06E24.csv,"great. actually i've been wanting to talk to you for a while. we've been sort of... avoiding each other at work and it just all seems so silly. i mean, i really don't have any hard feelings about the way things ended between us."
transcripts/S06E24.csv,"you dumped me. you're not allowed to have hard feelings. anyway, my life is great. i'm back together with sloan. you know, you and i should have coffee together sometime."
transcripts/S06E24.csv,i'm just glad we're putting all this awkwardness behind us.
transcripts/S06E24.csv,ouch!
transcripts/S06E24.csv,hello.
transcripts/S06E24.csv,"uh, yes..."
transcripts/S06E24.csv,"excuse me, is frasier still here? i just had something i needed to ask him."
transcripts/S06E24.csv,"oh, how do you do? i'm..."
