transcripts/S05E10.csv,daphne!
transcripts/S05E10.csv,i'm engaged!
transcripts/S05E10.csv,"well, my old boyfriend, bob, surprised me two nights ago.  you gotta meet him, he's right over there."
transcripts/S05E10.csv,he even brought someone you might be interested in.
transcripts/S05E10.csv,"coming, pookie."
transcripts/S05E10.csv,i think that steven likes you!
transcripts/S05E10.csv,i noticed you didn't rush to correct him.
transcripts/S05E10.csv,"i'm surprised you even brought your boss down here, i couldn't never relax around mine. what if he took a liking  to the place?"
transcripts/S07E17.csv,how's your coffee?
transcripts/S07E17.csv,very nice.
transcripts/S07E17.csv,"marty, we have no reason to be uncomfortable. we're  two consenting adults."
transcripts/S07E17.csv,"stan loved you martin, and he loved me. if anything, he's up  in heaven right now, watching us and smiling."
transcripts/S07E17.csv,"not if heaven gets espn! now, stop feeling  guilty."
transcripts/S07E17.csv,thank you.
transcripts/S07E17.csv,"you know, marty, i think we better go."
transcripts/S07E17.csv,"oh, oh, it's no trouble at all. i was headed out to church  this morning... and i thought, ""oh, marty's right on the  way."""
transcripts/S07E17.csv,"oh, martin, we have done nothing wrong. i mean, maybe we were  a little impetuous, but that's no crime."
transcripts/S07E17.csv,"yes, he does make very good chili!"
transcripts/S07E17.csv,we just slept together.
transcripts/S07E17.csv,"it's a pleasure to meet you. martin, i really have  to be getting to church."
transcripts/S07E17.csv,"thank you, thank you."
transcripts/S05E10.csv,daphne!
transcripts/S05E10.csv,i'm engaged!
transcripts/S05E10.csv,"well, my old boyfriend, bob, surprised me two nights ago.  you gotta meet him, he's right over there."
transcripts/S05E10.csv,he even brought someone you might be interested in.
transcripts/S05E10.csv,"coming, pookie."
transcripts/S05E10.csv,i think that steven likes you!
transcripts/S05E10.csv,i noticed you didn't rush to correct him.
transcripts/S05E10.csv,"i'm surprised you even brought your boss down here, i couldn't never relax around mine. what if he took a liking  to the place?"
transcripts/S07E17.csv,how's your coffee?
transcripts/S07E17.csv,very nice.
transcripts/S07E17.csv,"marty, we have no reason to be uncomfortable. we're  two consenting adults."
transcripts/S07E17.csv,"stan loved you martin, and he loved me. if anything, he's up  in heaven right now, watching us and smiling."
transcripts/S07E17.csv,"not if heaven gets espn! now, stop feeling  guilty."
transcripts/S07E17.csv,thank you.
transcripts/S07E17.csv,"you know, marty, i think we better go."
transcripts/S07E17.csv,"oh, oh, it's no trouble at all. i was headed out to church  this morning... and i thought, ""oh, marty's right on the  way."""
transcripts/S07E17.csv,"oh, martin, we have done nothing wrong. i mean, maybe we were  a little impetuous, but that's no crime."
transcripts/S07E17.csv,"yes, he does make very good chili!"
transcripts/S07E17.csv,we just slept together.
transcripts/S07E17.csv,"it's a pleasure to meet you. martin, i really have  to be getting to church."
transcripts/S07E17.csv,"thank you, thank you."
transcripts/S05E10.csv,daphne!
transcripts/S05E10.csv,i'm engaged!
transcripts/S05E10.csv,"well, my old boyfriend, bob, surprised me two nights ago.  you gotta meet him, he's right over there."
transcripts/S05E10.csv,he even brought someone you might be interested in.
transcripts/S05E10.csv,"coming, pookie."
transcripts/S05E10.csv,i think that steven likes you!
transcripts/S05E10.csv,i noticed you didn't rush to correct him.
transcripts/S05E10.csv,"i'm surprised you even brought your boss down here, i couldn't never relax around mine. what if he took a liking  to the place?"
transcripts/S07E17.csv,how's your coffee?
transcripts/S07E17.csv,very nice.
transcripts/S07E17.csv,"marty, we have no reason to be uncomfortable. we're  two consenting adults."
transcripts/S07E17.csv,"stan loved you martin, and he loved me. if anything, he's up  in heaven right now, watching us and smiling."
transcripts/S07E17.csv,"not if heaven gets espn! now, stop feeling  guilty."
transcripts/S07E17.csv,thank you.
transcripts/S07E17.csv,"you know, marty, i think we better go."
transcripts/S07E17.csv,"oh, oh, it's no trouble at all. i was headed out to church  this morning... and i thought, ""oh, marty's right on the  way."""
transcripts/S07E17.csv,"oh, martin, we have done nothing wrong. i mean, maybe we were  a little impetuous, but that's no crime."
transcripts/S07E17.csv,"yes, he does make very good chili!"
transcripts/S07E17.csv,we just slept together.
transcripts/S07E17.csv,"it's a pleasure to meet you. martin, i really have  to be getting to church."
transcripts/S07E17.csv,"thank you, thank you."
