transcripts/S06E08.csv,"don't mind sebastian, he's just afraid you'll outshine  his geisha party."
transcripts/S06E08.csv,"oh, well. just the man i wanted to meet."
transcripts/S06E08.csv,"well, now we don't have to talk all business. but i do  want to mention that we may be replacing one of our  nationally syndicated hosts, the happy traveler."
transcripts/S06E08.csv,"not well. unless they get more realistic with those  ransom demands, he's never coming out of that jungle."
transcripts/S06E08.csv,"yes, there are."
transcripts/S06E08.csv,what's that on the beach?
transcripts/S06E08.csv,"niles, there seems to be something with feathers flashing  at us."
transcripts/S06E08.csv,does anyone else smell something?
transcripts/S06E08.csv,i've listened to your show. and what impressed me most  is your ability to focus.
transcripts/S06E08.csv,"i must say, i was wondering myself when we'd be eating.  it's getting late."
transcripts/S06E08.csv,you mean he's not with you?
transcripts/S06E08.csv,"well, you'd be in ninety-three markets..."
transcripts/S06E08.csv,"oh, have they started?"
transcripts/S06E08.csv,can't we see them better outside?
transcripts/S06E08.csv,what?
transcripts/S06E08.csv,you dumped a body overboard?
transcripts/S06E08.csv,what?
transcripts/S06E08.csv,you killed a seal?
transcripts/S06E08.csv,"don't mind sebastian, he's just afraid you'll outshine  his geisha party."
transcripts/S06E08.csv,"oh, well. just the man i wanted to meet."
transcripts/S06E08.csv,"well, now we don't have to talk all business. but i do  want to mention that we may be replacing one of our  nationally syndicated hosts, the happy traveler."
transcripts/S06E08.csv,"not well. unless they get more realistic with those  ransom demands, he's never coming out of that jungle."
transcripts/S06E08.csv,"yes, there are."
transcripts/S06E08.csv,what's that on the beach?
transcripts/S06E08.csv,"niles, there seems to be something with feathers flashing  at us."
transcripts/S06E08.csv,does anyone else smell something?
transcripts/S06E08.csv,i've listened to your show. and what impressed me most  is your ability to focus.
transcripts/S06E08.csv,"i must say, i was wondering myself when we'd be eating.  it's getting late."
transcripts/S06E08.csv,you mean he's not with you?
transcripts/S06E08.csv,"well, you'd be in ninety-three markets..."
transcripts/S06E08.csv,"oh, have they started?"
transcripts/S06E08.csv,can't we see them better outside?
transcripts/S06E08.csv,what?
transcripts/S06E08.csv,you dumped a body overboard?
transcripts/S06E08.csv,what?
transcripts/S06E08.csv,you killed a seal?
transcripts/S06E08.csv,"don't mind sebastian, he's just afraid you'll outshine  his geisha party."
transcripts/S06E08.csv,"oh, well. just the man i wanted to meet."
transcripts/S06E08.csv,"well, now we don't have to talk all business. but i do  want to mention that we may be replacing one of our  nationally syndicated hosts, the happy traveler."
transcripts/S06E08.csv,"not well. unless they get more realistic with those  ransom demands, he's never coming out of that jungle."
transcripts/S06E08.csv,"yes, there are."
transcripts/S06E08.csv,what's that on the beach?
transcripts/S06E08.csv,"niles, there seems to be something with feathers flashing  at us."
transcripts/S06E08.csv,does anyone else smell something?
transcripts/S06E08.csv,i've listened to your show. and what impressed me most  is your ability to focus.
transcripts/S06E08.csv,"i must say, i was wondering myself when we'd be eating.  it's getting late."
transcripts/S06E08.csv,you mean he's not with you?
transcripts/S06E08.csv,"well, you'd be in ninety-three markets..."
transcripts/S06E08.csv,"oh, have they started?"
transcripts/S06E08.csv,can't we see them better outside?
transcripts/S06E08.csv,what?
transcripts/S06E08.csv,you dumped a body overboard?
transcripts/S06E08.csv,what?
transcripts/S06E08.csv,you killed a seal?
