transcripts/S10E08.csv,"i think so, let me check."
transcripts/S10E08.csv,can i help you?
transcripts/S10E08.csv,is this your first child?
transcripts/S10E08.csv,i think this is lipstick.
transcripts/S10E08.csv,will fives do?
transcripts/S10E08.csv,i'm sorry. all i've got are fives.
transcripts/S10E08.csv,do i know you?
transcripts/S10E08.csv,are you sure?
transcripts/S10E08.csv,"i think so, let me check."
transcripts/S10E08.csv,can i help you?
transcripts/S10E08.csv,is this your first child?
transcripts/S10E08.csv,i think this is lipstick.
transcripts/S10E08.csv,will fives do?
transcripts/S10E08.csv,i'm sorry. all i've got are fives.
transcripts/S10E08.csv,do i know you?
transcripts/S10E08.csv,are you sure?
transcripts/S10E08.csv,"i think so, let me check."
transcripts/S10E08.csv,can i help you?
transcripts/S10E08.csv,is this your first child?
transcripts/S10E08.csv,i think this is lipstick.
transcripts/S10E08.csv,will fives do?
transcripts/S10E08.csv,i'm sorry. all i've got are fives.
transcripts/S10E08.csv,do i know you?
transcripts/S10E08.csv,are you sure?
