transcripts/S09E18.csv,"""logorrhea"". um, can i have a definition?"
transcripts/S09E18.csv,"l-o-g-o-r-h-e-a, ""logorrhea""."
transcripts/S09E18.csv,"""logorrhea"". um, can i have a definition?"
transcripts/S09E18.csv,"l-o-g-o-r-h-e-a, ""logorrhea""."
transcripts/S09E18.csv,"""logorrhea"". um, can i have a definition?"
transcripts/S09E18.csv,"l-o-g-o-r-h-e-a, ""logorrhea""."
