transcripts/S07E02.csv,"excuse me, do you know where dr. crane lives?"
transcripts/S07E02.csv,i'm dropping off this bridesmaid dress.
transcripts/S07E02.csv,"excuse me, do you know where dr. crane lives?"
transcripts/S07E02.csv,i'm dropping off this bridesmaid dress.
transcripts/S07E02.csv,"excuse me, do you know where dr. crane lives?"
transcripts/S07E02.csv,i'm dropping off this bridesmaid dress.
