transcripts/S10E07.csv,i'm afraid so.
transcripts/S10E07.csv,there is an anomaly in your ekg. i'm gonna have to check you into the hospital.
transcripts/S10E07.csv,"no, no. niles? you need to go right now."
transcripts/S10E08.csv,i'm afraid your wife's x-rays don't look good.
transcripts/S11E13.csv,"so, how's that cast feeling?"
transcripts/S11E13.csv,uh oh.
transcripts/S11E13.csv,"no, no it's nothing. the bulb burned out. now, let's find you a pair of crutches."
transcripts/S11E16.csv,dr. crane?
transcripts/S11E16.csv,your father's doing well. he appears to have suffered a mild cardiac event.
transcripts/S11E16.csv,"well, basically it's a warning. he'll need to change his  diet, start exercising. anyway, he should be able to go home tomorrow."
transcripts/S11E24.csv,"frasier, it's dr. hanning. i'm really  sorry about your results. i know it doesn't look good but,  um, i'm going to do everything i can for you. call me."
transcripts/S10E07.csv,i'm afraid so.
transcripts/S10E07.csv,there is an anomaly in your ekg. i'm gonna have to check you into the hospital.
transcripts/S10E07.csv,"no, no. niles? you need to go right now."
transcripts/S10E08.csv,i'm afraid your wife's x-rays don't look good.
transcripts/S11E13.csv,"so, how's that cast feeling?"
transcripts/S11E13.csv,uh oh.
transcripts/S11E13.csv,"no, no it's nothing. the bulb burned out. now, let's find you a pair of crutches."
transcripts/S11E16.csv,dr. crane?
transcripts/S11E16.csv,your father's doing well. he appears to have suffered a mild cardiac event.
transcripts/S11E16.csv,"well, basically it's a warning. he'll need to change his  diet, start exercising. anyway, he should be able to go home tomorrow."
transcripts/S11E24.csv,"frasier, it's dr. hanning. i'm really  sorry about your results. i know it doesn't look good but,  um, i'm going to do everything i can for you. call me."
transcripts/S10E07.csv,i'm afraid so.
transcripts/S10E07.csv,there is an anomaly in your ekg. i'm gonna have to check you into the hospital.
transcripts/S10E07.csv,"no, no. niles? you need to go right now."
transcripts/S10E08.csv,i'm afraid your wife's x-rays don't look good.
transcripts/S11E13.csv,"so, how's that cast feeling?"
transcripts/S11E13.csv,uh oh.
transcripts/S11E13.csv,"no, no it's nothing. the bulb burned out. now, let's find you a pair of crutches."
transcripts/S11E16.csv,dr. crane?
transcripts/S11E16.csv,your father's doing well. he appears to have suffered a mild cardiac event.
transcripts/S11E16.csv,"well, basically it's a warning. he'll need to change his  diet, start exercising. anyway, he should be able to go home tomorrow."
transcripts/S11E24.csv,"frasier, it's dr. hanning. i'm really  sorry about your results. i know it doesn't look good but,  um, i'm going to do everything i can for you. call me."
