transcripts/S06E15.csv,"whoa! hey, how you doing? donny douglas. how are ya,  who's who?"
transcripts/S06E15.csv,you're frasier crane—
transcripts/S06E15.csv,"oh, you're niles crane. frasier crane?  you're roz's buddy, aren't you?"
transcripts/S06E15.csv,"oh, you got to do me a favor, o.k.? tell roz, finally i had  my teeth capped. see?"
transcripts/S06E15.csv,promise you won't forget?
transcripts/S06E15.csv,"ok. now i got to be in court in about, uh, twenty minutes,  so sit down, let's get started."
transcripts/S06E15.csv,"maria, i need my gray suit for court! come on, come  on, come on!"
transcripts/S06E15.csv,"yeah, and maria, could you just cancel that four o'clock of  mine? and  can you also put joe silva on my call sheet? i'm  listening, i'm listening, come on, come on, come on!"
transcripts/S06E15.csv,"maria! you're the best, thank you so much, cool. what, what? come on, come on, let's go! what?"
transcripts/S06E15.csv,"oh, don't worry, maria has that effect on men all the time."
transcripts/S06E15.csv,"oh, my god."
transcripts/S06E15.csv,"this is the best corned beef i have ever tasted. you've got  to have a bite of this. here. come on, it's got spicy  mustard!"
transcripts/S06E15.csv,how about you?
transcripts/S06E15.csv,"no, no, uh-uh! i got the gist. your wife was doing your  shrink, and now she's trying to bleed you with a long pre- trial. i get it. who's her lawyer?"
transcripts/S06E15.csv,"maria, get me lockhart! or whalen."
transcripts/S06E15.csv,"yeah. listen, could we just cut through the formalities here?"
transcripts/S06E15.csv,"niles, what you need is a guy like me representing you.  what you're in here is a street fight, and you got to know  who's covering your back. so, what i guarantee you is this:"
transcripts/S06E15.csv,"you will never see me unprepared, you will never see me  intimidated, and you will never, ever see me throw in the  towel! you understand?"
transcripts/S06E15.csv,"ok, thank you!"
transcripts/S06E15.csv,"whalen! donny douglas here, i'm calling about niles crane.  yeah..."
transcripts/S06E15.csv,"...facing a counter-suit for deliberate infliction of pain  and emotional distress. what, you don't think i can win?  you call york & mcfaddon. you see what those bastards had  to pay for trying to pull this same crap on a client of mine!"
transcripts/S06E15.csv,"yeah, we're talking big numbers here, whalen! you haven't  seen so many zeroes lined up since mr. spock had a book  signing! you got to hear this, come  here, come here!"
transcripts/S06E15.csv,yeah?
transcripts/S06E15.csv,"that's exactly what that means. and whalen, i'll be in touch  about a discovery schedule. have a nice day!"
transcripts/S06E15.csv,"now they're probably going to get rolling sometime this week  with depositions. so, you know, pick a day, we'll get  together, i will prepare you! but it's going to be very  low-key, very casual, you know, over dinner, something like  that."
transcripts/S06E15.csv,o.k.
transcripts/S06E15.csv,yeah?
transcripts/S06E15.csv,"oh, oh, jeez, was that there the whole time? that's so embarrassing!"
transcripts/S06E15.csv,"and so your answer would be, ""yes, i attended  their wedding."" once again, frasier, could you try to keep  your answers brief?"
transcripts/S06E15.csv,"oh, they like to question friends and family first so they  can get as much ""information"" as they can to try and catch  niles out in a lie. now, look, they're also going to allege  that during the separation, niles was wasteful with money."
transcripts/S06E15.csv,mmm-hmm.
transcripts/S06E15.csv,"anyway, look, frasier, they might ask you if you witnessed  any examples of niles throwing money around, and your answer  would be..."
transcripts/S06E15.csv,"no, no, no! the answer is, ""not to the best  of my recollection!"""
transcripts/S06E15.csv,"oh, please, not this again."
transcripts/S06E15.csv,"oh, great."
transcripts/S06E15.csv,"no, thank you, daphne. i think i'm just about done here.  in fact, i've got a conference call back at the office.  i'm just going to check to see if that's still happening.  frasier, why don't you see if there's any more questions in  there we haven't done yet, all right?"
transcripts/S06E15.csv,"you're kidding! no, really, well, based on what?  oh, please."
transcripts/S06E15.csv,"no, it's ok. yeah, no, thank you, thank you,  maria, no. maris's lawyers, they kill me.  i mean, all week long it's been one desperate ploy after  another. this one, this is the best one yet!"
transcripts/S06E15.csv,"oh, now they're claiming ""alienation of affection."""
transcripts/S06E15.csv,"yeah, believe it or not, now they're saying that during the  marriage, niles was in love with another woman."
transcripts/S06E15.csv,"oh, you."
transcripts/S06E15.csv,"oh, something about a country club ball the two of you  attended a few years back."
transcripts/S06E15.csv,"yeah. you caused quite a stir on the dance floor, or  something?"
transcripts/S06E15.csv,"you must have been very convincing, because they're going to  subpoena you for deposition. now, look, you know, we can  just call their bluff right away. you can come tomorrow  morning with frasier."
transcripts/S06E15.csv,"ok, great. now listen, daphne, i'm gonna have to prepare  you for this, 'cause lawyers, they can twist your words  around. they get a judge to buy it, because of the pre-nup,  maris can really stick it to niles. but i've got this  conference call at the office—"
transcripts/S06E15.csv,"oh, great! we'll get it done in about an hour."
transcripts/S06E15.csv,"now, frasier, i hope you realize they are going to ask you  about this business too."
transcripts/S06E15.csv,"yes, but don't worry. this is one time when your compulsive  truth-telling won't get us into any trouble. bye."
transcripts/S06E15.csv,"ok, frasier — oh, niles! ok, good. frasier, they're just  about ready for you. wait for me outside the conference  room, will you? and don't go in without me. i want a word  alone with your brother here."
transcripts/S06E15.csv,"wait for me. right, niles, i'm  really glad you're here, there's something i really want to  talk to you about."
transcripts/S06E15.csv,"no, me first. now, the only way this relationship is going to  work, niles, is if we're completely honest with each other."
transcripts/S06E15.csv,"well, i've been doing a little digging. i've been finding out  you've been holding out on me."
transcripts/S06E15.csv,"well, why didn't you tell me that's where maris's money came  from?"
transcripts/S06E15.csv,"yeah, i mean you told me that maris's family money came from  ""timber?"""
transcripts/S06E15.csv,"oh, that's what you really think."
transcripts/S06E15.csv,and that's what all of maris's friends think too? all those  country club snobs who would kill for a good piece of dirt on  someone?
transcripts/S06E15.csv,"yes, i think we now have what's known in the legal profession  as a bargaining chip!"
transcripts/S06E15.csv,"all right, let me go talk to maris's lawyers."
transcripts/S06E15.csv,absolutely.
transcripts/S06E15.csv,"oh, hello!/hi."
transcripts/S06E15.csv,"oh well, you know, we talked—"
transcripts/S06E15.csv,we got a little hungry—
transcripts/S06E15.csv,too much wine—
transcripts/S06E15.csv,and we laughed a little—
transcripts/S06E15.csv,"i know. you know, frasier, if you hadn't brought niles to  the office, then, ah, none of this would have happened. i  guess i owe you one."
transcripts/S06E15.csv,that scent is wonderful. what is it?
transcripts/S06E16.csv,"oh daphne, please don't..."
transcripts/S06E16.csv,"i was only a little afraid that somebody would find it before  we got there, but fortunately - untouched."
transcripts/S06E16.csv,"hey, tiger. look what i've got for you. think fast."
transcripts/S06E16.csv,"your ex-wife's lakefront cottage, now your lakefront cottage.  a little something i hammered out for you in the settlement."
transcripts/S06E16.csv,"hi, there."
transcripts/S06E16.csv,"well, thanks for inviting me. wow, this is a great place to get some work done, with no distractions in  sight. thank-"
transcripts/S06E16.csv,roz! how the hell are you? hi!
transcripts/S06E16.csv,"i didn't know you were going to be here. well, this is  going to be fun. now, niles, i've got to put these things  somewhere..."
transcripts/S06E16.csv,"roz, you've got a baby? congratulations! that  means that you're..."
transcripts/S06E16.csv,"well, i'll try to be quiet."
transcripts/S06E16.csv,"roz, i swear i did not wake her, she was already up when i went in to look at her. she's got such a sweet little face."
transcripts/S06E16.csv,"hi alice, i'm donny."
transcripts/S06E16.csv,"oh, i've always been pretty good with kids. come  on, sweetie, come on."
transcripts/S06E16.csv,i left some papers in the car.
transcripts/S06E16.csv,out back!
transcripts/S06E16.csv,i already came in that way.
transcripts/S06E16.csv,what about that time in cancun when the car breaks down and  that guy gives us a ride on-
transcripts/S06E16.csv,"oh niles, you have to hear this... oh god, i didn't realize it had gotten so late. i have to fax  these contracts to the office right away. you wouldn't happen  to have a machine, would you?"
transcripts/S06E16.csv,"you're right, it can wait. you know what we need? another bottle of wine, i brought one, i'll get it."
transcripts/S06E16.csv,"ok, i've got a..."
transcripts/S06E16.csv,"alice, it's ok, honey!"
transcripts/S06E16.csv,"that's why the door was stuck. you two, why didn't you tell me?"
transcripts/S06E16.csv,daphne?
transcripts/S06E16.csv,"well, niles invited me."
transcripts/S06E16.csv,"yeah, it was really nice of him. roz and i had a chance to catch up on old times."
transcripts/S06E16.csv,"oh come on, are you kidding?"
transcripts/S06E16.csv,really?
transcripts/S06E16.csv,"yes, yes."
transcripts/S06E22.csv,"hey, frasier. is daphne ready?"
transcripts/S06E22.csv,"oh, good, good. oh, what's that you're drinking there?"
transcripts/S06E22.csv,"oh. yeah, i'll have one."
transcripts/S06E22.csv,"well, actually i've cut down on my caseload. i want to spend  more time with daphne. don't tell her this but i've booked  us on an alaskan vacation next month. i guess it's one of  the few places left where you can feel completely alone."
transcripts/S06E22.csv,"hi, honey."
transcripts/S06E22.csv,"well actually, i've got something on my mind that i'd kinda  like to talk about first..."
transcripts/S06E22.csv,"no, no, i'd like you to stay here for this. if it wasn't for  you then i never would have met daphne..."
transcripts/S06E22.csv,it's okay. sit!
transcripts/S06E22.csv,"you know, i thought that being a divorce attorney would have  just soured me on relationships... and then i met you. and  i found myself telling my clients to reconcile, because i  think that if they could find even just a tiny little bit of  the happiness that i've found with you they could make it.  i've been thinking about that time we went to the little bed- and-breakfast in the country and we sat in that porch swing  all night. when i looked at the sky, you told me  your dad and you used to sit on your step and do the same  thing when you were a kid. he said that the only man good  enough for you would ""scoop the stars out of the sky with  his hat and lay them at your feet."" well... i've only caught this one so far. but if you'll accept it,  i'll spend my life chasing down the rest of them for you."
transcripts/S06E22.csv,"i know it's very soon, so just think about it."
transcripts/S06E22.csv,"boys, give me a break: you look more surprised than i do."
transcripts/S06E22.csv,"hey, don't squeeze so hard! that's a precious commodity right  there: my number one client!"
transcripts/S06E23.csv,good morning!
transcripts/S06E23.csv,"well, we planned on going to my place, but we ended up going  to a little piano bar just around the corner from here."
transcripts/S06E23.csv,"hi, i'm donny douglas, and i'm... in love."
transcripts/S06E23.csv,"you know, i'm kind of glad this worked out the way it did.  neither daphne nor i has any family here in seattle. you  know what i'd like to do? i'd like to make this our  engagement breakfast."
transcripts/S06E23.csv,surrounded by friends who treat us like family. and i'd like  to dedicate it to the woman who's filled my life with a joy i  never thought i'd find.
transcripts/S06E23.csv,"oh, it's almost finished. ""so though  you are graduating today, your learning has just begun-"" there's something under the cushions  back here."
transcripts/S06E23.csv,"oh, it's a cell phone."
transcripts/S06E23.csv,is this frasier's?
transcripts/S06E23.csv,"hey, frasier."
transcripts/S06E23.csv,"no, your timing's perfect, actually. one eggroll left."
transcripts/S06E23.csv,nice hands.
transcripts/S06E23.csv,"oh, thanks. isn't she great? takes me on a three  mile run and then feeds me diet soda. i thought i'd hate healthy living, but you know, it ain't so  bad."
transcripts/S06E23.csv,"oh, i'll just be a second here. i just have to check up on a case i'm finishing. poor bastard, i'm really taking him  to the cleaners."
transcripts/S06E23.csv,"you're negligent, pal! you're criminally irresponsible, you were careless, and you're going to pay  for it! yeah! here you go, boss."
transcripts/S06E23.csv,"hey, daph?"
transcripts/S06E23.csv,what are you doing?
transcripts/S06E23.csv,"oh. listen, unfortunately i'm going to have to work late.  i'm going to just pop in the shower and then i'll have to  leave."
transcripts/S06E23.csv,"oh, that's okay. absence just makes the heart grow fonder."
transcripts/S06E24.csv,"good morning, everybody! another full house, i see."
transcripts/S06E24.csv,"hi. oh, you found your ring!"
transcripts/S06E24.csv,"well, daphne, when your fiancée gives you a hug with a chicken  on her hand, then bells go off."
transcripts/S06E24.csv,"oh, that's okay, honey. you know, i didn't want  to say anything because i knew it would turn up sooner or  later, and i didn't want to make you feel worse."
transcripts/S06E24.csv,"i'm sorry, frasier. i guess after a little champagne we got  into the mood, and into the nude, and into the tub. but don't  worry, we'll replace the candle."
transcripts/S06E24.csv,"actually, we tried, but the knob was stuck."
transcripts/S07E02.csv,"any idiot knows you've got to pay a hooker in cash! i'm at a  meeting, i'll call you later, bye. i've got this client, he's in the middle of a divorce,  right, and his wife finds all these charges from this place  called ""executive match."" it turns out to be a call girl  service. when she gets through with him she'll have his  house, his car, she'd have his beach house too if i hadn't  already taken it. women!"
transcripts/S07E02.csv,"hi, honey."
transcripts/S07E02.csv,told me what?
transcripts/S07E02.csv,is this a joke?
transcripts/S07E02.csv,"i mean, it's one thing for us to let your family pay, they're  your parents, it's traditional. but this is..."
transcripts/S07E02.csv,"wait, wait, wait, what am i doing? here you guys, you're  making this lovely gesture and i'm just insulting you. i mean  if you guys are not family to daphne, then who is? course you  can pay for the wedding. thank you, thank you."
transcripts/S07E02.csv,"no, don't start with the water works because you're going to  get me going. what's this? jerky? can i  have some of that?"
transcripts/S07E02.csv,made from filet mignon. how much did this stuff  set you back?
transcripts/S07E11.csv,"don't be nervous, honey."
transcripts/S07E11.csv,"bring it home, daphne!"
transcripts/S07E11.csv,"daphne moon, everybody! we'll take your requests."
transcripts/S07E11.csv,didn't the invitation say it was for seven o'clock?
transcripts/S07E11.csv,"oh, no, i'm so sorry. how long were you guys together?"
transcripts/S07E11.csv,did you talk about moving in together? make any long term  plans?
transcripts/S07E11.csv,"the bartender, actually. i was just wondering how big a drink  to make you."
transcripts/S07E11.csv,"don't worry, niles. we'll fix you up with somebody."
transcripts/S07E11.csv,"someone old, then. you know, an old flame, an ex-girlfriend,  someone who got away. huh? come on  niles, there must be somebody you had your eye on before mel."
transcripts/S07E11.csv,"what? i was just trying to help, honey! you see, niles, it's  not us, it's the holidays. it makes women crazy!"
transcripts/S07E11.csv,"oh, that's what that was. some big sign in the lobby, it said  ""winston party 2000."""
transcripts/S07E11.csv,yeah?
transcripts/S07E11.csv,"okay, i'll try."
transcripts/S07E11.csv,"okay, marty, how did you get these people down here?"
transcripts/S07E11.csv,"oh, that is smart. but aren't there going to be the same  number of people down here?"
transcripts/S07E18.csv,"i know! i couldn't believe the weight of that thing! well, it's grizzly crane!"
transcripts/S07E18.csv,"oh, we just saw a hell of a tractor pull. even you would  have liked it."
transcripts/S07E18.csv,where's daphne?  i got this little gift for her.
transcripts/S07E18.csv,"oh no, i'm just giving it to her to see her pretend to like  it. then i'm gonna give her a bracelet."
transcripts/S07E18.csv,"oh, will you give me a break? all right, all right! my surveillance guy just cancelled for  tonight, just when i need him for this big money divorce  case."
transcripts/S07E18.csv,"yeah, the dumpster rental king. this guy controls half the  dumpsters in the northwest, his wife thinks he's been taking  out the wrong kind of trash. you know, if i can prove it,  this case is mine."
transcripts/S07E18.csv,"yeah, but you should see this girlfriend: leggy, blonde..."
transcripts/S07E18.csv,"hey, wait a minute. marty? you were a cop, right? you  must've done surveillance."
transcripts/S07E18.csv,"well, why don't you work for me tonight? it's forty-five  bucks an hour."
transcripts/S07E18.csv,"all right, fifty. but if you get a picture of redmond and  the girl, then it's a five hundred dollar bonus."
transcripts/S07E18.csv,"all right, seven hundred, you're killing me."
transcripts/S07E18.csv,"it's at the alcazar apartments. you know, in belltown."
transcripts/S07E18.csv,"no, that's all right. i'm sure i'll find somebody else. you're  still doing it, right?"
transcripts/S07E20.csv,"look, please, you're my last chance, vinny's already... no,  i understand, i understand, don't worry about it, bye."
transcripts/S07E20.csv,"yeah, it's my bachelor party, my best man can't arrange it  and i'm having a hell of a time trying to find somebody to  fill in."
transcripts/S07E20.csv,"oh. no, no, no, no, i don't think so, it's okay,  i just don't want to impose..."
transcripts/S07E20.csv,"no, no, no, no! it'll be fine, but thanks for the  offer, though. frasier, i don't think  we're talking about the same kind of party."
transcripts/S07E20.csv,"honey, if your head hurts, you don't have to go."
transcripts/S07E20.csv,...nice low-key party just like my honey  bunny insisted.
transcripts/S07E20.csv,"oh, that'd be swell."
transcripts/S07E22.csv,"welcome to your shower, honey. oh my god, you're trembling."
transcripts/S07E22.csv,"we may have an even bigger surprise for you later on, but  first things first: let's get you some champagne."
transcripts/S07E22.csv,"oh, holly, it's not your fault, i should have been more  radiant."
transcripts/S07E22.csv,"daphne, your big surprise has arrived. this is someone that  i know you are dying to see."
transcripts/S07E22.csv,"no, not till next week."
transcripts/S07E22.csv,"no, someone good."
transcripts/S07E22.csv,your favorite brother!
transcripts/S07E22.csv,ste... no.
transcripts/S07E22.csv,em...
transcripts/S07E22.csv,well...
transcripts/S07E22.csv,"oh boy, i really screwed up, didn't i?"
transcripts/S07E22.csv,yes.
transcripts/S07E22.csv,"i know, i know, i know, i got the names mixed  up, but you have mentioned simon too."
transcripts/S07E22.csv,hi.
transcripts/S07E22.csv,"my mom and dad. i was picking them up at the airport, they  couldn't wait to meet daphne. this is simon, daphne's  brother."
transcripts/S07E22.csv,"honey, honey! mom, dad, er,  this is my fiancée, daphne."
transcripts/S07E22.csv,we wanted to surprise you.
transcripts/S07E22.csv,"come on, honey, you've looked worse."
transcripts/S07E22.csv,"welcome to your shower, honey. oh my god, you're trembling."
transcripts/S07E24.csv,"so, i thought we'd have the toast right before desert."
transcripts/S07E24.csv,"anybody else want something from the bar? uh, scotch, rocks."
transcripts/S07E24.csv,isn't that when your mom said she'd be here?
transcripts/S07E24.csv,"come on roz, let's go."
transcripts/S07E24.csv,"oh, is this mum?"
transcripts/S07E24.csv,hi!
transcripts/S07E24.csv,"boy, daphne's brothers know how to let loose, don't they?"
transcripts/S07E24.csv,"no, no, that's peter. nigel's the one whose band-aid he ate.  see you later."
transcripts/S07E24.csv,mind if we join you guys?
transcripts/S07E24.csv,"you know, seeing as how this is my last night as a carefree  bachelor, would you care to dance, miss?"
transcripts/S07E24.csv,"excuse me, sir. mind if i cut in?"
transcripts/S07E24.csv,thank you.
transcripts/S07E24.csv,"hey, doc. things are getting a little too wild for us down  there."
transcripts/S07E24.csv,"yeah, you go ahead. i'm just gonna get out of these shoes  and i'll see you in a few minutes."
transcripts/S07E24.csv,what's the difference  between a blister and a boil?
transcripts/S07E24.csv,"god, i took my shoe off and it was like i was growing another  ankle bone down here. doc, you went to med school, what am i  supposed to do with this? lance it or something?"
transcripts/S07E24.csv,all right. what luck! can you imagine a worse thing to  have happen to me on the night before my wedding?
transcripts/S08E01.csv,"hi, fras."
transcripts/S08E01.csv,ok.
transcripts/S08E01.csv,"well, we can't see you either."
transcripts/S08E01.csv,"oh, that's right, you haven't met my little friend."
transcripts/S08E01.csv,"you remember him? from the top of the wedding cake? i call  him ""mr. chump."" say hello to mr. chump."
transcripts/S08E01.csv,i said say hello!
transcripts/S08E01.csv,"oh, yeah. i wasn't feeling very well yesterday, but the  doctor gave me a few pills and i'm feeling much better now. so, what can i do for you?"
transcripts/S08E01.csv,aren't you forgetting someone?
transcripts/S08E01.csv,well...
transcripts/S08E01.csv,it's not?
transcripts/S08E01.csv,"i'm a lawyer, it's my natural impulse. oh, you know, maybe i am being too hard on daphne. in all fairness, she's not totally to blame."
transcripts/S08E01.csv,you? i was talking about me.
transcripts/S08E01.csv,"no, wait, wait, wait, wait...just a minute. what ""minor part""  did you play?"
transcripts/S08E01.csv,you did this on my wedding day?
transcripts/S08E01.csv,"oh, yeah. i'm gonna hit you. i'm gonna hit you with tortious  interference and intentional and negligent infliction of  emotional distress. in layman's terms: i'm gonna sue your ass  off!"
transcripts/S08E01.csv,that's right. that's why i'm suing her for breach of contract!
transcripts/S08E01.csv,"actually, i'm feeling a lot better, thank you frasier. suing you is just the tonic i needed. you know what else? i'm starving. i haven't eaten in twenty-four hours. i'd ask you to join me, but, uh, you should be saving your money. turn  out the lights when you leave. oh, by the way, fras. who's  mr. chump now?"
transcripts/S08E06.csv,"hi, guys."
transcripts/S08E06.csv,daphne.
transcripts/S08E06.csv,niles.
transcripts/S08E06.csv,"look, i realize you guys must be celebrating, but do you have to start a bonfire?"
transcripts/S08E06.csv,"look, i know this is a little awkward, but i understand, don't worry. in fact, i'm celebrating something myself."
transcripts/S08E06.csv,"no. i, uh, i got engaged."
transcripts/S08E06.csv,"thank you. in fact, she's sitting right over there."
transcripts/S08E06.csv,"wave, nancy. show 'em the rock."
transcripts/S08E06.csv,"thank you. i was representing her in her divorce and we realized that we were... perfect... for each other. and,  i know it's very sudden, but that's fate for you, huh?"
transcripts/S08E06.csv,"thanks. i should get back to nancy, and you guys enjoy your dinner. and, incidentally, the fire exits are located there and there."
transcripts/S08E06.csv,"oh, you have the rings?"
transcripts/S08E06.csv,"well, gee, yeah. i'm excited. i can't believe nancy's gonna be my wife after all these... weeks."
transcripts/S08E06.csv,ok.
transcripts/S08E06.csv,"daphne, what are you doing here?"
transcripts/S08E06.csv,"actually, this is not a good time."
transcripts/S08E06.csv,"ok, this is about nancy?"
transcripts/S08E06.csv,"uh, look, daphne..."
transcripts/S08E06.csv,"i'll meet you inside. i'll be one second, all right?"
transcripts/S08E06.csv,"not really. if you hang around a few minutes, i'm sure we can get you on the wedding video."
transcripts/S08E06.csv,"well, call me crazy, but i've got a prejudice against long engagements."
transcripts/S08E06.csv,mom.
transcripts/S08E06.csv,mom.
transcripts/S08E06.csv,"mom, mom."
transcripts/S08E06.csv,"mom, mom, she knows, she knows."
transcripts/S08E06.csv,"look, daphne, i don't mean to rush you, but is there anything else?"
transcripts/S08E06.csv,"well, daphne, if it puts your mind at ease, i know what i'm doing. i'm happy, i'm ready to go on with my life. so..."
transcripts/S08E06.csv,"yeah, i know. i'm... goodbye."
transcripts/S08E06.csv,"thank you, daphne."
transcripts/S10E01.csv,"wait a minute, daph... is that daphne?"
transcripts/S10E01.csv,hey.
transcripts/S10E01.csv,"everybody. boy, i hope this isn't uncomfortable."
transcripts/S10E01.csv,"well, niles, daphne, i'd like you to meet bridgett, my fiancee."
transcripts/S10E01.csv,"thank you. i know that i was getting married the last time you ran into me, but this time i found the real thing."
transcripts/S10E01.csv,"yeah. you know, if you hadn't left me i never would have met my ex-wife who introduced me to bridgett, so, in a weird way, you played a big part  in my eventual happiness."
transcripts/S10E01.csv,"i think so too. so, what are you guys doing here?"
transcripts/S10E01.csv,"well, congratulations. that is great."
transcripts/S10E01.csv,"well, it's great. it's nice seeing you and i hope you'll come to our wedding."
transcripts/S10E01.csv,really? you'd be okay with that?
transcripts/S10E01.csv,"yes! i knew it! now you know what it's like to have  the love of your life dump you at the altar! and good luck trying to find somebody as good, because she just ain't out there!"
transcripts/S10E01.csv,what?
transcripts/S10E01.csv,"no, no. bridgett, bridgett!"
transcripts/S06E15.csv,"whoa! hey, how you doing? donny douglas. how are ya,  who's who?"
transcripts/S06E15.csv,you're frasier crane—
transcripts/S06E15.csv,"oh, you're niles crane. frasier crane?  you're roz's buddy, aren't you?"
transcripts/S06E15.csv,"oh, you got to do me a favor, o.k.? tell roz, finally i had  my teeth capped. see?"
transcripts/S06E15.csv,promise you won't forget?
transcripts/S06E15.csv,"ok. now i got to be in court in about, uh, twenty minutes,  so sit down, let's get started."
transcripts/S06E15.csv,"maria, i need my gray suit for court! come on, come  on, come on!"
transcripts/S06E15.csv,"yeah, and maria, could you just cancel that four o'clock of  mine? and  can you also put joe silva on my call sheet? i'm  listening, i'm listening, come on, come on, come on!"
transcripts/S06E15.csv,"maria! you're the best, thank you so much, cool. what, what? come on, come on, let's go! what?"
transcripts/S06E15.csv,"oh, don't worry, maria has that effect on men all the time."
transcripts/S06E15.csv,"oh, my god."
transcripts/S06E15.csv,"this is the best corned beef i have ever tasted. you've got  to have a bite of this. here. come on, it's got spicy  mustard!"
transcripts/S06E15.csv,how about you?
transcripts/S06E15.csv,"no, no, uh-uh! i got the gist. your wife was doing your  shrink, and now she's trying to bleed you with a long pre- trial. i get it. who's her lawyer?"
transcripts/S06E15.csv,"maria, get me lockhart! or whalen."
transcripts/S06E15.csv,"yeah. listen, could we just cut through the formalities here?"
transcripts/S06E15.csv,"niles, what you need is a guy like me representing you.  what you're in here is a street fight, and you got to know  who's covering your back. so, what i guarantee you is this:"
transcripts/S06E15.csv,"you will never see me unprepared, you will never see me  intimidated, and you will never, ever see me throw in the  towel! you understand?"
transcripts/S06E15.csv,"ok, thank you!"
transcripts/S06E15.csv,"whalen! donny douglas here, i'm calling about niles crane.  yeah..."
transcripts/S06E15.csv,"...facing a counter-suit for deliberate infliction of pain  and emotional distress. what, you don't think i can win?  you call york & mcfaddon. you see what those bastards had  to pay for trying to pull this same crap on a client of mine!"
transcripts/S06E15.csv,"yeah, we're talking big numbers here, whalen! you haven't  seen so many zeroes lined up since mr. spock had a book  signing! you got to hear this, come  here, come here!"
transcripts/S06E15.csv,yeah?
transcripts/S06E15.csv,"that's exactly what that means. and whalen, i'll be in touch  about a discovery schedule. have a nice day!"
transcripts/S06E15.csv,"now they're probably going to get rolling sometime this week  with depositions. so, you know, pick a day, we'll get  together, i will prepare you! but it's going to be very  low-key, very casual, you know, over dinner, something like  that."
transcripts/S06E15.csv,o.k.
transcripts/S06E15.csv,yeah?
transcripts/S06E15.csv,"oh, oh, jeez, was that there the whole time? that's so embarrassing!"
transcripts/S06E15.csv,"and so your answer would be, ""yes, i attended  their wedding."" once again, frasier, could you try to keep  your answers brief?"
transcripts/S06E15.csv,"oh, they like to question friends and family first so they  can get as much ""information"" as they can to try and catch  niles out in a lie. now, look, they're also going to allege  that during the separation, niles was wasteful with money."
transcripts/S06E15.csv,mmm-hmm.
transcripts/S06E15.csv,"anyway, look, frasier, they might ask you if you witnessed  any examples of niles throwing money around, and your answer  would be..."
transcripts/S06E15.csv,"no, no, no! the answer is, ""not to the best  of my recollection!"""
transcripts/S06E15.csv,"oh, please, not this again."
transcripts/S06E15.csv,"oh, great."
transcripts/S06E15.csv,"no, thank you, daphne. i think i'm just about done here.  in fact, i've got a conference call back at the office.  i'm just going to check to see if that's still happening.  frasier, why don't you see if there's any more questions in  there we haven't done yet, all right?"
transcripts/S06E15.csv,"you're kidding! no, really, well, based on what?  oh, please."
transcripts/S06E15.csv,"no, it's ok. yeah, no, thank you, thank you,  maria, no. maris's lawyers, they kill me.  i mean, all week long it's been one desperate ploy after  another. this one, this is the best one yet!"
transcripts/S06E15.csv,"oh, now they're claiming ""alienation of affection."""
transcripts/S06E15.csv,"yeah, believe it or not, now they're saying that during the  marriage, niles was in love with another woman."
transcripts/S06E15.csv,"oh, you."
transcripts/S06E15.csv,"oh, something about a country club ball the two of you  attended a few years back."
transcripts/S06E15.csv,"yeah. you caused quite a stir on the dance floor, or  something?"
transcripts/S06E15.csv,"you must have been very convincing, because they're going to  subpoena you for deposition. now, look, you know, we can  just call their bluff right away. you can come tomorrow  morning with frasier."
transcripts/S06E15.csv,"ok, great. now listen, daphne, i'm gonna have to prepare  you for this, 'cause lawyers, they can twist your words  around. they get a judge to buy it, because of the pre-nup,  maris can really stick it to niles. but i've got this  conference call at the office—"
transcripts/S06E15.csv,"oh, great! we'll get it done in about an hour."
transcripts/S06E15.csv,"now, frasier, i hope you realize they are going to ask you  about this business too."
transcripts/S06E15.csv,"yes, but don't worry. this is one time when your compulsive  truth-telling won't get us into any trouble. bye."
transcripts/S06E15.csv,"ok, frasier — oh, niles! ok, good. frasier, they're just  about ready for you. wait for me outside the conference  room, will you? and don't go in without me. i want a word  alone with your brother here."
transcripts/S06E15.csv,"wait for me. right, niles, i'm  really glad you're here, there's something i really want to  talk to you about."
transcripts/S06E15.csv,"no, me first. now, the only way this relationship is going to  work, niles, is if we're completely honest with each other."
transcripts/S06E15.csv,"well, i've been doing a little digging. i've been finding out  you've been holding out on me."
transcripts/S06E15.csv,"well, why didn't you tell me that's where maris's money came  from?"
transcripts/S06E15.csv,"yeah, i mean you told me that maris's family money came from  ""timber?"""
transcripts/S06E15.csv,"oh, that's what you really think."
transcripts/S06E15.csv,and that's what all of maris's friends think too? all those  country club snobs who would kill for a good piece of dirt on  someone?
transcripts/S06E15.csv,"yes, i think we now have what's known in the legal profession  as a bargaining chip!"
transcripts/S06E15.csv,"all right, let me go talk to maris's lawyers."
transcripts/S06E15.csv,absolutely.
transcripts/S06E15.csv,"oh, hello!/hi."
transcripts/S06E15.csv,"oh well, you know, we talked—"
transcripts/S06E15.csv,we got a little hungry—
transcripts/S06E15.csv,too much wine—
transcripts/S06E15.csv,and we laughed a little—
transcripts/S06E15.csv,"i know. you know, frasier, if you hadn't brought niles to  the office, then, ah, none of this would have happened. i  guess i owe you one."
transcripts/S06E15.csv,that scent is wonderful. what is it?
transcripts/S06E16.csv,"oh daphne, please don't..."
transcripts/S06E16.csv,"i was only a little afraid that somebody would find it before  we got there, but fortunately - untouched."
transcripts/S06E16.csv,"hey, tiger. look what i've got for you. think fast."
transcripts/S06E16.csv,"your ex-wife's lakefront cottage, now your lakefront cottage.  a little something i hammered out for you in the settlement."
transcripts/S06E16.csv,"hi, there."
transcripts/S06E16.csv,"well, thanks for inviting me. wow, this is a great place to get some work done, with no distractions in  sight. thank-"
transcripts/S06E16.csv,roz! how the hell are you? hi!
transcripts/S06E16.csv,"i didn't know you were going to be here. well, this is  going to be fun. now, niles, i've got to put these things  somewhere..."
transcripts/S06E16.csv,"roz, you've got a baby? congratulations! that  means that you're..."
transcripts/S06E16.csv,"well, i'll try to be quiet."
transcripts/S06E16.csv,"roz, i swear i did not wake her, she was already up when i went in to look at her. she's got such a sweet little face."
transcripts/S06E16.csv,"hi alice, i'm donny."
transcripts/S06E16.csv,"oh, i've always been pretty good with kids. come  on, sweetie, come on."
transcripts/S06E16.csv,i left some papers in the car.
transcripts/S06E16.csv,out back!
transcripts/S06E16.csv,i already came in that way.
transcripts/S06E16.csv,what about that time in cancun when the car breaks down and  that guy gives us a ride on-
transcripts/S06E16.csv,"oh niles, you have to hear this... oh god, i didn't realize it had gotten so late. i have to fax  these contracts to the office right away. you wouldn't happen  to have a machine, would you?"
transcripts/S06E16.csv,"you're right, it can wait. you know what we need? another bottle of wine, i brought one, i'll get it."
transcripts/S06E16.csv,"ok, i've got a..."
transcripts/S06E16.csv,"alice, it's ok, honey!"
transcripts/S06E16.csv,"that's why the door was stuck. you two, why didn't you tell me?"
transcripts/S06E16.csv,daphne?
transcripts/S06E16.csv,"well, niles invited me."
transcripts/S06E16.csv,"yeah, it was really nice of him. roz and i had a chance to catch up on old times."
transcripts/S06E16.csv,"oh come on, are you kidding?"
transcripts/S06E16.csv,really?
transcripts/S06E16.csv,"yes, yes."
transcripts/S06E22.csv,"hey, frasier. is daphne ready?"
transcripts/S06E22.csv,"oh, good, good. oh, what's that you're drinking there?"
transcripts/S06E22.csv,"oh. yeah, i'll have one."
transcripts/S06E22.csv,"well, actually i've cut down on my caseload. i want to spend  more time with daphne. don't tell her this but i've booked  us on an alaskan vacation next month. i guess it's one of  the few places left where you can feel completely alone."
transcripts/S06E22.csv,"hi, honey."
transcripts/S06E22.csv,"well actually, i've got something on my mind that i'd kinda  like to talk about first..."
transcripts/S06E22.csv,"no, no, i'd like you to stay here for this. if it wasn't for  you then i never would have met daphne..."
transcripts/S06E22.csv,it's okay. sit!
transcripts/S06E22.csv,"you know, i thought that being a divorce attorney would have  just soured me on relationships... and then i met you. and  i found myself telling my clients to reconcile, because i  think that if they could find even just a tiny little bit of  the happiness that i've found with you they could make it.  i've been thinking about that time we went to the little bed- and-breakfast in the country and we sat in that porch swing  all night. when i looked at the sky, you told me  your dad and you used to sit on your step and do the same  thing when you were a kid. he said that the only man good  enough for you would ""scoop the stars out of the sky with  his hat and lay them at your feet."" well... i've only caught this one so far. but if you'll accept it,  i'll spend my life chasing down the rest of them for you."
transcripts/S06E22.csv,"i know it's very soon, so just think about it."
transcripts/S06E22.csv,"boys, give me a break: you look more surprised than i do."
transcripts/S06E22.csv,"hey, don't squeeze so hard! that's a precious commodity right  there: my number one client!"
transcripts/S06E23.csv,good morning!
transcripts/S06E23.csv,"well, we planned on going to my place, but we ended up going  to a little piano bar just around the corner from here."
transcripts/S06E23.csv,"hi, i'm donny douglas, and i'm... in love."
transcripts/S06E23.csv,"you know, i'm kind of glad this worked out the way it did.  neither daphne nor i has any family here in seattle. you  know what i'd like to do? i'd like to make this our  engagement breakfast."
transcripts/S06E23.csv,surrounded by friends who treat us like family. and i'd like  to dedicate it to the woman who's filled my life with a joy i  never thought i'd find.
transcripts/S06E23.csv,"oh, it's almost finished. ""so though  you are graduating today, your learning has just begun-"" there's something under the cushions  back here."
transcripts/S06E23.csv,"oh, it's a cell phone."
transcripts/S06E23.csv,is this frasier's?
transcripts/S06E23.csv,"hey, frasier."
transcripts/S06E23.csv,"no, your timing's perfect, actually. one eggroll left."
transcripts/S06E23.csv,nice hands.
transcripts/S06E23.csv,"oh, thanks. isn't she great? takes me on a three  mile run and then feeds me diet soda. i thought i'd hate healthy living, but you know, it ain't so  bad."
transcripts/S06E23.csv,"oh, i'll just be a second here. i just have to check up on a case i'm finishing. poor bastard, i'm really taking him  to the cleaners."
transcripts/S06E23.csv,"you're negligent, pal! you're criminally irresponsible, you were careless, and you're going to pay  for it! yeah! here you go, boss."
transcripts/S06E23.csv,"hey, daph?"
transcripts/S06E23.csv,what are you doing?
transcripts/S06E23.csv,"oh. listen, unfortunately i'm going to have to work late.  i'm going to just pop in the shower and then i'll have to  leave."
transcripts/S06E23.csv,"oh, that's okay. absence just makes the heart grow fonder."
transcripts/S06E24.csv,"good morning, everybody! another full house, i see."
transcripts/S06E24.csv,"hi. oh, you found your ring!"
transcripts/S06E24.csv,"well, daphne, when your fiancée gives you a hug with a chicken  on her hand, then bells go off."
transcripts/S06E24.csv,"oh, that's okay, honey. you know, i didn't want  to say anything because i knew it would turn up sooner or  later, and i didn't want to make you feel worse."
transcripts/S06E24.csv,"i'm sorry, frasier. i guess after a little champagne we got  into the mood, and into the nude, and into the tub. but don't  worry, we'll replace the candle."
transcripts/S06E24.csv,"actually, we tried, but the knob was stuck."
transcripts/S07E02.csv,"any idiot knows you've got to pay a hooker in cash! i'm at a  meeting, i'll call you later, bye. i've got this client, he's in the middle of a divorce,  right, and his wife finds all these charges from this place  called ""executive match."" it turns out to be a call girl  service. when she gets through with him she'll have his  house, his car, she'd have his beach house too if i hadn't  already taken it. women!"
transcripts/S07E02.csv,"hi, honey."
transcripts/S07E02.csv,told me what?
transcripts/S07E02.csv,is this a joke?
transcripts/S07E02.csv,"i mean, it's one thing for us to let your family pay, they're  your parents, it's traditional. but this is..."
transcripts/S07E02.csv,"wait, wait, wait, what am i doing? here you guys, you're  making this lovely gesture and i'm just insulting you. i mean  if you guys are not family to daphne, then who is? course you  can pay for the wedding. thank you, thank you."
transcripts/S07E02.csv,"no, don't start with the water works because you're going to  get me going. what's this? jerky? can i  have some of that?"
transcripts/S07E02.csv,made from filet mignon. how much did this stuff  set you back?
transcripts/S07E11.csv,"don't be nervous, honey."
transcripts/S07E11.csv,"bring it home, daphne!"
transcripts/S07E11.csv,"daphne moon, everybody! we'll take your requests."
transcripts/S07E11.csv,didn't the invitation say it was for seven o'clock?
transcripts/S07E11.csv,"oh, no, i'm so sorry. how long were you guys together?"
transcripts/S07E11.csv,did you talk about moving in together? make any long term  plans?
transcripts/S07E11.csv,"the bartender, actually. i was just wondering how big a drink  to make you."
transcripts/S07E11.csv,"don't worry, niles. we'll fix you up with somebody."
transcripts/S07E11.csv,"someone old, then. you know, an old flame, an ex-girlfriend,  someone who got away. huh? come on  niles, there must be somebody you had your eye on before mel."
transcripts/S07E11.csv,"what? i was just trying to help, honey! you see, niles, it's  not us, it's the holidays. it makes women crazy!"
transcripts/S07E11.csv,"oh, that's what that was. some big sign in the lobby, it said  ""winston party 2000."""
transcripts/S07E11.csv,yeah?
transcripts/S07E11.csv,"okay, i'll try."
transcripts/S07E11.csv,"okay, marty, how did you get these people down here?"
transcripts/S07E11.csv,"oh, that is smart. but aren't there going to be the same  number of people down here?"
transcripts/S07E18.csv,"i know! i couldn't believe the weight of that thing! well, it's grizzly crane!"
transcripts/S07E18.csv,"oh, we just saw a hell of a tractor pull. even you would  have liked it."
transcripts/S07E18.csv,where's daphne?  i got this little gift for her.
transcripts/S07E18.csv,"oh no, i'm just giving it to her to see her pretend to like  it. then i'm gonna give her a bracelet."
transcripts/S07E18.csv,"oh, will you give me a break? all right, all right! my surveillance guy just cancelled for  tonight, just when i need him for this big money divorce  case."
transcripts/S07E18.csv,"yeah, the dumpster rental king. this guy controls half the  dumpsters in the northwest, his wife thinks he's been taking  out the wrong kind of trash. you know, if i can prove it,  this case is mine."
transcripts/S07E18.csv,"yeah, but you should see this girlfriend: leggy, blonde..."
transcripts/S07E18.csv,"hey, wait a minute. marty? you were a cop, right? you  must've done surveillance."
transcripts/S07E18.csv,"well, why don't you work for me tonight? it's forty-five  bucks an hour."
transcripts/S07E18.csv,"all right, fifty. but if you get a picture of redmond and  the girl, then it's a five hundred dollar bonus."
transcripts/S07E18.csv,"all right, seven hundred, you're killing me."
transcripts/S07E18.csv,"it's at the alcazar apartments. you know, in belltown."
transcripts/S07E18.csv,"no, that's all right. i'm sure i'll find somebody else. you're  still doing it, right?"
transcripts/S07E20.csv,"look, please, you're my last chance, vinny's already... no,  i understand, i understand, don't worry about it, bye."
transcripts/S07E20.csv,"yeah, it's my bachelor party, my best man can't arrange it  and i'm having a hell of a time trying to find somebody to  fill in."
transcripts/S07E20.csv,"oh. no, no, no, no, i don't think so, it's okay,  i just don't want to impose..."
transcripts/S07E20.csv,"no, no, no, no! it'll be fine, but thanks for the  offer, though. frasier, i don't think  we're talking about the same kind of party."
transcripts/S07E20.csv,"honey, if your head hurts, you don't have to go."
transcripts/S07E20.csv,...nice low-key party just like my honey  bunny insisted.
transcripts/S07E20.csv,"oh, that'd be swell."
transcripts/S07E22.csv,"welcome to your shower, honey. oh my god, you're trembling."
transcripts/S07E22.csv,"we may have an even bigger surprise for you later on, but  first things first: let's get you some champagne."
transcripts/S07E22.csv,"oh, holly, it's not your fault, i should have been more  radiant."
transcripts/S07E22.csv,"daphne, your big surprise has arrived. this is someone that  i know you are dying to see."
transcripts/S07E22.csv,"no, not till next week."
transcripts/S07E22.csv,"no, someone good."
transcripts/S07E22.csv,your favorite brother!
transcripts/S07E22.csv,ste... no.
transcripts/S07E22.csv,em...
transcripts/S07E22.csv,well...
transcripts/S07E22.csv,"oh boy, i really screwed up, didn't i?"
transcripts/S07E22.csv,yes.
transcripts/S07E22.csv,"i know, i know, i know, i got the names mixed  up, but you have mentioned simon too."
transcripts/S07E22.csv,hi.
transcripts/S07E22.csv,"my mom and dad. i was picking them up at the airport, they  couldn't wait to meet daphne. this is simon, daphne's  brother."
transcripts/S07E22.csv,"honey, honey! mom, dad, er,  this is my fiancée, daphne."
transcripts/S07E22.csv,we wanted to surprise you.
transcripts/S07E22.csv,"come on, honey, you've looked worse."
transcripts/S07E22.csv,"welcome to your shower, honey. oh my god, you're trembling."
transcripts/S07E24.csv,"so, i thought we'd have the toast right before desert."
transcripts/S07E24.csv,"anybody else want something from the bar? uh, scotch, rocks."
transcripts/S07E24.csv,isn't that when your mom said she'd be here?
transcripts/S07E24.csv,"come on roz, let's go."
transcripts/S07E24.csv,"oh, is this mum?"
transcripts/S07E24.csv,hi!
transcripts/S07E24.csv,"boy, daphne's brothers know how to let loose, don't they?"
transcripts/S07E24.csv,"no, no, that's peter. nigel's the one whose band-aid he ate.  see you later."
transcripts/S07E24.csv,mind if we join you guys?
transcripts/S07E24.csv,"you know, seeing as how this is my last night as a carefree  bachelor, would you care to dance, miss?"
transcripts/S07E24.csv,"excuse me, sir. mind if i cut in?"
transcripts/S07E24.csv,thank you.
transcripts/S07E24.csv,"hey, doc. things are getting a little too wild for us down  there."
transcripts/S07E24.csv,"yeah, you go ahead. i'm just gonna get out of these shoes  and i'll see you in a few minutes."
transcripts/S07E24.csv,what's the difference  between a blister and a boil?
transcripts/S07E24.csv,"god, i took my shoe off and it was like i was growing another  ankle bone down here. doc, you went to med school, what am i  supposed to do with this? lance it or something?"
transcripts/S07E24.csv,all right. what luck! can you imagine a worse thing to  have happen to me on the night before my wedding?
transcripts/S08E01.csv,"hi, fras."
transcripts/S08E01.csv,ok.
transcripts/S08E01.csv,"well, we can't see you either."
transcripts/S08E01.csv,"oh, that's right, you haven't met my little friend."
transcripts/S08E01.csv,"you remember him? from the top of the wedding cake? i call  him ""mr. chump."" say hello to mr. chump."
transcripts/S08E01.csv,i said say hello!
transcripts/S08E01.csv,"oh, yeah. i wasn't feeling very well yesterday, but the  doctor gave me a few pills and i'm feeling much better now. so, what can i do for you?"
transcripts/S08E01.csv,aren't you forgetting someone?
transcripts/S08E01.csv,well...
transcripts/S08E01.csv,it's not?
transcripts/S08E01.csv,"i'm a lawyer, it's my natural impulse. oh, you know, maybe i am being too hard on daphne. in all fairness, she's not totally to blame."
transcripts/S08E01.csv,you? i was talking about me.
transcripts/S08E01.csv,"no, wait, wait, wait, wait...just a minute. what ""minor part""  did you play?"
transcripts/S08E01.csv,you did this on my wedding day?
transcripts/S08E01.csv,"oh, yeah. i'm gonna hit you. i'm gonna hit you with tortious  interference and intentional and negligent infliction of  emotional distress. in layman's terms: i'm gonna sue your ass  off!"
transcripts/S08E01.csv,that's right. that's why i'm suing her for breach of contract!
transcripts/S08E01.csv,"actually, i'm feeling a lot better, thank you frasier. suing you is just the tonic i needed. you know what else? i'm starving. i haven't eaten in twenty-four hours. i'd ask you to join me, but, uh, you should be saving your money. turn  out the lights when you leave. oh, by the way, fras. who's  mr. chump now?"
transcripts/S08E06.csv,"hi, guys."
transcripts/S08E06.csv,daphne.
transcripts/S08E06.csv,niles.
transcripts/S08E06.csv,"look, i realize you guys must be celebrating, but do you have to start a bonfire?"
transcripts/S08E06.csv,"look, i know this is a little awkward, but i understand, don't worry. in fact, i'm celebrating something myself."
transcripts/S08E06.csv,"no. i, uh, i got engaged."
transcripts/S08E06.csv,"thank you. in fact, she's sitting right over there."
transcripts/S08E06.csv,"wave, nancy. show 'em the rock."
transcripts/S08E06.csv,"thank you. i was representing her in her divorce and we realized that we were... perfect... for each other. and,  i know it's very sudden, but that's fate for you, huh?"
transcripts/S08E06.csv,"thanks. i should get back to nancy, and you guys enjoy your dinner. and, incidentally, the fire exits are located there and there."
transcripts/S08E06.csv,"oh, you have the rings?"
transcripts/S08E06.csv,"well, gee, yeah. i'm excited. i can't believe nancy's gonna be my wife after all these... weeks."
transcripts/S08E06.csv,ok.
transcripts/S08E06.csv,"daphne, what are you doing here?"
transcripts/S08E06.csv,"actually, this is not a good time."
transcripts/S08E06.csv,"ok, this is about nancy?"
transcripts/S08E06.csv,"uh, look, daphne..."
transcripts/S08E06.csv,"i'll meet you inside. i'll be one second, all right?"
transcripts/S08E06.csv,"not really. if you hang around a few minutes, i'm sure we can get you on the wedding video."
transcripts/S08E06.csv,"well, call me crazy, but i've got a prejudice against long engagements."
transcripts/S08E06.csv,mom.
transcripts/S08E06.csv,mom.
transcripts/S08E06.csv,"mom, mom."
transcripts/S08E06.csv,"mom, mom, she knows, she knows."
transcripts/S08E06.csv,"look, daphne, i don't mean to rush you, but is there anything else?"
transcripts/S08E06.csv,"well, daphne, if it puts your mind at ease, i know what i'm doing. i'm happy, i'm ready to go on with my life. so..."
transcripts/S08E06.csv,"yeah, i know. i'm... goodbye."
transcripts/S08E06.csv,"thank you, daphne."
transcripts/S10E01.csv,"wait a minute, daph... is that daphne?"
transcripts/S10E01.csv,hey.
transcripts/S10E01.csv,"everybody. boy, i hope this isn't uncomfortable."
transcripts/S10E01.csv,"well, niles, daphne, i'd like you to meet bridgett, my fiancee."
transcripts/S10E01.csv,"thank you. i know that i was getting married the last time you ran into me, but this time i found the real thing."
transcripts/S10E01.csv,"yeah. you know, if you hadn't left me i never would have met my ex-wife who introduced me to bridgett, so, in a weird way, you played a big part  in my eventual happiness."
transcripts/S10E01.csv,"i think so too. so, what are you guys doing here?"
transcripts/S10E01.csv,"well, congratulations. that is great."
transcripts/S10E01.csv,"well, it's great. it's nice seeing you and i hope you'll come to our wedding."
transcripts/S10E01.csv,really? you'd be okay with that?
transcripts/S10E01.csv,"yes! i knew it! now you know what it's like to have  the love of your life dump you at the altar! and good luck trying to find somebody as good, because she just ain't out there!"
transcripts/S10E01.csv,what?
transcripts/S10E01.csv,"no, no. bridgett, bridgett!"
transcripts/S06E15.csv,"whoa! hey, how you doing? donny douglas. how are ya,  who's who?"
transcripts/S06E15.csv,you're frasier crane—
transcripts/S06E15.csv,"oh, you're niles crane. frasier crane?  you're roz's buddy, aren't you?"
transcripts/S06E15.csv,"oh, you got to do me a favor, o.k.? tell roz, finally i had  my teeth capped. see?"
transcripts/S06E15.csv,promise you won't forget?
transcripts/S06E15.csv,"ok. now i got to be in court in about, uh, twenty minutes,  so sit down, let's get started."
transcripts/S06E15.csv,"maria, i need my gray suit for court! come on, come  on, come on!"
transcripts/S06E15.csv,"yeah, and maria, could you just cancel that four o'clock of  mine? and  can you also put joe silva on my call sheet? i'm  listening, i'm listening, come on, come on, come on!"
transcripts/S06E15.csv,"maria! you're the best, thank you so much, cool. what, what? come on, come on, let's go! what?"
transcripts/S06E15.csv,"oh, don't worry, maria has that effect on men all the time."
transcripts/S06E15.csv,"oh, my god."
transcripts/S06E15.csv,"this is the best corned beef i have ever tasted. you've got  to have a bite of this. here. come on, it's got spicy  mustard!"
transcripts/S06E15.csv,how about you?
transcripts/S06E15.csv,"no, no, uh-uh! i got the gist. your wife was doing your  shrink, and now she's trying to bleed you with a long pre- trial. i get it. who's her lawyer?"
transcripts/S06E15.csv,"maria, get me lockhart! or whalen."
transcripts/S06E15.csv,"yeah. listen, could we just cut through the formalities here?"
transcripts/S06E15.csv,"niles, what you need is a guy like me representing you.  what you're in here is a street fight, and you got to know  who's covering your back. so, what i guarantee you is this:"
transcripts/S06E15.csv,"you will never see me unprepared, you will never see me  intimidated, and you will never, ever see me throw in the  towel! you understand?"
transcripts/S06E15.csv,"ok, thank you!"
transcripts/S06E15.csv,"whalen! donny douglas here, i'm calling about niles crane.  yeah..."
transcripts/S06E15.csv,"...facing a counter-suit for deliberate infliction of pain  and emotional distress. what, you don't think i can win?  you call york & mcfaddon. you see what those bastards had  to pay for trying to pull this same crap on a client of mine!"
transcripts/S06E15.csv,"yeah, we're talking big numbers here, whalen! you haven't  seen so many zeroes lined up since mr. spock had a book  signing! you got to hear this, come  here, come here!"
transcripts/S06E15.csv,yeah?
transcripts/S06E15.csv,"that's exactly what that means. and whalen, i'll be in touch  about a discovery schedule. have a nice day!"
transcripts/S06E15.csv,"now they're probably going to get rolling sometime this week  with depositions. so, you know, pick a day, we'll get  together, i will prepare you! but it's going to be very  low-key, very casual, you know, over dinner, something like  that."
transcripts/S06E15.csv,o.k.
transcripts/S06E15.csv,yeah?
transcripts/S06E15.csv,"oh, oh, jeez, was that there the whole time? that's so embarrassing!"
transcripts/S06E15.csv,"and so your answer would be, ""yes, i attended  their wedding."" once again, frasier, could you try to keep  your answers brief?"
transcripts/S06E15.csv,"oh, they like to question friends and family first so they  can get as much ""information"" as they can to try and catch  niles out in a lie. now, look, they're also going to allege  that during the separation, niles was wasteful with money."
transcripts/S06E15.csv,mmm-hmm.
transcripts/S06E15.csv,"anyway, look, frasier, they might ask you if you witnessed  any examples of niles throwing money around, and your answer  would be..."
transcripts/S06E15.csv,"no, no, no! the answer is, ""not to the best  of my recollection!"""
transcripts/S06E15.csv,"oh, please, not this again."
transcripts/S06E15.csv,"oh, great."
transcripts/S06E15.csv,"no, thank you, daphne. i think i'm just about done here.  in fact, i've got a conference call back at the office.  i'm just going to check to see if that's still happening.  frasier, why don't you see if there's any more questions in  there we haven't done yet, all right?"
transcripts/S06E15.csv,"you're kidding! no, really, well, based on what?  oh, please."
transcripts/S06E15.csv,"no, it's ok. yeah, no, thank you, thank you,  maria, no. maris's lawyers, they kill me.  i mean, all week long it's been one desperate ploy after  another. this one, this is the best one yet!"
transcripts/S06E15.csv,"oh, now they're claiming ""alienation of affection."""
transcripts/S06E15.csv,"yeah, believe it or not, now they're saying that during the  marriage, niles was in love with another woman."
transcripts/S06E15.csv,"oh, you."
transcripts/S06E15.csv,"oh, something about a country club ball the two of you  attended a few years back."
transcripts/S06E15.csv,"yeah. you caused quite a stir on the dance floor, or  something?"
transcripts/S06E15.csv,"you must have been very convincing, because they're going to  subpoena you for deposition. now, look, you know, we can  just call their bluff right away. you can come tomorrow  morning with frasier."
transcripts/S06E15.csv,"ok, great. now listen, daphne, i'm gonna have to prepare  you for this, 'cause lawyers, they can twist your words  around. they get a judge to buy it, because of the pre-nup,  maris can really stick it to niles. but i've got this  conference call at the office—"
transcripts/S06E15.csv,"oh, great! we'll get it done in about an hour."
transcripts/S06E15.csv,"now, frasier, i hope you realize they are going to ask you  about this business too."
transcripts/S06E15.csv,"yes, but don't worry. this is one time when your compulsive  truth-telling won't get us into any trouble. bye."
transcripts/S06E15.csv,"ok, frasier — oh, niles! ok, good. frasier, they're just  about ready for you. wait for me outside the conference  room, will you? and don't go in without me. i want a word  alone with your brother here."
transcripts/S06E15.csv,"wait for me. right, niles, i'm  really glad you're here, there's something i really want to  talk to you about."
transcripts/S06E15.csv,"no, me first. now, the only way this relationship is going to  work, niles, is if we're completely honest with each other."
transcripts/S06E15.csv,"well, i've been doing a little digging. i've been finding out  you've been holding out on me."
transcripts/S06E15.csv,"well, why didn't you tell me that's where maris's money came  from?"
transcripts/S06E15.csv,"yeah, i mean you told me that maris's family money came from  ""timber?"""
transcripts/S06E15.csv,"oh, that's what you really think."
transcripts/S06E15.csv,and that's what all of maris's friends think too? all those  country club snobs who would kill for a good piece of dirt on  someone?
transcripts/S06E15.csv,"yes, i think we now have what's known in the legal profession  as a bargaining chip!"
transcripts/S06E15.csv,"all right, let me go talk to maris's lawyers."
transcripts/S06E15.csv,absolutely.
transcripts/S06E15.csv,"oh, hello!/hi."
transcripts/S06E15.csv,"oh well, you know, we talked—"
transcripts/S06E15.csv,we got a little hungry—
transcripts/S06E15.csv,too much wine—
transcripts/S06E15.csv,and we laughed a little—
transcripts/S06E15.csv,"i know. you know, frasier, if you hadn't brought niles to  the office, then, ah, none of this would have happened. i  guess i owe you one."
transcripts/S06E15.csv,that scent is wonderful. what is it?
transcripts/S06E16.csv,"oh daphne, please don't..."
transcripts/S06E16.csv,"i was only a little afraid that somebody would find it before  we got there, but fortunately - untouched."
transcripts/S06E16.csv,"hey, tiger. look what i've got for you. think fast."
transcripts/S06E16.csv,"your ex-wife's lakefront cottage, now your lakefront cottage.  a little something i hammered out for you in the settlement."
transcripts/S06E16.csv,"hi, there."
transcripts/S06E16.csv,"well, thanks for inviting me. wow, this is a great place to get some work done, with no distractions in  sight. thank-"
transcripts/S06E16.csv,roz! how the hell are you? hi!
transcripts/S06E16.csv,"i didn't know you were going to be here. well, this is  going to be fun. now, niles, i've got to put these things  somewhere..."
transcripts/S06E16.csv,"roz, you've got a baby? congratulations! that  means that you're..."
transcripts/S06E16.csv,"well, i'll try to be quiet."
transcripts/S06E16.csv,"roz, i swear i did not wake her, she was already up when i went in to look at her. she's got such a sweet little face."
transcripts/S06E16.csv,"hi alice, i'm donny."
transcripts/S06E16.csv,"oh, i've always been pretty good with kids. come  on, sweetie, come on."
transcripts/S06E16.csv,i left some papers in the car.
transcripts/S06E16.csv,out back!
transcripts/S06E16.csv,i already came in that way.
transcripts/S06E16.csv,what about that time in cancun when the car breaks down and  that guy gives us a ride on-
transcripts/S06E16.csv,"oh niles, you have to hear this... oh god, i didn't realize it had gotten so late. i have to fax  these contracts to the office right away. you wouldn't happen  to have a machine, would you?"
transcripts/S06E16.csv,"you're right, it can wait. you know what we need? another bottle of wine, i brought one, i'll get it."
transcripts/S06E16.csv,"ok, i've got a..."
transcripts/S06E16.csv,"alice, it's ok, honey!"
transcripts/S06E16.csv,"that's why the door was stuck. you two, why didn't you tell me?"
transcripts/S06E16.csv,daphne?
transcripts/S06E16.csv,"well, niles invited me."
transcripts/S06E16.csv,"yeah, it was really nice of him. roz and i had a chance to catch up on old times."
transcripts/S06E16.csv,"oh come on, are you kidding?"
transcripts/S06E16.csv,really?
transcripts/S06E16.csv,"yes, yes."
transcripts/S06E22.csv,"hey, frasier. is daphne ready?"
transcripts/S06E22.csv,"oh, good, good. oh, what's that you're drinking there?"
transcripts/S06E22.csv,"oh. yeah, i'll have one."
transcripts/S06E22.csv,"well, actually i've cut down on my caseload. i want to spend  more time with daphne. don't tell her this but i've booked  us on an alaskan vacation next month. i guess it's one of  the few places left where you can feel completely alone."
transcripts/S06E22.csv,"hi, honey."
transcripts/S06E22.csv,"well actually, i've got something on my mind that i'd kinda  like to talk about first..."
transcripts/S06E22.csv,"no, no, i'd like you to stay here for this. if it wasn't for  you then i never would have met daphne..."
transcripts/S06E22.csv,it's okay. sit!
transcripts/S06E22.csv,"you know, i thought that being a divorce attorney would have  just soured me on relationships... and then i met you. and  i found myself telling my clients to reconcile, because i  think that if they could find even just a tiny little bit of  the happiness that i've found with you they could make it.  i've been thinking about that time we went to the little bed- and-breakfast in the country and we sat in that porch swing  all night. when i looked at the sky, you told me  your dad and you used to sit on your step and do the same  thing when you were a kid. he said that the only man good  enough for you would ""scoop the stars out of the sky with  his hat and lay them at your feet."" well... i've only caught this one so far. but if you'll accept it,  i'll spend my life chasing down the rest of them for you."
transcripts/S06E22.csv,"i know it's very soon, so just think about it."
transcripts/S06E22.csv,"boys, give me a break: you look more surprised than i do."
transcripts/S06E22.csv,"hey, don't squeeze so hard! that's a precious commodity right  there: my number one client!"
transcripts/S06E23.csv,good morning!
transcripts/S06E23.csv,"well, we planned on going to my place, but we ended up going  to a little piano bar just around the corner from here."
transcripts/S06E23.csv,"hi, i'm donny douglas, and i'm... in love."
transcripts/S06E23.csv,"you know, i'm kind of glad this worked out the way it did.  neither daphne nor i has any family here in seattle. you  know what i'd like to do? i'd like to make this our  engagement breakfast."
transcripts/S06E23.csv,surrounded by friends who treat us like family. and i'd like  to dedicate it to the woman who's filled my life with a joy i  never thought i'd find.
transcripts/S06E23.csv,"oh, it's almost finished. ""so though  you are graduating today, your learning has just begun-"" there's something under the cushions  back here."
transcripts/S06E23.csv,"oh, it's a cell phone."
transcripts/S06E23.csv,is this frasier's?
transcripts/S06E23.csv,"hey, frasier."
transcripts/S06E23.csv,"no, your timing's perfect, actually. one eggroll left."
transcripts/S06E23.csv,nice hands.
transcripts/S06E23.csv,"oh, thanks. isn't she great? takes me on a three  mile run and then feeds me diet soda. i thought i'd hate healthy living, but you know, it ain't so  bad."
transcripts/S06E23.csv,"oh, i'll just be a second here. i just have to check up on a case i'm finishing. poor bastard, i'm really taking him  to the cleaners."
transcripts/S06E23.csv,"you're negligent, pal! you're criminally irresponsible, you were careless, and you're going to pay  for it! yeah! here you go, boss."
transcripts/S06E23.csv,"hey, daph?"
transcripts/S06E23.csv,what are you doing?
transcripts/S06E23.csv,"oh. listen, unfortunately i'm going to have to work late.  i'm going to just pop in the shower and then i'll have to  leave."
transcripts/S06E23.csv,"oh, that's okay. absence just makes the heart grow fonder."
transcripts/S06E24.csv,"good morning, everybody! another full house, i see."
transcripts/S06E24.csv,"hi. oh, you found your ring!"
transcripts/S06E24.csv,"well, daphne, when your fiancée gives you a hug with a chicken  on her hand, then bells go off."
transcripts/S06E24.csv,"oh, that's okay, honey. you know, i didn't want  to say anything because i knew it would turn up sooner or  later, and i didn't want to make you feel worse."
transcripts/S06E24.csv,"i'm sorry, frasier. i guess after a little champagne we got  into the mood, and into the nude, and into the tub. but don't  worry, we'll replace the candle."
transcripts/S06E24.csv,"actually, we tried, but the knob was stuck."
transcripts/S07E02.csv,"any idiot knows you've got to pay a hooker in cash! i'm at a  meeting, i'll call you later, bye. i've got this client, he's in the middle of a divorce,  right, and his wife finds all these charges from this place  called ""executive match."" it turns out to be a call girl  service. when she gets through with him she'll have his  house, his car, she'd have his beach house too if i hadn't  already taken it. women!"
transcripts/S07E02.csv,"hi, honey."
transcripts/S07E02.csv,told me what?
transcripts/S07E02.csv,is this a joke?
transcripts/S07E02.csv,"i mean, it's one thing for us to let your family pay, they're  your parents, it's traditional. but this is..."
transcripts/S07E02.csv,"wait, wait, wait, what am i doing? here you guys, you're  making this lovely gesture and i'm just insulting you. i mean  if you guys are not family to daphne, then who is? course you  can pay for the wedding. thank you, thank you."
transcripts/S07E02.csv,"no, don't start with the water works because you're going to  get me going. what's this? jerky? can i  have some of that?"
transcripts/S07E02.csv,made from filet mignon. how much did this stuff  set you back?
transcripts/S07E11.csv,"don't be nervous, honey."
transcripts/S07E11.csv,"bring it home, daphne!"
transcripts/S07E11.csv,"daphne moon, everybody! we'll take your requests."
transcripts/S07E11.csv,didn't the invitation say it was for seven o'clock?
transcripts/S07E11.csv,"oh, no, i'm so sorry. how long were you guys together?"
transcripts/S07E11.csv,did you talk about moving in together? make any long term  plans?
transcripts/S07E11.csv,"the bartender, actually. i was just wondering how big a drink  to make you."
transcripts/S07E11.csv,"don't worry, niles. we'll fix you up with somebody."
transcripts/S07E11.csv,"someone old, then. you know, an old flame, an ex-girlfriend,  someone who got away. huh? come on  niles, there must be somebody you had your eye on before mel."
transcripts/S07E11.csv,"what? i was just trying to help, honey! you see, niles, it's  not us, it's the holidays. it makes women crazy!"
transcripts/S07E11.csv,"oh, that's what that was. some big sign in the lobby, it said  ""winston party 2000."""
transcripts/S07E11.csv,yeah?
transcripts/S07E11.csv,"okay, i'll try."
transcripts/S07E11.csv,"okay, marty, how did you get these people down here?"
transcripts/S07E11.csv,"oh, that is smart. but aren't there going to be the same  number of people down here?"
transcripts/S07E18.csv,"i know! i couldn't believe the weight of that thing! well, it's grizzly crane!"
transcripts/S07E18.csv,"oh, we just saw a hell of a tractor pull. even you would  have liked it."
transcripts/S07E18.csv,where's daphne?  i got this little gift for her.
transcripts/S07E18.csv,"oh no, i'm just giving it to her to see her pretend to like  it. then i'm gonna give her a bracelet."
transcripts/S07E18.csv,"oh, will you give me a break? all right, all right! my surveillance guy just cancelled for  tonight, just when i need him for this big money divorce  case."
transcripts/S07E18.csv,"yeah, the dumpster rental king. this guy controls half the  dumpsters in the northwest, his wife thinks he's been taking  out the wrong kind of trash. you know, if i can prove it,  this case is mine."
transcripts/S07E18.csv,"yeah, but you should see this girlfriend: leggy, blonde..."
transcripts/S07E18.csv,"hey, wait a minute. marty? you were a cop, right? you  must've done surveillance."
transcripts/S07E18.csv,"well, why don't you work for me tonight? it's forty-five  bucks an hour."
transcripts/S07E18.csv,"all right, fifty. but if you get a picture of redmond and  the girl, then it's a five hundred dollar bonus."
transcripts/S07E18.csv,"all right, seven hundred, you're killing me."
transcripts/S07E18.csv,"it's at the alcazar apartments. you know, in belltown."
transcripts/S07E18.csv,"no, that's all right. i'm sure i'll find somebody else. you're  still doing it, right?"
transcripts/S07E20.csv,"look, please, you're my last chance, vinny's already... no,  i understand, i understand, don't worry about it, bye."
transcripts/S07E20.csv,"yeah, it's my bachelor party, my best man can't arrange it  and i'm having a hell of a time trying to find somebody to  fill in."
transcripts/S07E20.csv,"oh. no, no, no, no, i don't think so, it's okay,  i just don't want to impose..."
transcripts/S07E20.csv,"no, no, no, no! it'll be fine, but thanks for the  offer, though. frasier, i don't think  we're talking about the same kind of party."
transcripts/S07E20.csv,"honey, if your head hurts, you don't have to go."
transcripts/S07E20.csv,...nice low-key party just like my honey  bunny insisted.
transcripts/S07E20.csv,"oh, that'd be swell."
transcripts/S07E22.csv,"welcome to your shower, honey. oh my god, you're trembling."
transcripts/S07E22.csv,"we may have an even bigger surprise for you later on, but  first things first: let's get you some champagne."
transcripts/S07E22.csv,"oh, holly, it's not your fault, i should have been more  radiant."
transcripts/S07E22.csv,"daphne, your big surprise has arrived. this is someone that  i know you are dying to see."
transcripts/S07E22.csv,"no, not till next week."
transcripts/S07E22.csv,"no, someone good."
transcripts/S07E22.csv,your favorite brother!
transcripts/S07E22.csv,ste... no.
transcripts/S07E22.csv,em...
transcripts/S07E22.csv,well...
transcripts/S07E22.csv,"oh boy, i really screwed up, didn't i?"
transcripts/S07E22.csv,yes.
transcripts/S07E22.csv,"i know, i know, i know, i got the names mixed  up, but you have mentioned simon too."
transcripts/S07E22.csv,hi.
transcripts/S07E22.csv,"my mom and dad. i was picking them up at the airport, they  couldn't wait to meet daphne. this is simon, daphne's  brother."
transcripts/S07E22.csv,"honey, honey! mom, dad, er,  this is my fiancée, daphne."
transcripts/S07E22.csv,we wanted to surprise you.
transcripts/S07E22.csv,"come on, honey, you've looked worse."
transcripts/S07E22.csv,"welcome to your shower, honey. oh my god, you're trembling."
transcripts/S07E24.csv,"so, i thought we'd have the toast right before desert."
transcripts/S07E24.csv,"anybody else want something from the bar? uh, scotch, rocks."
transcripts/S07E24.csv,isn't that when your mom said she'd be here?
transcripts/S07E24.csv,"come on roz, let's go."
transcripts/S07E24.csv,"oh, is this mum?"
transcripts/S07E24.csv,hi!
transcripts/S07E24.csv,"boy, daphne's brothers know how to let loose, don't they?"
transcripts/S07E24.csv,"no, no, that's peter. nigel's the one whose band-aid he ate.  see you later."
transcripts/S07E24.csv,mind if we join you guys?
transcripts/S07E24.csv,"you know, seeing as how this is my last night as a carefree  bachelor, would you care to dance, miss?"
transcripts/S07E24.csv,"excuse me, sir. mind if i cut in?"
transcripts/S07E24.csv,thank you.
transcripts/S07E24.csv,"hey, doc. things are getting a little too wild for us down  there."
transcripts/S07E24.csv,"yeah, you go ahead. i'm just gonna get out of these shoes  and i'll see you in a few minutes."
transcripts/S07E24.csv,what's the difference  between a blister and a boil?
transcripts/S07E24.csv,"god, i took my shoe off and it was like i was growing another  ankle bone down here. doc, you went to med school, what am i  supposed to do with this? lance it or something?"
transcripts/S07E24.csv,all right. what luck! can you imagine a worse thing to  have happen to me on the night before my wedding?
transcripts/S08E01.csv,"hi, fras."
transcripts/S08E01.csv,ok.
transcripts/S08E01.csv,"well, we can't see you either."
transcripts/S08E01.csv,"oh, that's right, you haven't met my little friend."
transcripts/S08E01.csv,"you remember him? from the top of the wedding cake? i call  him ""mr. chump."" say hello to mr. chump."
transcripts/S08E01.csv,i said say hello!
transcripts/S08E01.csv,"oh, yeah. i wasn't feeling very well yesterday, but the  doctor gave me a few pills and i'm feeling much better now. so, what can i do for you?"
transcripts/S08E01.csv,aren't you forgetting someone?
transcripts/S08E01.csv,well...
transcripts/S08E01.csv,it's not?
transcripts/S08E01.csv,"i'm a lawyer, it's my natural impulse. oh, you know, maybe i am being too hard on daphne. in all fairness, she's not totally to blame."
transcripts/S08E01.csv,you? i was talking about me.
transcripts/S08E01.csv,"no, wait, wait, wait, wait...just a minute. what ""minor part""  did you play?"
transcripts/S08E01.csv,you did this on my wedding day?
transcripts/S08E01.csv,"oh, yeah. i'm gonna hit you. i'm gonna hit you with tortious  interference and intentional and negligent infliction of  emotional distress. in layman's terms: i'm gonna sue your ass  off!"
transcripts/S08E01.csv,that's right. that's why i'm suing her for breach of contract!
transcripts/S08E01.csv,"actually, i'm feeling a lot better, thank you frasier. suing you is just the tonic i needed. you know what else? i'm starving. i haven't eaten in twenty-four hours. i'd ask you to join me, but, uh, you should be saving your money. turn  out the lights when you leave. oh, by the way, fras. who's  mr. chump now?"
transcripts/S08E06.csv,"hi, guys."
transcripts/S08E06.csv,daphne.
transcripts/S08E06.csv,niles.
transcripts/S08E06.csv,"look, i realize you guys must be celebrating, but do you have to start a bonfire?"
transcripts/S08E06.csv,"look, i know this is a little awkward, but i understand, don't worry. in fact, i'm celebrating something myself."
transcripts/S08E06.csv,"no. i, uh, i got engaged."
transcripts/S08E06.csv,"thank you. in fact, she's sitting right over there."
transcripts/S08E06.csv,"wave, nancy. show 'em the rock."
transcripts/S08E06.csv,"thank you. i was representing her in her divorce and we realized that we were... perfect... for each other. and,  i know it's very sudden, but that's fate for you, huh?"
transcripts/S08E06.csv,"thanks. i should get back to nancy, and you guys enjoy your dinner. and, incidentally, the fire exits are located there and there."
transcripts/S08E06.csv,"oh, you have the rings?"
transcripts/S08E06.csv,"well, gee, yeah. i'm excited. i can't believe nancy's gonna be my wife after all these... weeks."
transcripts/S08E06.csv,ok.
transcripts/S08E06.csv,"daphne, what are you doing here?"
transcripts/S08E06.csv,"actually, this is not a good time."
transcripts/S08E06.csv,"ok, this is about nancy?"
transcripts/S08E06.csv,"uh, look, daphne..."
transcripts/S08E06.csv,"i'll meet you inside. i'll be one second, all right?"
transcripts/S08E06.csv,"not really. if you hang around a few minutes, i'm sure we can get you on the wedding video."
transcripts/S08E06.csv,"well, call me crazy, but i've got a prejudice against long engagements."
transcripts/S08E06.csv,mom.
transcripts/S08E06.csv,mom.
transcripts/S08E06.csv,"mom, mom."
transcripts/S08E06.csv,"mom, mom, she knows, she knows."
transcripts/S08E06.csv,"look, daphne, i don't mean to rush you, but is there anything else?"
transcripts/S08E06.csv,"well, daphne, if it puts your mind at ease, i know what i'm doing. i'm happy, i'm ready to go on with my life. so..."
transcripts/S08E06.csv,"yeah, i know. i'm... goodbye."
transcripts/S08E06.csv,"thank you, daphne."
transcripts/S10E01.csv,"wait a minute, daph... is that daphne?"
transcripts/S10E01.csv,hey.
transcripts/S10E01.csv,"everybody. boy, i hope this isn't uncomfortable."
transcripts/S10E01.csv,"well, niles, daphne, i'd like you to meet bridgett, my fiancee."
transcripts/S10E01.csv,"thank you. i know that i was getting married the last time you ran into me, but this time i found the real thing."
transcripts/S10E01.csv,"yeah. you know, if you hadn't left me i never would have met my ex-wife who introduced me to bridgett, so, in a weird way, you played a big part  in my eventual happiness."
transcripts/S10E01.csv,"i think so too. so, what are you guys doing here?"
transcripts/S10E01.csv,"well, congratulations. that is great."
transcripts/S10E01.csv,"well, it's great. it's nice seeing you and i hope you'll come to our wedding."
transcripts/S10E01.csv,really? you'd be okay with that?
transcripts/S10E01.csv,"yes! i knew it! now you know what it's like to have  the love of your life dump you at the altar! and good luck trying to find somebody as good, because she just ain't out there!"
transcripts/S10E01.csv,what?
transcripts/S10E01.csv,"no, no. bridgett, bridgett!"
