transcripts/S05E03.csv,we live in the building.
transcripts/S05E03.csv,but it's halloween!
transcripts/S05E03.csv,we live in the building.
transcripts/S05E03.csv,but it's halloween!
transcripts/S05E03.csv,we live in the building.
transcripts/S05E03.csv,but it's halloween!
