transcripts/S09E21.csv,norm!
transcripts/S09E21.csv,on time!
transcripts/S09E21.csv,"hear, hear."
transcripts/S09E21.csv,"yeah, hear, hear."
transcripts/S09E21.csv,"hear, hear!"
transcripts/S09E21.csv,to cliff!
transcripts/S09E21.csv,"hear, hear."
transcripts/S11E07.csv,surprise!
transcripts/S09E21.csv,norm!
transcripts/S09E21.csv,on time!
transcripts/S09E21.csv,"hear, hear."
transcripts/S09E21.csv,"yeah, hear, hear."
transcripts/S09E21.csv,"hear, hear!"
transcripts/S09E21.csv,to cliff!
transcripts/S09E21.csv,"hear, hear."
transcripts/S11E07.csv,surprise!
transcripts/S09E21.csv,norm!
transcripts/S09E21.csv,on time!
transcripts/S09E21.csv,"hear, hear."
transcripts/S09E21.csv,"yeah, hear, hear."
transcripts/S09E21.csv,"hear, hear!"
transcripts/S09E21.csv,to cliff!
transcripts/S09E21.csv,"hear, hear."
transcripts/S11E07.csv,surprise!
