transcripts/S07E02.csv,"surely you can stay a little while, i haven't seen niles in  ages. you know, i used to teach him in sunday  school."
transcripts/S07E02.csv,"surely you can stay a little while, i haven't seen niles in  ages. you know, i used to teach him in sunday  school."
transcripts/S07E02.csv,"surely you can stay a little while, i haven't seen niles in  ages. you know, i used to teach him in sunday  school."
