transcripts/S05E10.csv,"hey, i haven't been gone that long - two months is all. who's this pretty new girl?"
transcripts/S05E10.csv,"hey, i haven't been gone that long - two months is all. who's this pretty new girl?"
transcripts/S05E10.csv,"hey, i haven't been gone that long - two months is all. who's this pretty new girl?"
