transcripts/S01E21.csv,"hi, folks."
transcripts/S01E21.csv,have a good time in canada?
transcripts/S01E21.csv,"what was the purpose of your trip to canada, sir?"
transcripts/S01E21.csv,"i see. and where were you born, sir?"
transcripts/S01E21.csv,"that's fine, sir, i don't need any more details. and you, miss? did you enjoy canada?"
transcripts/S01E21.csv,and the weather?
transcripts/S01E21.csv,is this your vehicle sir?
transcripts/S01E21.csv,i just need your license and registration.
transcripts/S01E21.csv,stay right here.
transcripts/S01E21.csv,"well, these check out. all: well, glad to hear that..."
transcripts/S01E21.csv,"miss, you've been very quiet. is there something i should  know here?"
transcripts/S01E21.csv,"you seem awfully nervous. may i have your name, please?"
transcripts/S01E21.csv,"you men just want to back off? what is it you want to say, sir?"
transcripts/S01E21.csv,i knew something was going on here.
transcripts/S01E21.csv,i see you've got a badge there.
transcripts/S01E21.csv,are you a policeman?
transcripts/S01E21.csv,next time remember the rabies certificate. have a safe trip home.
transcripts/S04E05.csv,who wants to see him?
transcripts/S04E05.csv,nancy?
transcripts/S04E05.csv,it's starting to!
transcripts/S10E18.csv,"hold it right there, mister!"
transcripts/S01E21.csv,"hi, folks."
transcripts/S01E21.csv,have a good time in canada?
transcripts/S01E21.csv,"what was the purpose of your trip to canada, sir?"
transcripts/S01E21.csv,"i see. and where were you born, sir?"
transcripts/S01E21.csv,"that's fine, sir, i don't need any more details. and you, miss? did you enjoy canada?"
transcripts/S01E21.csv,and the weather?
transcripts/S01E21.csv,is this your vehicle sir?
transcripts/S01E21.csv,i just need your license and registration.
transcripts/S01E21.csv,stay right here.
transcripts/S01E21.csv,"well, these check out. all: well, glad to hear that..."
transcripts/S01E21.csv,"miss, you've been very quiet. is there something i should  know here?"
transcripts/S01E21.csv,"you seem awfully nervous. may i have your name, please?"
transcripts/S01E21.csv,"you men just want to back off? what is it you want to say, sir?"
transcripts/S01E21.csv,i knew something was going on here.
transcripts/S01E21.csv,i see you've got a badge there.
transcripts/S01E21.csv,are you a policeman?
transcripts/S01E21.csv,next time remember the rabies certificate. have a safe trip home.
transcripts/S04E05.csv,who wants to see him?
transcripts/S04E05.csv,nancy?
transcripts/S04E05.csv,it's starting to!
transcripts/S10E18.csv,"hold it right there, mister!"
transcripts/S01E21.csv,"hi, folks."
transcripts/S01E21.csv,have a good time in canada?
transcripts/S01E21.csv,"what was the purpose of your trip to canada, sir?"
transcripts/S01E21.csv,"i see. and where were you born, sir?"
transcripts/S01E21.csv,"that's fine, sir, i don't need any more details. and you, miss? did you enjoy canada?"
transcripts/S01E21.csv,and the weather?
transcripts/S01E21.csv,is this your vehicle sir?
transcripts/S01E21.csv,i just need your license and registration.
transcripts/S01E21.csv,stay right here.
transcripts/S01E21.csv,"well, these check out. all: well, glad to hear that..."
transcripts/S01E21.csv,"miss, you've been very quiet. is there something i should  know here?"
transcripts/S01E21.csv,"you seem awfully nervous. may i have your name, please?"
transcripts/S01E21.csv,"you men just want to back off? what is it you want to say, sir?"
transcripts/S01E21.csv,i knew something was going on here.
transcripts/S01E21.csv,i see you've got a badge there.
transcripts/S01E21.csv,are you a policeman?
transcripts/S01E21.csv,next time remember the rabies certificate. have a safe trip home.
transcripts/S04E05.csv,who wants to see him?
transcripts/S04E05.csv,nancy?
transcripts/S04E05.csv,it's starting to!
transcripts/S10E18.csv,"hold it right there, mister!"
