transcripts/S01E07.csv,am i on?
transcripts/S01E07.csv,"hello, am i on?"
transcripts/S01E07.csv,hello?
transcripts/S01E07.csv,"hello, can you hear me?"
transcripts/S01E16.csv,"so, dr. crane, i just don't know what to do about my  weight. i've tried diet after diet, from the ""milkshakes  three times a day"" to that scary bald-headed lady on tv.  nothing seems to work."
transcripts/S01E16.csv,"well, it certainly isn't my butt."
transcripts/S01E16.csv,"so, so what do i do?"
transcripts/S01E07.csv,am i on?
transcripts/S01E07.csv,"hello, am i on?"
transcripts/S01E07.csv,hello?
transcripts/S01E07.csv,"hello, can you hear me?"
transcripts/S01E16.csv,"so, dr. crane, i just don't know what to do about my  weight. i've tried diet after diet, from the ""milkshakes  three times a day"" to that scary bald-headed lady on tv.  nothing seems to work."
transcripts/S01E16.csv,"well, it certainly isn't my butt."
transcripts/S01E16.csv,"so, so what do i do?"
transcripts/S01E07.csv,am i on?
transcripts/S01E07.csv,"hello, am i on?"
transcripts/S01E07.csv,hello?
transcripts/S01E07.csv,"hello, can you hear me?"
transcripts/S01E16.csv,"so, dr. crane, i just don't know what to do about my  weight. i've tried diet after diet, from the ""milkshakes  three times a day"" to that scary bald-headed lady on tv.  nothing seems to work."
transcripts/S01E16.csv,"well, it certainly isn't my butt."
transcripts/S01E16.csv,"so, so what do i do?"
