transcripts/S11E24.csv,"okay, here are your pills, twice a day. and you feel better, mr. kitty cat."
transcripts/S11E24.csv,who's next?
transcripts/S11E24.csv,"oh, gosh. frasier batman: the animated series"
transcripts/S11E24.csv,"boy, no easy ones today. talk about hitting the ground  running."
transcripts/S11E24.csv,yep. i'm not in kansas anymore.
transcripts/S11E24.csv,"kansas. all right, here we go. now if you hold his mouth  open for me, i'll see if i can get his paw down his throat... i'm just kidding, i'm just... you  know what, why don't i just take your pooch to the other room  here, and i'll just, i'll be right back."
transcripts/S11E24.csv,"excuse me. all right, buddy."
transcripts/S11E24.csv,here's your ring.
transcripts/S11E24.csv,"oh my god! uh, uh, you know what, why don't you-you call  9-1-1..."
transcripts/S11E24.csv,"...and-and i'll just, i'll just get started here."
transcripts/S11E24.csv,"oh, wait! wait, wait, wait! i'm going to wash my hands!"
transcripts/S11E24.csv,"oh, i've assisted in many deliveries, ma'am. in fact, one  just took blue ribbon at the kansas state fair."
transcripts/S11E24.csv,"easy now, you're doing great, girl."
transcripts/S11E24.csv,we're fine.
transcripts/S11E24.csv,"easy, girl."
transcripts/S11E24.csv,"oh, please."
transcripts/S11E24.csv,"uh, you sure you don't want me to check your monkey?"
transcripts/S11E24.csv,"okay, here are your pills, twice a day. and you feel better, mr. kitty cat."
transcripts/S11E24.csv,who's next?
transcripts/S11E24.csv,"oh, gosh. frasier batman: the animated series"
transcripts/S11E24.csv,"boy, no easy ones today. talk about hitting the ground  running."
transcripts/S11E24.csv,yep. i'm not in kansas anymore.
transcripts/S11E24.csv,"kansas. all right, here we go. now if you hold his mouth  open for me, i'll see if i can get his paw down his throat... i'm just kidding, i'm just... you  know what, why don't i just take your pooch to the other room  here, and i'll just, i'll be right back."
transcripts/S11E24.csv,"excuse me. all right, buddy."
transcripts/S11E24.csv,here's your ring.
transcripts/S11E24.csv,"oh my god! uh, uh, you know what, why don't you-you call  9-1-1..."
transcripts/S11E24.csv,"...and-and i'll just, i'll just get started here."
transcripts/S11E24.csv,"oh, wait! wait, wait, wait! i'm going to wash my hands!"
transcripts/S11E24.csv,"oh, i've assisted in many deliveries, ma'am. in fact, one  just took blue ribbon at the kansas state fair."
transcripts/S11E24.csv,"easy now, you're doing great, girl."
transcripts/S11E24.csv,we're fine.
transcripts/S11E24.csv,"easy, girl."
transcripts/S11E24.csv,"oh, please."
transcripts/S11E24.csv,"uh, you sure you don't want me to check your monkey?"
transcripts/S11E24.csv,"okay, here are your pills, twice a day. and you feel better, mr. kitty cat."
transcripts/S11E24.csv,who's next?
transcripts/S11E24.csv,"oh, gosh. frasier batman: the animated series"
transcripts/S11E24.csv,"boy, no easy ones today. talk about hitting the ground  running."
transcripts/S11E24.csv,yep. i'm not in kansas anymore.
transcripts/S11E24.csv,"kansas. all right, here we go. now if you hold his mouth  open for me, i'll see if i can get his paw down his throat... i'm just kidding, i'm just... you  know what, why don't i just take your pooch to the other room  here, and i'll just, i'll be right back."
transcripts/S11E24.csv,"excuse me. all right, buddy."
transcripts/S11E24.csv,here's your ring.
transcripts/S11E24.csv,"oh my god! uh, uh, you know what, why don't you-you call  9-1-1..."
transcripts/S11E24.csv,"...and-and i'll just, i'll just get started here."
transcripts/S11E24.csv,"oh, wait! wait, wait, wait! i'm going to wash my hands!"
transcripts/S11E24.csv,"oh, i've assisted in many deliveries, ma'am. in fact, one  just took blue ribbon at the kansas state fair."
transcripts/S11E24.csv,"easy now, you're doing great, girl."
transcripts/S11E24.csv,we're fine.
transcripts/S11E24.csv,"easy, girl."
transcripts/S11E24.csv,"oh, please."
transcripts/S11E24.csv,"uh, you sure you don't want me to check your monkey?"
