transcripts/S06E12.csv,"nice to see you again, frasier."
transcripts/S06E12.csv,"oh, no, we don't want to intrude."
transcripts/S06E12.csv,it's a pleasure.
transcripts/S06E12.csv,"oh, please. this is how our generation ate every day. i used  to live on cigarettes, whiskey sours and bacon cheeseburgers."
transcripts/S06E12.csv,"those were simpler times, weren't they, marty?"
transcripts/S06E12.csv,and the h-bomb.
transcripts/S06E12.csv,it's ok.
transcripts/S06E12.csv,"if martin's game, i'm game."
transcripts/S06E12.csv,all right.
transcripts/S06E12.csv,thank you.
transcripts/S06E12.csv,look at them. they think we don't know this is a setup.
transcripts/S06E12.csv,"oh, the jazz was first rate. but i'm afraid i talked  martin's ear off."
transcripts/S06E12.csv,"you are either too kind or a little tipsy. but thank you.  come on, lammy. i really had a lovely time."
transcripts/S06E12.csv,"bye, frasier."
transcripts/S06E12.csv,thanks so much for inviting us.
transcripts/S06E12.csv,"no, actually i've never even seen a game. i was hoping  you'd explain as we go along."
transcripts/S06E12.csv,i think the game is about to start.
transcripts/S06E12.csv,"oh, the most adorable little girl."
transcripts/S06E12.csv,"your father is really smitten with that baby, isn't he?"
transcripts/S06E12.csv,oh.
transcripts/S06E12.csv,shh. i want to  hear this.
transcripts/S06E12.csv,"frasier, just stay put."
transcripts/S06E12.csv,i think we can turn this off now.
transcripts/S06E12.csv,"no, no, not at all. i'm sure your father meant ""big snooze""  in the most flattering sense. roz, maybe we should leave."
transcripts/S06E12.csv,"believe me. twenty years in politics, i've been called  worse things than boring."
transcripts/S06E12.csv,"well, i hope you'll understand if i just slip out without  saying goodbye to martin?"
transcripts/S06E12.csv,"nice to see you again, frasier."
transcripts/S06E12.csv,"oh, no, we don't want to intrude."
transcripts/S06E12.csv,it's a pleasure.
transcripts/S06E12.csv,"oh, please. this is how our generation ate every day. i used  to live on cigarettes, whiskey sours and bacon cheeseburgers."
transcripts/S06E12.csv,"those were simpler times, weren't they, marty?"
transcripts/S06E12.csv,and the h-bomb.
transcripts/S06E12.csv,it's ok.
transcripts/S06E12.csv,"if martin's game, i'm game."
transcripts/S06E12.csv,all right.
transcripts/S06E12.csv,thank you.
transcripts/S06E12.csv,look at them. they think we don't know this is a setup.
transcripts/S06E12.csv,"oh, the jazz was first rate. but i'm afraid i talked  martin's ear off."
transcripts/S06E12.csv,"you are either too kind or a little tipsy. but thank you.  come on, lammy. i really had a lovely time."
transcripts/S06E12.csv,"bye, frasier."
transcripts/S06E12.csv,thanks so much for inviting us.
transcripts/S06E12.csv,"no, actually i've never even seen a game. i was hoping  you'd explain as we go along."
transcripts/S06E12.csv,i think the game is about to start.
transcripts/S06E12.csv,"oh, the most adorable little girl."
transcripts/S06E12.csv,"your father is really smitten with that baby, isn't he?"
transcripts/S06E12.csv,oh.
transcripts/S06E12.csv,shh. i want to  hear this.
transcripts/S06E12.csv,"frasier, just stay put."
transcripts/S06E12.csv,i think we can turn this off now.
transcripts/S06E12.csv,"no, no, not at all. i'm sure your father meant ""big snooze""  in the most flattering sense. roz, maybe we should leave."
transcripts/S06E12.csv,"believe me. twenty years in politics, i've been called  worse things than boring."
transcripts/S06E12.csv,"well, i hope you'll understand if i just slip out without  saying goodbye to martin?"
transcripts/S06E12.csv,"nice to see you again, frasier."
transcripts/S06E12.csv,"oh, no, we don't want to intrude."
transcripts/S06E12.csv,it's a pleasure.
transcripts/S06E12.csv,"oh, please. this is how our generation ate every day. i used  to live on cigarettes, whiskey sours and bacon cheeseburgers."
transcripts/S06E12.csv,"those were simpler times, weren't they, marty?"
transcripts/S06E12.csv,and the h-bomb.
transcripts/S06E12.csv,it's ok.
transcripts/S06E12.csv,"if martin's game, i'm game."
transcripts/S06E12.csv,all right.
transcripts/S06E12.csv,thank you.
transcripts/S06E12.csv,look at them. they think we don't know this is a setup.
transcripts/S06E12.csv,"oh, the jazz was first rate. but i'm afraid i talked  martin's ear off."
transcripts/S06E12.csv,"you are either too kind or a little tipsy. but thank you.  come on, lammy. i really had a lovely time."
transcripts/S06E12.csv,"bye, frasier."
transcripts/S06E12.csv,thanks so much for inviting us.
transcripts/S06E12.csv,"no, actually i've never even seen a game. i was hoping  you'd explain as we go along."
transcripts/S06E12.csv,i think the game is about to start.
transcripts/S06E12.csv,"oh, the most adorable little girl."
transcripts/S06E12.csv,"your father is really smitten with that baby, isn't he?"
transcripts/S06E12.csv,oh.
transcripts/S06E12.csv,shh. i want to  hear this.
transcripts/S06E12.csv,"frasier, just stay put."
transcripts/S06E12.csv,i think we can turn this off now.
transcripts/S06E12.csv,"no, no, not at all. i'm sure your father meant ""big snooze""  in the most flattering sense. roz, maybe we should leave."
transcripts/S06E12.csv,"believe me. twenty years in politics, i've been called  worse things than boring."
transcripts/S06E12.csv,"well, i hope you'll understand if i just slip out without  saying goodbye to martin?"
