transcripts/S08E13.csv,"hey, have you heard about the new pirate movie? it's rated ""aarr!"""
transcripts/S08E13.csv,get it? aarr!
transcripts/S08E13.csv,"that's sort of my test joke, you know, to see if a guy's cool or not? can you believe it, you're the first guy here who laughed? i mean, can't you just see it: a pirate walks into a movie theater, he's got his eye patch and his peg leg and..."
transcripts/S08E13.csv,boy that did not feel like eight minutes.
transcripts/S08E13.csv,"oh, my god! aarr!"
transcripts/S08E13.csv,aarr!
transcripts/S08E13.csv,it must be fate.
transcripts/S08E13.csv,"hey, have you heard about the new pirate movie? it's rated ""aarr!"""
transcripts/S08E13.csv,get it? aarr!
transcripts/S08E13.csv,"that's sort of my test joke, you know, to see if a guy's cool or not? can you believe it, you're the first guy here who laughed? i mean, can't you just see it: a pirate walks into a movie theater, he's got his eye patch and his peg leg and..."
transcripts/S08E13.csv,boy that did not feel like eight minutes.
transcripts/S08E13.csv,"oh, my god! aarr!"
transcripts/S08E13.csv,aarr!
transcripts/S08E13.csv,it must be fate.
transcripts/S08E13.csv,"hey, have you heard about the new pirate movie? it's rated ""aarr!"""
transcripts/S08E13.csv,get it? aarr!
transcripts/S08E13.csv,"that's sort of my test joke, you know, to see if a guy's cool or not? can you believe it, you're the first guy here who laughed? i mean, can't you just see it: a pirate walks into a movie theater, he's got his eye patch and his peg leg and..."
transcripts/S08E13.csv,boy that did not feel like eight minutes.
transcripts/S08E13.csv,"oh, my god! aarr!"
transcripts/S08E13.csv,aarr!
transcripts/S08E13.csv,it must be fate.
