transcripts/S09E06.csv,"hey, that's mine!"
transcripts/S09E06.csv,yeah.
transcripts/S09E06.csv,his parents are my parents. he's my brother.
transcripts/S09E06.csv,no.
transcripts/S09E06.csv,and butt-faces.
transcripts/S09E06.csv,what?
transcripts/S09E06.csv,that sounds pretty mean.
transcripts/S09E06.csv,i guess. but still he's not so bad.
transcripts/S09E06.csv,"well, he was just showing off. but most days he's all right."
transcripts/S09E06.csv,are you okay?
transcripts/S09E06.csv,"yeah, i get those too. well, i'm going home. see you later."
transcripts/S09E06.csv,really? awesome!
transcripts/S09E06.csv,1901? you're the guy who eats brains.
transcripts/S09E06.csv,no.
transcripts/S09E06.csv,"hey, that's mine!"
transcripts/S09E06.csv,yeah.
transcripts/S09E06.csv,his parents are my parents. he's my brother.
transcripts/S09E06.csv,no.
transcripts/S09E06.csv,and butt-faces.
transcripts/S09E06.csv,what?
transcripts/S09E06.csv,that sounds pretty mean.
transcripts/S09E06.csv,i guess. but still he's not so bad.
transcripts/S09E06.csv,"well, he was just showing off. but most days he's all right."
transcripts/S09E06.csv,are you okay?
transcripts/S09E06.csv,"yeah, i get those too. well, i'm going home. see you later."
transcripts/S09E06.csv,really? awesome!
transcripts/S09E06.csv,1901? you're the guy who eats brains.
transcripts/S09E06.csv,no.
transcripts/S09E06.csv,"hey, that's mine!"
transcripts/S09E06.csv,yeah.
transcripts/S09E06.csv,his parents are my parents. he's my brother.
transcripts/S09E06.csv,no.
transcripts/S09E06.csv,and butt-faces.
transcripts/S09E06.csv,what?
transcripts/S09E06.csv,that sounds pretty mean.
transcripts/S09E06.csv,i guess. but still he's not so bad.
transcripts/S09E06.csv,"well, he was just showing off. but most days he's all right."
transcripts/S09E06.csv,are you okay?
transcripts/S09E06.csv,"yeah, i get those too. well, i'm going home. see you later."
transcripts/S09E06.csv,really? awesome!
transcripts/S09E06.csv,1901? you're the guy who eats brains.
transcripts/S09E06.csv,no.
