transcripts/S03E01.csv,"listen, tell the movers i want the couch directly in front of  the bookcase. uh-huh. oh, have a  seat."
transcripts/S03E01.csv,"uh-huh. yeah, yes. no, not there! in front of  the bookcase!"
transcripts/S03E01.csv,"yes, tell her i got somebody here! could we move the  furniture later?"
transcripts/S03E01.csv,could we do that? dr. frasier crane! kate costas.
transcripts/S03E01.csv,likewise. i've been listening to the tapes of all your shows.  i love what you're doing.
transcripts/S03E01.csv,"wow. you really talk that way. anyway, your ratings are  very good. but i still think we can do better. any ideas?"
transcripts/S03E01.csv,"it's too highbrow. i mean, i love classical music, but to  most people it's a big snore. oh, incidentally, bartok's  concerto is in c."
transcripts/S03E01.csv,"positive. i put myself through college working at a classical  station. let's talk about advertising. you've got a great  face. i want to see it on t-shirts, i want to see it on park  benches, i even want to see it on frisbees. everybody in  seattle should be popping it, wearing it, sitting on it!"
transcripts/S03E01.csv,"it's in c. it was commissioned by serge kosivinsky in 1943  for the boston symphony orchestra, and since then it's been  recorded over thirty times—each time, in c."
transcripts/S03E01.csv,"also, i think you should start doing theme shows. devote a  whole show to people having extramarital affairs, or devote  a whole show to people with aberrant sexual practices.  could you give me a hand with that box over there?"
transcripts/S03E01.csv,why is that?
transcripts/S03E01.csv,but you don't mind the frisbees.
transcripts/S03E01.csv,"aren't you sweet to notice. finally, i would like you to  start giving priority to the juicier calls."
transcripts/S03E01.csv,and that is called a peabody award!
transcripts/S03E01.csv,i really know what i'm doing here. the psychiatrists at my  last station went national.
transcripts/S03E01.csv,"well, i'm the boss, doc. so, pucker up!"
transcripts/S03E01.csv,good morning.
transcripts/S03E01.csv,enjoying your new time slot?
transcripts/S03E01.csv,"well, i hope you explained to her that it's not important  that people like her, as long as they respect her."
transcripts/S03E01.csv,"oh, yes, yes, but some people — and this is so  unfortunate — can't tell the difference between self-respect  and pig-headedness."
transcripts/S03E01.csv,isn't it sad when bad things happen to good sentences?
transcripts/S03E01.csv,"well, i really do have work to do. i've got to find somebody for your old time slot — now that it's free."
transcripts/S03E01.csv,explain.
transcripts/S03E01.csv,"you know full well this is not what i wanted! you did this  to vex me. and you succeeded. and it was not shaw, it was  oscar wilde. did you ever open a book at harvard?"
transcripts/S03E01.csv,"all i wanted, all i wanted was a lousy little theme show  once or twice a week!"
transcripts/S03E01.csv,"no, not a leering look! just a good look. at the pain of  infidelity, at what it does to families, at what it does to  children, at what it does to the fabric of society, and this  is just off the top of my head. but, no! you are such an  arrogant gasbag, so used to being cock-of-the-walk around here  that you can't stand still for one minute and listen to  a perfectly valid suggestion from somebody else!"
transcripts/S03E01.csv,"yes, i could do that, yeah. but i'm not  going to."
transcripts/S03E01.csv,"oh, yeah. but, unlike you, i put what's good for the station  above my personal feelings."
transcripts/S03E01.csv,"guess again, captain midnight! if i give you back your old  time slot without your making a single concession to me,  that would completely undermine my authority. being a crack  shrink, surely that's within your grasp."
transcripts/S03E01.csv,"grasp this: you do, and i'll  sue you for breach of contract!"
transcripts/S03E01.csv,"yes, one of us better."
transcripts/S03E01.csv,damn!
transcripts/S03E01.csv,"you do, and i'll make you start that show with classical  music! bartok's concerto in c, i don't care how much you  hate it!"
transcripts/S03E01.csv,"it's my way, or no way."
transcripts/S03E01.csv,what do you two want?
transcripts/S03E04.csv,"oh, hello, dr. crane."
transcripts/S03E04.csv,how do you do?
transcripts/S03E04.csv,you'll love it. i saw it in kyoto. it's just such a shame  they're not letting the really rare pieces out of the  country.
transcripts/S03E04.csv,watch your mouth!
transcripts/S03E04.csv,i'm in kind of a hurry.
transcripts/S03E04.csv,"i seriously doubt that, but go ahead."
transcripts/S03E04.csv,i heard.
transcripts/S03E04.csv,shameless!
transcripts/S03E04.csv,i'm talking about the way you manage to get harvard into  every conversation.
transcripts/S03E04.csv,"gee, you sure know how to ask for help!"
transcripts/S03E04.csv,"i know, i'll take care of it."
transcripts/S03E04.csv,"you went to harvard, i know, i know."
transcripts/S03E04.csv,"stop busting frasier's chops, enough said?"
transcripts/S03E04.csv,are all these callers waiting to  tell bulldog how much they liked the joke he played on  frasier?
transcripts/S03E04.csv,because of what he did to frasier?
transcripts/S03E04.csv,"if you think i'm going to allow you to publicly mock one  of our most respected hosts on air just for the sake of  higher ratings, you and i are going to get along just fine!"
transcripts/S03E04.csv,"i need a copy of our contract with  nanette stewart. what's yum-yum doing  here? it's all right, i can guess."
transcripts/S03E04.csv,"yeah, but she's been floating at the top of the bowl for the  last two. when i went in to talk to bulldog, the phones  were lit up like times square; his fans love it when he zaps  you."
transcripts/S03E04.csv,"no, i would have you fight back. he makes pot shots at you,  you come back at him in your droll, ivy league, ""look at me,  i've got a thesaurus"" kind of way! it'll be funny!"
transcripts/S03E04.csv,afraid of the competition?
transcripts/S03E04.csv,"you just announced to a half a million listeners that you are  ""filled to the brim with girlish glee."" i think the h.m.s  pinafore of embarrassment has sailed! now, if you'll excuse  me, i have to fire someone."
transcripts/S03E04.csv,"oh, god, she brought spanky!"
transcripts/S03E04.csv,do you know what your problem is? you have no sense of  humour.
transcripts/S03E04.csv,"well, then, lighten up."
transcripts/S03E04.csv,"hello, bulldog. hi, darlene. wow, look at  that mighty drum!"
transcripts/S03E04.csv,okay. and the lucky winner is... yeow!
transcripts/S03E04.csv,something bit me!
transcripts/S03E04.csv,"there it goes, there it goes, there it goes!"
transcripts/S03E04.csv,"stop that lizard, it has my finger!"
transcripts/S03E04.csv,"i don't know when i'll be back in the office,  susan, just cancel all my appointments. is there any word  on who pulled this stupid stunt? i don't want excuses, i  want names! will you hurry up that shot, i'm in  agony here."
transcripts/S03E04.csv,what kind of raving psychotic would do a thing like this?
transcripts/S03E04.csv,i'm gonna find him and i'm gonna crush him!
transcripts/S03E04.csv,"oh, let me guess, someone park in your space?"
transcripts/S03E04.csv,who?
transcripts/S03E04.csv,what?
transcripts/S03E04.csv,"oh, it was kinda funny."
transcripts/S03E04.csv,what?
transcripts/S03E04.csv,"oh, i was just remembering..."
transcripts/S03E04.csv,""
transcripts/S03E04.csv,"wouldn't you know, it bites my middle finger. how am i  supposed to drive?"
transcripts/S03E04.csv,"now you know, life is so funny. one minute, you're standing  in a hallway, the next minute you're a poo-poo platter for  a lizard. that's a funny word, isn't it? hallway!"
transcripts/S03E04.csv,"and bulldog, bulldog's... oh, see, now,  you're starting to get tired, i should go."
transcripts/S03E04.csv,o-kay!
transcripts/S03E04.csv,o-kay.
transcripts/S03E04.csv,you what?
transcripts/S03E06.csv,yeah.
transcripts/S03E06.csv,is there a problem? nope? good.
transcripts/S03E06.csv,doc...?
transcripts/S03E06.csv,"no, i'm sorry, i can't talk right now, i've got a meeting."
transcripts/S03E06.csv,"dr crane... i wrote the memo, i signed the memo, i posted  the memo. if i had anything more to say, i would have put  it... anybody?"
transcripts/S03E06.csv,bravo.
transcripts/S03E06.csv,wow. what have we here?
transcripts/S03E06.csv,"alright, but aren't you people still on the clock?"
transcripts/S03E06.csv,"well hi-ho the dairy-o, the cheese stands alone."
transcripts/S03E06.csv,"yeah, right. will you get in here?"
transcripts/S03E06.csv,"i'm kinda surprised to see you here. this really isn't your fight, is it?"
transcripts/S03E06.csv,oh. that's a shame. i was kinda looking forward to seeing shempsky faint.
transcripts/S03E06.csv,"oooh, is that a new tie?  it just lights up your pretty face."
transcripts/S03E06.csv,i have an idea about the source of our antagonism.
transcripts/S03E06.csv,"i'm a woman, i'm as smart as you, and i'm your boss."
transcripts/S03E06.csv,"doc... i don't want to analyse your hang-ups. i already got  a full-time job. let's just get down to business, okay?"
transcripts/S03E06.csv,or?
transcripts/S03E06.csv,you have.
transcripts/S03E06.csv,why are you gunning for me?
transcripts/S03E06.csv,"no, no; this is about your ego, which is the size of seattle!  every suggestion, every decision i've made has been met by  this impenetrable wall of arrogance masquerading as  righteousness."
transcripts/S03E06.csv,"no, what you have is a fat contract, and so do the rest of  your cronies. so when it came time for staff raises, there  was no more money left in the till!"
transcripts/S03E06.csv,there would've been raises if you hadn't taken  all the money to pay for those armani suits.
transcripts/S03E06.csv,"well, what about this designer cologne on you?"
transcripts/S03E06.csv,"these lips are mine, you arrogant gasbag!"
transcripts/S03E06.csv,blowhard!
transcripts/S03E06.csv,ass!!!
transcripts/S03E06.csv,get out...!
transcripts/S03E06.csv,!
transcripts/S03E06.csv,frasier.
transcripts/S03E06.csv,me too. have a seat.
transcripts/S03E06.csv,me too.
transcripts/S03E06.csv,yeah. let's.
transcripts/S03E06.csv,manipulation... that is interesting.
transcripts/S03E06.csv,because there's a possibility of manipulation.
transcripts/S03E06.csv,me? i'm talking about you! how dare you think i'd do a  thing like that!
transcripts/S03E06.csv,"oh, very clever! what about you using your masculine wiles to get what you want?"
transcripts/S03E06.csv,"no, i am not going down that road again."
transcripts/S03E06.csv,"""cul-de-sac of vulnerability""? alright, listen. you see me for a couple of hours out of every day, and you think you know me? the me? alright, i can be tough - okay, i've gotta be. i can also be tender... spontaneous... shy... lusty... playful."
transcripts/S03E06.csv,i could climb you like a scratching post.
transcripts/S03E06.csv,"right, you're absolutely right. we've gotta put personal pleasure aside until we get this thing resolved."
transcripts/S03E06.csv,i'll give you three.
transcripts/S03E06.csv,done.
transcripts/S03E07.csv,dr. crane.
transcripts/S03E07.csv,so... good morning.
transcripts/S03E07.csv,how's your knee?
transcripts/S03E07.csv,"a little dented, but fine. the computer."
transcripts/S03E07.csv,tell me she just walked in.
transcripts/S03E07.csv,"listen, i really have to go, but i would like to discuss  this matter at the first possible opportunity."
transcripts/S03E07.csv,"oh, oh, oh, oh, i almost forgot.  i need you two to fill in the eight-to-ten slot tonight.  floyd, the happy chef, is in rehab again."
transcripts/S03E07.csv,got a minute?
transcripts/S03E07.csv,"no-no-no, me first this time."
transcripts/S03E07.csv,i really think that we should slow things  down.
transcripts/S03E07.csv,"oh, how sensitive. and yet, at the same time, how full of yourself."
transcripts/S03E07.csv,"well, all this definitely shows we're doing the right thing."
transcripts/S03E07.csv,yeah.
transcripts/S03E07.csv,"i have no idea! i... ever since i've gotten here, you have  done nothing but irritate me like a persistent skin rash."
transcripts/S03E07.csv,"the whole thing... it's just, it's so primitive!"
transcripts/S03E07.csv,"it's fascinating, really."
transcripts/S03E07.csv,that crossed my mind...
transcripts/S03E07.csv,i felt like a...dirty girl.
transcripts/S03E07.csv,"i said ""dirty girl."""
transcripts/S03E07.csv,you bad boy.
transcripts/S03E07.csv,you bad boy!
transcripts/S03E07.csv,bad boy...!!
transcripts/S03E07.csv,how much time do we have left on the news?
transcripts/S03E07.csv,right...
transcripts/S03E07.csv,"oh good, good!"
transcripts/S03E07.csv,stop talking.
transcripts/S03E07.csv,stop talking!
transcripts/S03E07.csv,"good afternoon, dr crane."
transcripts/S03E07.csv,"bulldog, this is really none of your business."
transcripts/S03E07.csv,"dr. crane, could i have a word  with you in private?"
transcripts/S03E07.csv,actually you don't.
transcripts/S03E07.csv,"i'm suspending you for a week. bulldog, you're going on. roz, you'll have to produce."
transcripts/S03E07.csv,"yes, i can see how you might feel that way. but the station does have certain standards and it is my job to enforce them.  now if you will excuse me, i have to meet with one of last  night's sponsors - the wholesome family cookie company."
transcripts/S03E07.csv,kate costas.
transcripts/S03E07.csv,hello.
transcripts/S03E07.csv,hello.
transcripts/S03E07.csv,i'm sorry if i'm coming at a bad time.
transcripts/S03E07.csv,"so... nice place. whoa, what a  view!"
transcripts/S03E07.csv,"well... i guess that concludes the small-talk portion of our evening. look, it must be obvious; i've come here to  apologise."
transcripts/S03E07.csv,"alright, alright, just tell me what i can do to make this right."
transcripts/S03E07.csv,the owners wanted you fired.
transcripts/S03E07.csv,"look, there's no way we can rewrite the past. it happened,  we did it, it's on tape. but we can do this: we can prevent  it from ever happening again."
transcripts/S03E07.csv,i'll get my bag!
transcripts/S03E07.csv,"oh, right!"
transcripts/S03E07.csv,going down?
transcripts/S03E07.csv,we're two mature adults.
transcripts/S03E07.csv,i don't know. hello?
transcripts/S03E07.csv,hello? hello? can anybody hear me?
transcripts/S03E07.csv,yeah! what's going on?
transcripts/S03E07.csv,"yeah, yeah, we're fine. we're adults. we're mature adults!"
transcripts/S03E07.csv,yeah. it's a bit - it's a bit hot.
transcripts/S03E07.csv,makes no difference to me.
transcripts/S03E07.csv,what's that?
transcripts/S03E07.csv,"i'm not really in the mood for music. could you stop that, please?"
transcripts/S03E07.csv,"god, it's hot in here!"
transcripts/S03E07.csv,what's that smell?
transcripts/S03E07.csv,i really think that it would be a very good thing if you  just did something about that musk oil...
transcripts/S03E07.csv,who lives in this building?!
transcripts/S03E07.csv,"no no no no no, not gonna touch this thing again. look at me, i'm all dirty."
transcripts/S03E07.csv,"ooh, stop - stop - stop!"
transcripts/S03E07.csv,"i am, too! god!"
transcripts/S03E07.csv,"of course, the cable could break."
transcripts/S03E07.csv,you are so right!
transcripts/S03E07.csv,"goodnight, dr crane."
transcripts/S03E10.csv,that was very smooth.
transcripts/S03E10.csv,"look frasier, i've been getting a lot of complaints from  sponsors saying that their ads are getting buried in huge  commercial blocks."
transcripts/S03E10.csv,so instead of having four blocks per hour we're going to have  eight...
transcripts/S03E10.csv,"...only they're only going to be half as long. i thought it  might help you. and you want to stay on top, don't you,  frasier? ...frasier?"
transcripts/S03E10.csv,good.
transcripts/S03E10.csv,i'm just going down to the billing department.
transcripts/S03E10.csv,"oh, yes! yes. yeah. you did. you did.  you hit the right button. i'm sorry — i've got a lot on my  mind."
transcripts/S03E10.csv,"frasier, i'm leaving kacl. i'm moving to chicago."
transcripts/S03E10.csv,"yeah. i'm taking over a station there. in fact i'm going out  on the ""redeye"" tonight. i thought, given our history,  i should tell you first."
transcripts/S03E10.csv,wouldn't you know it — on the day i'm leaving?
transcripts/S03E10.csv,"thanks. boy, this was not an easy decision believe me.  you never know if you're leaving a place too soon."
transcripts/S03E10.csv,i know. i guess this is goodbye.
transcripts/S03E10.csv,frasier!
transcripts/S03E10.csv,ok; now you listen to me. i was so touched by what you just  said at my apartment. you said everything that i've wanted  to say to you for the last two months. tony's just a guy  that i went out with a couple of times. he just came over to  say goodbye to me before i went to the airport. when you saw  him you just looked so hurt...
transcripts/S03E10.csv,...but apparently you rebounded! i'm sorry. i thought you  were sincere. hold the  elevator!
transcripts/S03E10.csv,frasier!
transcripts/S03E10.csv,i know. i overreacted. i've been standing here for a half  an hour hoping you'd come. i never thought you'd come.
transcripts/S03E10.csv,"listen, it's not your fault. i could have said something."
transcripts/S03E10.csv,i can't. i can't. i have a board meeting in the morning.
transcripts/S03E10.csv,"i'm staying at the drake. but, you know what? i'll call  you. i'll call you the minute i get in."
transcripts/S03E10.csv,goodbye
transcripts/S03E10.csv,i'll miss you.
transcripts/S03E10.csv,i missed you!
transcripts/S03E10.csv,it's just like fate — like somebody's willing us to get  together.
transcripts/S03E10.csv,me too. why don't you come with me tonight?
transcripts/S03E10.csv,"oh, yeah. oh, great. you know what, you can meet my twin  sister. she lives in chicago."
transcripts/S03E10.csv,yes.
transcripts/S03E10.csv,"well, ask me. ask me anything."
transcripts/S03E10.csv,blue. what's yours?
transcripts/S03E10.csv,where's your favorite city?
transcripts/S03E10.csv,the prada! musical?
transcripts/S03E10.csv,""
transcripts/S03E10.csv,well i love cats. i have a cat. would you like to meet  louie?
transcripts/S03E10.csv,"oh, really? oh, no. all right, we'll work around that. you  know, what we can do when you come out? we can go jogging  around the lake. oh frasier, the lake is so beautiful. do  you ever jog?"
transcripts/S03E10.csv,"oh, all right. we can do something that you like. what do  you like? what do you like?"
transcripts/S03E10.csv,"you know what? i'm not one of those people for whom  ""antique"" is a verb."
transcripts/S03E10.csv,vive la difference!
transcripts/S03E10.csv,"louie's getting to you, isn't he?"
transcripts/S03E10.csv,"well, you know, if this is really gonna be a problem there's  a shot."
transcripts/S03E10.csv,"i'm sorry. i'm sorry, frasier. i'm just afraid that if i  move louie any further away they're gonna think he's a bomb!"
transcripts/S03E10.csv,oh yeah. i think that's one of the main things that motivates  me to work so hard. i've always had this dream to get a ranch  in montana — you know? to ski in the morning and ride horses  in the afternoon? i just always wanted to raise horses.
transcripts/S03E10.csv,you still want more children then?
transcripts/S03E10.csv,"oh yeah. i love kids. i don't see myself mothering one,  though."
transcripts/S03E10.csv,"you know, just to be on the safe side  let me just check to see if there's another flight?"
transcripts/S03E10.csv,excuse me — is there another flight to chicago tonight?
transcripts/S03E10.csv,atlanta's good. that's a hub.
transcripts/S03E10.csv,oh damn. i'll never get there.
transcripts/S03E10.csv,isn't it?
transcripts/S03E01.csv,"listen, tell the movers i want the couch directly in front of  the bookcase. uh-huh. oh, have a  seat."
transcripts/S03E01.csv,"uh-huh. yeah, yes. no, not there! in front of  the bookcase!"
transcripts/S03E01.csv,"yes, tell her i got somebody here! could we move the  furniture later?"
transcripts/S03E01.csv,could we do that? dr. frasier crane! kate costas.
transcripts/S03E01.csv,likewise. i've been listening to the tapes of all your shows.  i love what you're doing.
transcripts/S03E01.csv,"wow. you really talk that way. anyway, your ratings are  very good. but i still think we can do better. any ideas?"
transcripts/S03E01.csv,"it's too highbrow. i mean, i love classical music, but to  most people it's a big snore. oh, incidentally, bartok's  concerto is in c."
transcripts/S03E01.csv,"positive. i put myself through college working at a classical  station. let's talk about advertising. you've got a great  face. i want to see it on t-shirts, i want to see it on park  benches, i even want to see it on frisbees. everybody in  seattle should be popping it, wearing it, sitting on it!"
transcripts/S03E01.csv,"it's in c. it was commissioned by serge kosivinsky in 1943  for the boston symphony orchestra, and since then it's been  recorded over thirty times—each time, in c."
transcripts/S03E01.csv,"also, i think you should start doing theme shows. devote a  whole show to people having extramarital affairs, or devote  a whole show to people with aberrant sexual practices.  could you give me a hand with that box over there?"
transcripts/S03E01.csv,why is that?
transcripts/S03E01.csv,but you don't mind the frisbees.
transcripts/S03E01.csv,"aren't you sweet to notice. finally, i would like you to  start giving priority to the juicier calls."
transcripts/S03E01.csv,and that is called a peabody award!
transcripts/S03E01.csv,i really know what i'm doing here. the psychiatrists at my  last station went national.
transcripts/S03E01.csv,"well, i'm the boss, doc. so, pucker up!"
transcripts/S03E01.csv,good morning.
transcripts/S03E01.csv,enjoying your new time slot?
transcripts/S03E01.csv,"well, i hope you explained to her that it's not important  that people like her, as long as they respect her."
transcripts/S03E01.csv,"oh, yes, yes, but some people — and this is so  unfortunate — can't tell the difference between self-respect  and pig-headedness."
transcripts/S03E01.csv,isn't it sad when bad things happen to good sentences?
transcripts/S03E01.csv,"well, i really do have work to do. i've got to find somebody for your old time slot — now that it's free."
transcripts/S03E01.csv,explain.
transcripts/S03E01.csv,"you know full well this is not what i wanted! you did this  to vex me. and you succeeded. and it was not shaw, it was  oscar wilde. did you ever open a book at harvard?"
transcripts/S03E01.csv,"all i wanted, all i wanted was a lousy little theme show  once or twice a week!"
transcripts/S03E01.csv,"no, not a leering look! just a good look. at the pain of  infidelity, at what it does to families, at what it does to  children, at what it does to the fabric of society, and this  is just off the top of my head. but, no! you are such an  arrogant gasbag, so used to being cock-of-the-walk around here  that you can't stand still for one minute and listen to  a perfectly valid suggestion from somebody else!"
transcripts/S03E01.csv,"yes, i could do that, yeah. but i'm not  going to."
transcripts/S03E01.csv,"oh, yeah. but, unlike you, i put what's good for the station  above my personal feelings."
transcripts/S03E01.csv,"guess again, captain midnight! if i give you back your old  time slot without your making a single concession to me,  that would completely undermine my authority. being a crack  shrink, surely that's within your grasp."
transcripts/S03E01.csv,"grasp this: you do, and i'll  sue you for breach of contract!"
transcripts/S03E01.csv,"yes, one of us better."
transcripts/S03E01.csv,damn!
transcripts/S03E01.csv,"you do, and i'll make you start that show with classical  music! bartok's concerto in c, i don't care how much you  hate it!"
transcripts/S03E01.csv,"it's my way, or no way."
transcripts/S03E01.csv,what do you two want?
transcripts/S03E04.csv,"oh, hello, dr. crane."
transcripts/S03E04.csv,how do you do?
transcripts/S03E04.csv,you'll love it. i saw it in kyoto. it's just such a shame  they're not letting the really rare pieces out of the  country.
transcripts/S03E04.csv,watch your mouth!
transcripts/S03E04.csv,i'm in kind of a hurry.
transcripts/S03E04.csv,"i seriously doubt that, but go ahead."
transcripts/S03E04.csv,i heard.
transcripts/S03E04.csv,shameless!
transcripts/S03E04.csv,i'm talking about the way you manage to get harvard into  every conversation.
transcripts/S03E04.csv,"gee, you sure know how to ask for help!"
transcripts/S03E04.csv,"i know, i'll take care of it."
transcripts/S03E04.csv,"you went to harvard, i know, i know."
transcripts/S03E04.csv,"stop busting frasier's chops, enough said?"
transcripts/S03E04.csv,are all these callers waiting to  tell bulldog how much they liked the joke he played on  frasier?
transcripts/S03E04.csv,because of what he did to frasier?
transcripts/S03E04.csv,"if you think i'm going to allow you to publicly mock one  of our most respected hosts on air just for the sake of  higher ratings, you and i are going to get along just fine!"
transcripts/S03E04.csv,"i need a copy of our contract with  nanette stewart. what's yum-yum doing  here? it's all right, i can guess."
transcripts/S03E04.csv,"yeah, but she's been floating at the top of the bowl for the  last two. when i went in to talk to bulldog, the phones  were lit up like times square; his fans love it when he zaps  you."
transcripts/S03E04.csv,"no, i would have you fight back. he makes pot shots at you,  you come back at him in your droll, ivy league, ""look at me,  i've got a thesaurus"" kind of way! it'll be funny!"
transcripts/S03E04.csv,afraid of the competition?
transcripts/S03E04.csv,"you just announced to a half a million listeners that you are  ""filled to the brim with girlish glee."" i think the h.m.s  pinafore of embarrassment has sailed! now, if you'll excuse  me, i have to fire someone."
transcripts/S03E04.csv,"oh, god, she brought spanky!"
transcripts/S03E04.csv,do you know what your problem is? you have no sense of  humour.
transcripts/S03E04.csv,"well, then, lighten up."
transcripts/S03E04.csv,"hello, bulldog. hi, darlene. wow, look at  that mighty drum!"
transcripts/S03E04.csv,okay. and the lucky winner is... yeow!
transcripts/S03E04.csv,something bit me!
transcripts/S03E04.csv,"there it goes, there it goes, there it goes!"
transcripts/S03E04.csv,"stop that lizard, it has my finger!"
transcripts/S03E04.csv,"i don't know when i'll be back in the office,  susan, just cancel all my appointments. is there any word  on who pulled this stupid stunt? i don't want excuses, i  want names! will you hurry up that shot, i'm in  agony here."
transcripts/S03E04.csv,what kind of raving psychotic would do a thing like this?
transcripts/S03E04.csv,i'm gonna find him and i'm gonna crush him!
transcripts/S03E04.csv,"oh, let me guess, someone park in your space?"
transcripts/S03E04.csv,who?
transcripts/S03E04.csv,what?
transcripts/S03E04.csv,"oh, it was kinda funny."
transcripts/S03E04.csv,what?
transcripts/S03E04.csv,"oh, i was just remembering..."
transcripts/S03E04.csv,""
transcripts/S03E04.csv,"wouldn't you know, it bites my middle finger. how am i  supposed to drive?"
transcripts/S03E04.csv,"now you know, life is so funny. one minute, you're standing  in a hallway, the next minute you're a poo-poo platter for  a lizard. that's a funny word, isn't it? hallway!"
transcripts/S03E04.csv,"and bulldog, bulldog's... oh, see, now,  you're starting to get tired, i should go."
transcripts/S03E04.csv,o-kay!
transcripts/S03E04.csv,o-kay.
transcripts/S03E04.csv,you what?
transcripts/S03E06.csv,yeah.
transcripts/S03E06.csv,is there a problem? nope? good.
transcripts/S03E06.csv,doc...?
transcripts/S03E06.csv,"no, i'm sorry, i can't talk right now, i've got a meeting."
transcripts/S03E06.csv,"dr crane... i wrote the memo, i signed the memo, i posted  the memo. if i had anything more to say, i would have put  it... anybody?"
transcripts/S03E06.csv,bravo.
transcripts/S03E06.csv,wow. what have we here?
transcripts/S03E06.csv,"alright, but aren't you people still on the clock?"
transcripts/S03E06.csv,"well hi-ho the dairy-o, the cheese stands alone."
transcripts/S03E06.csv,"yeah, right. will you get in here?"
transcripts/S03E06.csv,"i'm kinda surprised to see you here. this really isn't your fight, is it?"
transcripts/S03E06.csv,oh. that's a shame. i was kinda looking forward to seeing shempsky faint.
transcripts/S03E06.csv,"oooh, is that a new tie?  it just lights up your pretty face."
transcripts/S03E06.csv,i have an idea about the source of our antagonism.
transcripts/S03E06.csv,"i'm a woman, i'm as smart as you, and i'm your boss."
transcripts/S03E06.csv,"doc... i don't want to analyse your hang-ups. i already got  a full-time job. let's just get down to business, okay?"
transcripts/S03E06.csv,or?
transcripts/S03E06.csv,you have.
transcripts/S03E06.csv,why are you gunning for me?
transcripts/S03E06.csv,"no, no; this is about your ego, which is the size of seattle!  every suggestion, every decision i've made has been met by  this impenetrable wall of arrogance masquerading as  righteousness."
transcripts/S03E06.csv,"no, what you have is a fat contract, and so do the rest of  your cronies. so when it came time for staff raises, there  was no more money left in the till!"
transcripts/S03E06.csv,there would've been raises if you hadn't taken  all the money to pay for those armani suits.
transcripts/S03E06.csv,"well, what about this designer cologne on you?"
transcripts/S03E06.csv,"these lips are mine, you arrogant gasbag!"
transcripts/S03E06.csv,blowhard!
transcripts/S03E06.csv,ass!!!
transcripts/S03E06.csv,get out...!
transcripts/S03E06.csv,!
transcripts/S03E06.csv,frasier.
transcripts/S03E06.csv,me too. have a seat.
transcripts/S03E06.csv,me too.
transcripts/S03E06.csv,yeah. let's.
transcripts/S03E06.csv,manipulation... that is interesting.
transcripts/S03E06.csv,because there's a possibility of manipulation.
transcripts/S03E06.csv,me? i'm talking about you! how dare you think i'd do a  thing like that!
transcripts/S03E06.csv,"oh, very clever! what about you using your masculine wiles to get what you want?"
transcripts/S03E06.csv,"no, i am not going down that road again."
transcripts/S03E06.csv,"""cul-de-sac of vulnerability""? alright, listen. you see me for a couple of hours out of every day, and you think you know me? the me? alright, i can be tough - okay, i've gotta be. i can also be tender... spontaneous... shy... lusty... playful."
transcripts/S03E06.csv,i could climb you like a scratching post.
transcripts/S03E06.csv,"right, you're absolutely right. we've gotta put personal pleasure aside until we get this thing resolved."
transcripts/S03E06.csv,i'll give you three.
transcripts/S03E06.csv,done.
transcripts/S03E07.csv,dr. crane.
transcripts/S03E07.csv,so... good morning.
transcripts/S03E07.csv,how's your knee?
transcripts/S03E07.csv,"a little dented, but fine. the computer."
transcripts/S03E07.csv,tell me she just walked in.
transcripts/S03E07.csv,"listen, i really have to go, but i would like to discuss  this matter at the first possible opportunity."
transcripts/S03E07.csv,"oh, oh, oh, oh, i almost forgot.  i need you two to fill in the eight-to-ten slot tonight.  floyd, the happy chef, is in rehab again."
transcripts/S03E07.csv,got a minute?
transcripts/S03E07.csv,"no-no-no, me first this time."
transcripts/S03E07.csv,i really think that we should slow things  down.
transcripts/S03E07.csv,"oh, how sensitive. and yet, at the same time, how full of yourself."
transcripts/S03E07.csv,"well, all this definitely shows we're doing the right thing."
transcripts/S03E07.csv,yeah.
transcripts/S03E07.csv,"i have no idea! i... ever since i've gotten here, you have  done nothing but irritate me like a persistent skin rash."
transcripts/S03E07.csv,"the whole thing... it's just, it's so primitive!"
transcripts/S03E07.csv,"it's fascinating, really."
transcripts/S03E07.csv,that crossed my mind...
transcripts/S03E07.csv,i felt like a...dirty girl.
transcripts/S03E07.csv,"i said ""dirty girl."""
transcripts/S03E07.csv,you bad boy.
transcripts/S03E07.csv,you bad boy!
transcripts/S03E07.csv,bad boy...!!
transcripts/S03E07.csv,how much time do we have left on the news?
transcripts/S03E07.csv,right...
transcripts/S03E07.csv,"oh good, good!"
transcripts/S03E07.csv,stop talking.
transcripts/S03E07.csv,stop talking!
transcripts/S03E07.csv,"good afternoon, dr crane."
transcripts/S03E07.csv,"bulldog, this is really none of your business."
transcripts/S03E07.csv,"dr. crane, could i have a word  with you in private?"
transcripts/S03E07.csv,actually you don't.
transcripts/S03E07.csv,"i'm suspending you for a week. bulldog, you're going on. roz, you'll have to produce."
transcripts/S03E07.csv,"yes, i can see how you might feel that way. but the station does have certain standards and it is my job to enforce them.  now if you will excuse me, i have to meet with one of last  night's sponsors - the wholesome family cookie company."
transcripts/S03E07.csv,kate costas.
transcripts/S03E07.csv,hello.
transcripts/S03E07.csv,hello.
transcripts/S03E07.csv,i'm sorry if i'm coming at a bad time.
transcripts/S03E07.csv,"so... nice place. whoa, what a  view!"
transcripts/S03E07.csv,"well... i guess that concludes the small-talk portion of our evening. look, it must be obvious; i've come here to  apologise."
transcripts/S03E07.csv,"alright, alright, just tell me what i can do to make this right."
transcripts/S03E07.csv,the owners wanted you fired.
transcripts/S03E07.csv,"look, there's no way we can rewrite the past. it happened,  we did it, it's on tape. but we can do this: we can prevent  it from ever happening again."
transcripts/S03E07.csv,i'll get my bag!
transcripts/S03E07.csv,"oh, right!"
transcripts/S03E07.csv,going down?
transcripts/S03E07.csv,we're two mature adults.
transcripts/S03E07.csv,i don't know. hello?
transcripts/S03E07.csv,hello? hello? can anybody hear me?
transcripts/S03E07.csv,yeah! what's going on?
transcripts/S03E07.csv,"yeah, yeah, we're fine. we're adults. we're mature adults!"
transcripts/S03E07.csv,yeah. it's a bit - it's a bit hot.
transcripts/S03E07.csv,makes no difference to me.
transcripts/S03E07.csv,what's that?
transcripts/S03E07.csv,"i'm not really in the mood for music. could you stop that, please?"
transcripts/S03E07.csv,"god, it's hot in here!"
transcripts/S03E07.csv,what's that smell?
transcripts/S03E07.csv,i really think that it would be a very good thing if you  just did something about that musk oil...
transcripts/S03E07.csv,who lives in this building?!
transcripts/S03E07.csv,"no no no no no, not gonna touch this thing again. look at me, i'm all dirty."
transcripts/S03E07.csv,"ooh, stop - stop - stop!"
transcripts/S03E07.csv,"i am, too! god!"
transcripts/S03E07.csv,"of course, the cable could break."
transcripts/S03E07.csv,you are so right!
transcripts/S03E07.csv,"goodnight, dr crane."
transcripts/S03E10.csv,that was very smooth.
transcripts/S03E10.csv,"look frasier, i've been getting a lot of complaints from  sponsors saying that their ads are getting buried in huge  commercial blocks."
transcripts/S03E10.csv,so instead of having four blocks per hour we're going to have  eight...
transcripts/S03E10.csv,"...only they're only going to be half as long. i thought it  might help you. and you want to stay on top, don't you,  frasier? ...frasier?"
transcripts/S03E10.csv,good.
transcripts/S03E10.csv,i'm just going down to the billing department.
transcripts/S03E10.csv,"oh, yes! yes. yeah. you did. you did.  you hit the right button. i'm sorry — i've got a lot on my  mind."
transcripts/S03E10.csv,"frasier, i'm leaving kacl. i'm moving to chicago."
transcripts/S03E10.csv,"yeah. i'm taking over a station there. in fact i'm going out  on the ""redeye"" tonight. i thought, given our history,  i should tell you first."
transcripts/S03E10.csv,wouldn't you know it — on the day i'm leaving?
transcripts/S03E10.csv,"thanks. boy, this was not an easy decision believe me.  you never know if you're leaving a place too soon."
transcripts/S03E10.csv,i know. i guess this is goodbye.
transcripts/S03E10.csv,frasier!
transcripts/S03E10.csv,ok; now you listen to me. i was so touched by what you just  said at my apartment. you said everything that i've wanted  to say to you for the last two months. tony's just a guy  that i went out with a couple of times. he just came over to  say goodbye to me before i went to the airport. when you saw  him you just looked so hurt...
transcripts/S03E10.csv,...but apparently you rebounded! i'm sorry. i thought you  were sincere. hold the  elevator!
transcripts/S03E10.csv,frasier!
transcripts/S03E10.csv,i know. i overreacted. i've been standing here for a half  an hour hoping you'd come. i never thought you'd come.
transcripts/S03E10.csv,"listen, it's not your fault. i could have said something."
transcripts/S03E10.csv,i can't. i can't. i have a board meeting in the morning.
transcripts/S03E10.csv,"i'm staying at the drake. but, you know what? i'll call  you. i'll call you the minute i get in."
transcripts/S03E10.csv,goodbye
transcripts/S03E10.csv,i'll miss you.
transcripts/S03E10.csv,i missed you!
transcripts/S03E10.csv,it's just like fate — like somebody's willing us to get  together.
transcripts/S03E10.csv,me too. why don't you come with me tonight?
transcripts/S03E10.csv,"oh, yeah. oh, great. you know what, you can meet my twin  sister. she lives in chicago."
transcripts/S03E10.csv,yes.
transcripts/S03E10.csv,"well, ask me. ask me anything."
transcripts/S03E10.csv,blue. what's yours?
transcripts/S03E10.csv,where's your favorite city?
transcripts/S03E10.csv,the prada! musical?
transcripts/S03E10.csv,""
transcripts/S03E10.csv,well i love cats. i have a cat. would you like to meet  louie?
transcripts/S03E10.csv,"oh, really? oh, no. all right, we'll work around that. you  know, what we can do when you come out? we can go jogging  around the lake. oh frasier, the lake is so beautiful. do  you ever jog?"
transcripts/S03E10.csv,"oh, all right. we can do something that you like. what do  you like? what do you like?"
transcripts/S03E10.csv,"you know what? i'm not one of those people for whom  ""antique"" is a verb."
transcripts/S03E10.csv,vive la difference!
transcripts/S03E10.csv,"louie's getting to you, isn't he?"
transcripts/S03E10.csv,"well, you know, if this is really gonna be a problem there's  a shot."
transcripts/S03E10.csv,"i'm sorry. i'm sorry, frasier. i'm just afraid that if i  move louie any further away they're gonna think he's a bomb!"
transcripts/S03E10.csv,oh yeah. i think that's one of the main things that motivates  me to work so hard. i've always had this dream to get a ranch  in montana — you know? to ski in the morning and ride horses  in the afternoon? i just always wanted to raise horses.
transcripts/S03E10.csv,you still want more children then?
transcripts/S03E10.csv,"oh yeah. i love kids. i don't see myself mothering one,  though."
transcripts/S03E10.csv,"you know, just to be on the safe side  let me just check to see if there's another flight?"
transcripts/S03E10.csv,excuse me — is there another flight to chicago tonight?
transcripts/S03E10.csv,atlanta's good. that's a hub.
transcripts/S03E10.csv,oh damn. i'll never get there.
transcripts/S03E10.csv,isn't it?
transcripts/S03E01.csv,"listen, tell the movers i want the couch directly in front of  the bookcase. uh-huh. oh, have a  seat."
transcripts/S03E01.csv,"uh-huh. yeah, yes. no, not there! in front of  the bookcase!"
transcripts/S03E01.csv,"yes, tell her i got somebody here! could we move the  furniture later?"
transcripts/S03E01.csv,could we do that? dr. frasier crane! kate costas.
transcripts/S03E01.csv,likewise. i've been listening to the tapes of all your shows.  i love what you're doing.
transcripts/S03E01.csv,"wow. you really talk that way. anyway, your ratings are  very good. but i still think we can do better. any ideas?"
transcripts/S03E01.csv,"it's too highbrow. i mean, i love classical music, but to  most people it's a big snore. oh, incidentally, bartok's  concerto is in c."
transcripts/S03E01.csv,"positive. i put myself through college working at a classical  station. let's talk about advertising. you've got a great  face. i want to see it on t-shirts, i want to see it on park  benches, i even want to see it on frisbees. everybody in  seattle should be popping it, wearing it, sitting on it!"
transcripts/S03E01.csv,"it's in c. it was commissioned by serge kosivinsky in 1943  for the boston symphony orchestra, and since then it's been  recorded over thirty times—each time, in c."
transcripts/S03E01.csv,"also, i think you should start doing theme shows. devote a  whole show to people having extramarital affairs, or devote  a whole show to people with aberrant sexual practices.  could you give me a hand with that box over there?"
transcripts/S03E01.csv,why is that?
transcripts/S03E01.csv,but you don't mind the frisbees.
transcripts/S03E01.csv,"aren't you sweet to notice. finally, i would like you to  start giving priority to the juicier calls."
transcripts/S03E01.csv,and that is called a peabody award!
transcripts/S03E01.csv,i really know what i'm doing here. the psychiatrists at my  last station went national.
transcripts/S03E01.csv,"well, i'm the boss, doc. so, pucker up!"
transcripts/S03E01.csv,good morning.
transcripts/S03E01.csv,enjoying your new time slot?
transcripts/S03E01.csv,"well, i hope you explained to her that it's not important  that people like her, as long as they respect her."
transcripts/S03E01.csv,"oh, yes, yes, but some people — and this is so  unfortunate — can't tell the difference between self-respect  and pig-headedness."
transcripts/S03E01.csv,isn't it sad when bad things happen to good sentences?
transcripts/S03E01.csv,"well, i really do have work to do. i've got to find somebody for your old time slot — now that it's free."
transcripts/S03E01.csv,explain.
transcripts/S03E01.csv,"you know full well this is not what i wanted! you did this  to vex me. and you succeeded. and it was not shaw, it was  oscar wilde. did you ever open a book at harvard?"
transcripts/S03E01.csv,"all i wanted, all i wanted was a lousy little theme show  once or twice a week!"
transcripts/S03E01.csv,"no, not a leering look! just a good look. at the pain of  infidelity, at what it does to families, at what it does to  children, at what it does to the fabric of society, and this  is just off the top of my head. but, no! you are such an  arrogant gasbag, so used to being cock-of-the-walk around here  that you can't stand still for one minute and listen to  a perfectly valid suggestion from somebody else!"
transcripts/S03E01.csv,"yes, i could do that, yeah. but i'm not  going to."
transcripts/S03E01.csv,"oh, yeah. but, unlike you, i put what's good for the station  above my personal feelings."
transcripts/S03E01.csv,"guess again, captain midnight! if i give you back your old  time slot without your making a single concession to me,  that would completely undermine my authority. being a crack  shrink, surely that's within your grasp."
transcripts/S03E01.csv,"grasp this: you do, and i'll  sue you for breach of contract!"
transcripts/S03E01.csv,"yes, one of us better."
transcripts/S03E01.csv,damn!
transcripts/S03E01.csv,"you do, and i'll make you start that show with classical  music! bartok's concerto in c, i don't care how much you  hate it!"
transcripts/S03E01.csv,"it's my way, or no way."
transcripts/S03E01.csv,what do you two want?
transcripts/S03E04.csv,"oh, hello, dr. crane."
transcripts/S03E04.csv,how do you do?
transcripts/S03E04.csv,you'll love it. i saw it in kyoto. it's just such a shame  they're not letting the really rare pieces out of the  country.
transcripts/S03E04.csv,watch your mouth!
transcripts/S03E04.csv,i'm in kind of a hurry.
transcripts/S03E04.csv,"i seriously doubt that, but go ahead."
transcripts/S03E04.csv,i heard.
transcripts/S03E04.csv,shameless!
transcripts/S03E04.csv,i'm talking about the way you manage to get harvard into  every conversation.
transcripts/S03E04.csv,"gee, you sure know how to ask for help!"
transcripts/S03E04.csv,"i know, i'll take care of it."
transcripts/S03E04.csv,"you went to harvard, i know, i know."
transcripts/S03E04.csv,"stop busting frasier's chops, enough said?"
transcripts/S03E04.csv,are all these callers waiting to  tell bulldog how much they liked the joke he played on  frasier?
transcripts/S03E04.csv,because of what he did to frasier?
transcripts/S03E04.csv,"if you think i'm going to allow you to publicly mock one  of our most respected hosts on air just for the sake of  higher ratings, you and i are going to get along just fine!"
transcripts/S03E04.csv,"i need a copy of our contract with  nanette stewart. what's yum-yum doing  here? it's all right, i can guess."
transcripts/S03E04.csv,"yeah, but she's been floating at the top of the bowl for the  last two. when i went in to talk to bulldog, the phones  were lit up like times square; his fans love it when he zaps  you."
transcripts/S03E04.csv,"no, i would have you fight back. he makes pot shots at you,  you come back at him in your droll, ivy league, ""look at me,  i've got a thesaurus"" kind of way! it'll be funny!"
transcripts/S03E04.csv,afraid of the competition?
transcripts/S03E04.csv,"you just announced to a half a million listeners that you are  ""filled to the brim with girlish glee."" i think the h.m.s  pinafore of embarrassment has sailed! now, if you'll excuse  me, i have to fire someone."
transcripts/S03E04.csv,"oh, god, she brought spanky!"
transcripts/S03E04.csv,do you know what your problem is? you have no sense of  humour.
transcripts/S03E04.csv,"well, then, lighten up."
transcripts/S03E04.csv,"hello, bulldog. hi, darlene. wow, look at  that mighty drum!"
transcripts/S03E04.csv,okay. and the lucky winner is... yeow!
transcripts/S03E04.csv,something bit me!
transcripts/S03E04.csv,"there it goes, there it goes, there it goes!"
transcripts/S03E04.csv,"stop that lizard, it has my finger!"
transcripts/S03E04.csv,"i don't know when i'll be back in the office,  susan, just cancel all my appointments. is there any word  on who pulled this stupid stunt? i don't want excuses, i  want names! will you hurry up that shot, i'm in  agony here."
transcripts/S03E04.csv,what kind of raving psychotic would do a thing like this?
transcripts/S03E04.csv,i'm gonna find him and i'm gonna crush him!
transcripts/S03E04.csv,"oh, let me guess, someone park in your space?"
transcripts/S03E04.csv,who?
transcripts/S03E04.csv,what?
transcripts/S03E04.csv,"oh, it was kinda funny."
transcripts/S03E04.csv,what?
transcripts/S03E04.csv,"oh, i was just remembering..."
transcripts/S03E04.csv,""
transcripts/S03E04.csv,"wouldn't you know, it bites my middle finger. how am i  supposed to drive?"
transcripts/S03E04.csv,"now you know, life is so funny. one minute, you're standing  in a hallway, the next minute you're a poo-poo platter for  a lizard. that's a funny word, isn't it? hallway!"
transcripts/S03E04.csv,"and bulldog, bulldog's... oh, see, now,  you're starting to get tired, i should go."
transcripts/S03E04.csv,o-kay!
transcripts/S03E04.csv,o-kay.
transcripts/S03E04.csv,you what?
transcripts/S03E06.csv,yeah.
transcripts/S03E06.csv,is there a problem? nope? good.
transcripts/S03E06.csv,doc...?
transcripts/S03E06.csv,"no, i'm sorry, i can't talk right now, i've got a meeting."
transcripts/S03E06.csv,"dr crane... i wrote the memo, i signed the memo, i posted  the memo. if i had anything more to say, i would have put  it... anybody?"
transcripts/S03E06.csv,bravo.
transcripts/S03E06.csv,wow. what have we here?
transcripts/S03E06.csv,"alright, but aren't you people still on the clock?"
transcripts/S03E06.csv,"well hi-ho the dairy-o, the cheese stands alone."
transcripts/S03E06.csv,"yeah, right. will you get in here?"
transcripts/S03E06.csv,"i'm kinda surprised to see you here. this really isn't your fight, is it?"
transcripts/S03E06.csv,oh. that's a shame. i was kinda looking forward to seeing shempsky faint.
transcripts/S03E06.csv,"oooh, is that a new tie?  it just lights up your pretty face."
transcripts/S03E06.csv,i have an idea about the source of our antagonism.
transcripts/S03E06.csv,"i'm a woman, i'm as smart as you, and i'm your boss."
transcripts/S03E06.csv,"doc... i don't want to analyse your hang-ups. i already got  a full-time job. let's just get down to business, okay?"
transcripts/S03E06.csv,or?
transcripts/S03E06.csv,you have.
transcripts/S03E06.csv,why are you gunning for me?
transcripts/S03E06.csv,"no, no; this is about your ego, which is the size of seattle!  every suggestion, every decision i've made has been met by  this impenetrable wall of arrogance masquerading as  righteousness."
transcripts/S03E06.csv,"no, what you have is a fat contract, and so do the rest of  your cronies. so when it came time for staff raises, there  was no more money left in the till!"
transcripts/S03E06.csv,there would've been raises if you hadn't taken  all the money to pay for those armani suits.
transcripts/S03E06.csv,"well, what about this designer cologne on you?"
transcripts/S03E06.csv,"these lips are mine, you arrogant gasbag!"
transcripts/S03E06.csv,blowhard!
transcripts/S03E06.csv,ass!!!
transcripts/S03E06.csv,get out...!
transcripts/S03E06.csv,!
transcripts/S03E06.csv,frasier.
transcripts/S03E06.csv,me too. have a seat.
transcripts/S03E06.csv,me too.
transcripts/S03E06.csv,yeah. let's.
transcripts/S03E06.csv,manipulation... that is interesting.
transcripts/S03E06.csv,because there's a possibility of manipulation.
transcripts/S03E06.csv,me? i'm talking about you! how dare you think i'd do a  thing like that!
transcripts/S03E06.csv,"oh, very clever! what about you using your masculine wiles to get what you want?"
transcripts/S03E06.csv,"no, i am not going down that road again."
transcripts/S03E06.csv,"""cul-de-sac of vulnerability""? alright, listen. you see me for a couple of hours out of every day, and you think you know me? the me? alright, i can be tough - okay, i've gotta be. i can also be tender... spontaneous... shy... lusty... playful."
transcripts/S03E06.csv,i could climb you like a scratching post.
transcripts/S03E06.csv,"right, you're absolutely right. we've gotta put personal pleasure aside until we get this thing resolved."
transcripts/S03E06.csv,i'll give you three.
transcripts/S03E06.csv,done.
transcripts/S03E07.csv,dr. crane.
transcripts/S03E07.csv,so... good morning.
transcripts/S03E07.csv,how's your knee?
transcripts/S03E07.csv,"a little dented, but fine. the computer."
transcripts/S03E07.csv,tell me she just walked in.
transcripts/S03E07.csv,"listen, i really have to go, but i would like to discuss  this matter at the first possible opportunity."
transcripts/S03E07.csv,"oh, oh, oh, oh, i almost forgot.  i need you two to fill in the eight-to-ten slot tonight.  floyd, the happy chef, is in rehab again."
transcripts/S03E07.csv,got a minute?
transcripts/S03E07.csv,"no-no-no, me first this time."
transcripts/S03E07.csv,i really think that we should slow things  down.
transcripts/S03E07.csv,"oh, how sensitive. and yet, at the same time, how full of yourself."
transcripts/S03E07.csv,"well, all this definitely shows we're doing the right thing."
transcripts/S03E07.csv,yeah.
transcripts/S03E07.csv,"i have no idea! i... ever since i've gotten here, you have  done nothing but irritate me like a persistent skin rash."
transcripts/S03E07.csv,"the whole thing... it's just, it's so primitive!"
transcripts/S03E07.csv,"it's fascinating, really."
transcripts/S03E07.csv,that crossed my mind...
transcripts/S03E07.csv,i felt like a...dirty girl.
transcripts/S03E07.csv,"i said ""dirty girl."""
transcripts/S03E07.csv,you bad boy.
transcripts/S03E07.csv,you bad boy!
transcripts/S03E07.csv,bad boy...!!
transcripts/S03E07.csv,how much time do we have left on the news?
transcripts/S03E07.csv,right...
transcripts/S03E07.csv,"oh good, good!"
transcripts/S03E07.csv,stop talking.
transcripts/S03E07.csv,stop talking!
transcripts/S03E07.csv,"good afternoon, dr crane."
transcripts/S03E07.csv,"bulldog, this is really none of your business."
transcripts/S03E07.csv,"dr. crane, could i have a word  with you in private?"
transcripts/S03E07.csv,actually you don't.
transcripts/S03E07.csv,"i'm suspending you for a week. bulldog, you're going on. roz, you'll have to produce."
transcripts/S03E07.csv,"yes, i can see how you might feel that way. but the station does have certain standards and it is my job to enforce them.  now if you will excuse me, i have to meet with one of last  night's sponsors - the wholesome family cookie company."
transcripts/S03E07.csv,kate costas.
transcripts/S03E07.csv,hello.
transcripts/S03E07.csv,hello.
transcripts/S03E07.csv,i'm sorry if i'm coming at a bad time.
transcripts/S03E07.csv,"so... nice place. whoa, what a  view!"
transcripts/S03E07.csv,"well... i guess that concludes the small-talk portion of our evening. look, it must be obvious; i've come here to  apologise."
transcripts/S03E07.csv,"alright, alright, just tell me what i can do to make this right."
transcripts/S03E07.csv,the owners wanted you fired.
transcripts/S03E07.csv,"look, there's no way we can rewrite the past. it happened,  we did it, it's on tape. but we can do this: we can prevent  it from ever happening again."
transcripts/S03E07.csv,i'll get my bag!
transcripts/S03E07.csv,"oh, right!"
transcripts/S03E07.csv,going down?
transcripts/S03E07.csv,we're two mature adults.
transcripts/S03E07.csv,i don't know. hello?
transcripts/S03E07.csv,hello? hello? can anybody hear me?
transcripts/S03E07.csv,yeah! what's going on?
transcripts/S03E07.csv,"yeah, yeah, we're fine. we're adults. we're mature adults!"
transcripts/S03E07.csv,yeah. it's a bit - it's a bit hot.
transcripts/S03E07.csv,makes no difference to me.
transcripts/S03E07.csv,what's that?
transcripts/S03E07.csv,"i'm not really in the mood for music. could you stop that, please?"
transcripts/S03E07.csv,"god, it's hot in here!"
transcripts/S03E07.csv,what's that smell?
transcripts/S03E07.csv,i really think that it would be a very good thing if you  just did something about that musk oil...
transcripts/S03E07.csv,who lives in this building?!
transcripts/S03E07.csv,"no no no no no, not gonna touch this thing again. look at me, i'm all dirty."
transcripts/S03E07.csv,"ooh, stop - stop - stop!"
transcripts/S03E07.csv,"i am, too! god!"
transcripts/S03E07.csv,"of course, the cable could break."
transcripts/S03E07.csv,you are so right!
transcripts/S03E07.csv,"goodnight, dr crane."
transcripts/S03E10.csv,that was very smooth.
transcripts/S03E10.csv,"look frasier, i've been getting a lot of complaints from  sponsors saying that their ads are getting buried in huge  commercial blocks."
transcripts/S03E10.csv,so instead of having four blocks per hour we're going to have  eight...
transcripts/S03E10.csv,"...only they're only going to be half as long. i thought it  might help you. and you want to stay on top, don't you,  frasier? ...frasier?"
transcripts/S03E10.csv,good.
transcripts/S03E10.csv,i'm just going down to the billing department.
transcripts/S03E10.csv,"oh, yes! yes. yeah. you did. you did.  you hit the right button. i'm sorry — i've got a lot on my  mind."
transcripts/S03E10.csv,"frasier, i'm leaving kacl. i'm moving to chicago."
transcripts/S03E10.csv,"yeah. i'm taking over a station there. in fact i'm going out  on the ""redeye"" tonight. i thought, given our history,  i should tell you first."
transcripts/S03E10.csv,wouldn't you know it — on the day i'm leaving?
transcripts/S03E10.csv,"thanks. boy, this was not an easy decision believe me.  you never know if you're leaving a place too soon."
transcripts/S03E10.csv,i know. i guess this is goodbye.
transcripts/S03E10.csv,frasier!
transcripts/S03E10.csv,ok; now you listen to me. i was so touched by what you just  said at my apartment. you said everything that i've wanted  to say to you for the last two months. tony's just a guy  that i went out with a couple of times. he just came over to  say goodbye to me before i went to the airport. when you saw  him you just looked so hurt...
transcripts/S03E10.csv,...but apparently you rebounded! i'm sorry. i thought you  were sincere. hold the  elevator!
transcripts/S03E10.csv,frasier!
transcripts/S03E10.csv,i know. i overreacted. i've been standing here for a half  an hour hoping you'd come. i never thought you'd come.
transcripts/S03E10.csv,"listen, it's not your fault. i could have said something."
transcripts/S03E10.csv,i can't. i can't. i have a board meeting in the morning.
transcripts/S03E10.csv,"i'm staying at the drake. but, you know what? i'll call  you. i'll call you the minute i get in."
transcripts/S03E10.csv,goodbye
transcripts/S03E10.csv,i'll miss you.
transcripts/S03E10.csv,i missed you!
transcripts/S03E10.csv,it's just like fate — like somebody's willing us to get  together.
transcripts/S03E10.csv,me too. why don't you come with me tonight?
transcripts/S03E10.csv,"oh, yeah. oh, great. you know what, you can meet my twin  sister. she lives in chicago."
transcripts/S03E10.csv,yes.
transcripts/S03E10.csv,"well, ask me. ask me anything."
transcripts/S03E10.csv,blue. what's yours?
transcripts/S03E10.csv,where's your favorite city?
transcripts/S03E10.csv,the prada! musical?
transcripts/S03E10.csv,""
transcripts/S03E10.csv,well i love cats. i have a cat. would you like to meet  louie?
transcripts/S03E10.csv,"oh, really? oh, no. all right, we'll work around that. you  know, what we can do when you come out? we can go jogging  around the lake. oh frasier, the lake is so beautiful. do  you ever jog?"
transcripts/S03E10.csv,"oh, all right. we can do something that you like. what do  you like? what do you like?"
transcripts/S03E10.csv,"you know what? i'm not one of those people for whom  ""antique"" is a verb."
transcripts/S03E10.csv,vive la difference!
transcripts/S03E10.csv,"louie's getting to you, isn't he?"
transcripts/S03E10.csv,"well, you know, if this is really gonna be a problem there's  a shot."
transcripts/S03E10.csv,"i'm sorry. i'm sorry, frasier. i'm just afraid that if i  move louie any further away they're gonna think he's a bomb!"
transcripts/S03E10.csv,oh yeah. i think that's one of the main things that motivates  me to work so hard. i've always had this dream to get a ranch  in montana — you know? to ski in the morning and ride horses  in the afternoon? i just always wanted to raise horses.
transcripts/S03E10.csv,you still want more children then?
transcripts/S03E10.csv,"oh yeah. i love kids. i don't see myself mothering one,  though."
transcripts/S03E10.csv,"you know, just to be on the safe side  let me just check to see if there's another flight?"
transcripts/S03E10.csv,excuse me — is there another flight to chicago tonight?
transcripts/S03E10.csv,atlanta's good. that's a hub.
transcripts/S03E10.csv,oh damn. i'll never get there.
transcripts/S03E10.csv,isn't it?
