transcripts/S11E19.csv,"excuse me, another cosmo, please."
transcripts/S11E19.csv,mind? why do you think i said it so loud?
transcripts/S11E19.csv,"kim. so, you're a doctor?"
transcripts/S11E19.csv,do you do collagen? because i could barter frequent flyer  miles.
transcripts/S11E19.csv,"oh, you've probably got me figured out already."
transcripts/S11E19.csv,"oh, my god!"
transcripts/S11E19.csv,"no, no, i had a fortune cookie this morning that said i was going to meet a doctor. i was afraid i was sick."
transcripts/S11E19.csv,"oh, my god!"
transcripts/S11E19.csv,"no, no. i love this song. come on, dr. frasier, loosen up. i'm sorry, what's your first name again?"
transcripts/S11E19.csv,"the first few months i was a wreck. we were engaged.  at least, i was. but now, i know i'm ready to move on. really, really ready."
transcripts/S11E19.csv,"and you thought she was the one, right?"
transcripts/S11E19.csv,"well, that's not the nicest thing anybody's ever called me in a bar, but it's not the worst. this is fun. but, i'm kinda thinkin' that i'd like to go someplace a little less... crowded."
transcripts/S11E19.csv,"no, i meant someplace... a little more private."
transcripts/S11E19.csv,your place.
transcripts/S11E19.csv,"i don't care how we get there, let's just get there!"
transcripts/S11E19.csv,"sorry, i turned the wrong way coming out of the elevator."
transcripts/S11E19.csv,"oh, hello."
transcripts/S11E19.csv,charmed.
transcripts/S11E19.csv,did somebody here have a chimichanga?
transcripts/S11E19.csv,wow. nice place. you really are a doctor.
transcripts/S11E19.csv,i don't know. what do you want to show me?
transcripts/S11E19.csv,what would you like me to see?
transcripts/S11E19.csv,and what did i come here to see?
transcripts/S11E19.csv,let's just have some fun
transcripts/S11E19.csv,sounds great.
transcripts/S11E19.csv,we both had a rough time lately. how 'bout we go a little crazy tonight?
transcripts/S11E19.csv,i've got a little outfit you might like.
transcripts/S11E19.csv,i love it when i say something and then you say something  funny.
transcripts/S11E19.csv,okay.
transcripts/S11E19.csv,"when i met you tonight, i had no idea what a bad boy you were."
transcripts/S11E19.csv,"a spanking, right?"
transcripts/S11E19.csv,"hah, you did it again!"
transcripts/S11E19.csv,kim.
transcripts/S11E19.csv,good. now why don't you just relax and i'll go find some ice for our wines.
transcripts/S11E19.csv,"frasier, i... hello."
transcripts/S11E19.csv,"boy, i've met more people in this apartment than i did at the bar."
transcripts/S11E19.csv,"she's the one, isn't she?"
transcripts/S11E19.csv,me too. maybe it's just as well. i'm lactose intolerant.
transcripts/S11E19.csv,good luck.
transcripts/S11E19.csv,"excuse me, another cosmo, please."
transcripts/S11E19.csv,mind? why do you think i said it so loud?
transcripts/S11E19.csv,"kim. so, you're a doctor?"
transcripts/S11E19.csv,do you do collagen? because i could barter frequent flyer  miles.
transcripts/S11E19.csv,"oh, you've probably got me figured out already."
transcripts/S11E19.csv,"oh, my god!"
transcripts/S11E19.csv,"no, no, i had a fortune cookie this morning that said i was going to meet a doctor. i was afraid i was sick."
transcripts/S11E19.csv,"oh, my god!"
transcripts/S11E19.csv,"no, no. i love this song. come on, dr. frasier, loosen up. i'm sorry, what's your first name again?"
transcripts/S11E19.csv,"the first few months i was a wreck. we were engaged.  at least, i was. but now, i know i'm ready to move on. really, really ready."
transcripts/S11E19.csv,"and you thought she was the one, right?"
transcripts/S11E19.csv,"well, that's not the nicest thing anybody's ever called me in a bar, but it's not the worst. this is fun. but, i'm kinda thinkin' that i'd like to go someplace a little less... crowded."
transcripts/S11E19.csv,"no, i meant someplace... a little more private."
transcripts/S11E19.csv,your place.
transcripts/S11E19.csv,"i don't care how we get there, let's just get there!"
transcripts/S11E19.csv,"sorry, i turned the wrong way coming out of the elevator."
transcripts/S11E19.csv,"oh, hello."
transcripts/S11E19.csv,charmed.
transcripts/S11E19.csv,did somebody here have a chimichanga?
transcripts/S11E19.csv,wow. nice place. you really are a doctor.
transcripts/S11E19.csv,i don't know. what do you want to show me?
transcripts/S11E19.csv,what would you like me to see?
transcripts/S11E19.csv,and what did i come here to see?
transcripts/S11E19.csv,let's just have some fun
transcripts/S11E19.csv,sounds great.
transcripts/S11E19.csv,we both had a rough time lately. how 'bout we go a little crazy tonight?
transcripts/S11E19.csv,i've got a little outfit you might like.
transcripts/S11E19.csv,i love it when i say something and then you say something  funny.
transcripts/S11E19.csv,okay.
transcripts/S11E19.csv,"when i met you tonight, i had no idea what a bad boy you were."
transcripts/S11E19.csv,"a spanking, right?"
transcripts/S11E19.csv,"hah, you did it again!"
transcripts/S11E19.csv,kim.
transcripts/S11E19.csv,good. now why don't you just relax and i'll go find some ice for our wines.
transcripts/S11E19.csv,"frasier, i... hello."
transcripts/S11E19.csv,"boy, i've met more people in this apartment than i did at the bar."
transcripts/S11E19.csv,"she's the one, isn't she?"
transcripts/S11E19.csv,me too. maybe it's just as well. i'm lactose intolerant.
transcripts/S11E19.csv,good luck.
transcripts/S11E19.csv,"excuse me, another cosmo, please."
transcripts/S11E19.csv,mind? why do you think i said it so loud?
transcripts/S11E19.csv,"kim. so, you're a doctor?"
transcripts/S11E19.csv,do you do collagen? because i could barter frequent flyer  miles.
transcripts/S11E19.csv,"oh, you've probably got me figured out already."
transcripts/S11E19.csv,"oh, my god!"
transcripts/S11E19.csv,"no, no, i had a fortune cookie this morning that said i was going to meet a doctor. i was afraid i was sick."
transcripts/S11E19.csv,"oh, my god!"
transcripts/S11E19.csv,"no, no. i love this song. come on, dr. frasier, loosen up. i'm sorry, what's your first name again?"
transcripts/S11E19.csv,"the first few months i was a wreck. we were engaged.  at least, i was. but now, i know i'm ready to move on. really, really ready."
transcripts/S11E19.csv,"and you thought she was the one, right?"
transcripts/S11E19.csv,"well, that's not the nicest thing anybody's ever called me in a bar, but it's not the worst. this is fun. but, i'm kinda thinkin' that i'd like to go someplace a little less... crowded."
transcripts/S11E19.csv,"no, i meant someplace... a little more private."
transcripts/S11E19.csv,your place.
transcripts/S11E19.csv,"i don't care how we get there, let's just get there!"
transcripts/S11E19.csv,"sorry, i turned the wrong way coming out of the elevator."
transcripts/S11E19.csv,"oh, hello."
transcripts/S11E19.csv,charmed.
transcripts/S11E19.csv,did somebody here have a chimichanga?
transcripts/S11E19.csv,wow. nice place. you really are a doctor.
transcripts/S11E19.csv,i don't know. what do you want to show me?
transcripts/S11E19.csv,what would you like me to see?
transcripts/S11E19.csv,and what did i come here to see?
transcripts/S11E19.csv,let's just have some fun
transcripts/S11E19.csv,sounds great.
transcripts/S11E19.csv,we both had a rough time lately. how 'bout we go a little crazy tonight?
transcripts/S11E19.csv,i've got a little outfit you might like.
transcripts/S11E19.csv,i love it when i say something and then you say something  funny.
transcripts/S11E19.csv,okay.
transcripts/S11E19.csv,"when i met you tonight, i had no idea what a bad boy you were."
transcripts/S11E19.csv,"a spanking, right?"
transcripts/S11E19.csv,"hah, you did it again!"
transcripts/S11E19.csv,kim.
transcripts/S11E19.csv,good. now why don't you just relax and i'll go find some ice for our wines.
transcripts/S11E19.csv,"frasier, i... hello."
transcripts/S11E19.csv,"boy, i've met more people in this apartment than i did at the bar."
transcripts/S11E19.csv,"she's the one, isn't she?"
transcripts/S11E19.csv,me too. maybe it's just as well. i'm lactose intolerant.
transcripts/S11E19.csv,good luck.
