transcripts/S05E03.csv,"dr. crane, it's me, dr. krovitz."
transcripts/S05E03.csv,i don't know her.
transcripts/S05E03.csv,"dr. crane, it's me, dr. krovitz."
transcripts/S05E03.csv,i don't know her.
transcripts/S05E03.csv,"dr. crane, it's me, dr. krovitz."
transcripts/S05E03.csv,i don't know her.
