transcripts/S01E22.csv,"i'll never forget it, dr. crane, i cried for two hours straight."
transcripts/S01E22.csv,"yes, the perm destroyed my hair. i was sure my sisters were going to laugh at me. but, they all kissed me and then they marched into the bathroom and shaved their heads too, just so i wouldn't feel like a freak."
transcripts/S04E13.csv,"oh, please do!"
transcripts/S04E13.csv,"i'm laura, and this is beth."
transcripts/S04E13.csv,"it's just boring - to guys, anyway."
transcripts/S04E13.csv,we design kitchens.
transcripts/S04E13.csv,whoa! whose little boy are you?
transcripts/S04E13.csv,"oh, no, no, don't! stay."
transcripts/S04E13.csv,"oh, frasier, what a great apartment."
transcripts/S04E13.csv,"""the man who came to dinner."" it's about a bad-tempered  invalid that moves into these people's house and just drives  them crazy."
transcripts/S04E13.csv,"i think your taste is fabulous. i'm  referring to the brandy, of course."
transcripts/S04E13.csv,"you know, frasier, i'd hate to see you miss a weekend in the  country just to take me to the symphony, we can go next  week."
transcripts/S04E13.csv,i'd love that.
transcripts/S04E13.csv,i am kind of curious to take a peek.
transcripts/S04E13.csv,"great kitchen, frasier! you guys feel like firing up the  cappuccino maker?"
transcripts/S04E13.csv,"oh, this place is perfect."
transcripts/S04E13.csv,me too.
transcripts/S04E13.csv,i guess we'll just have to make our own entertainment!
transcripts/S04E13.csv,"oh, frasier, this place is heaven."
transcripts/S04E13.csv,"er, by the way, beth and i were talking, and i don't know what  you guys have in mind for tonight and sorry if this sounds  kind of forward, but we would like to avoid an awkward,  uncomfortable situation by getting this out in the open right  now."
transcripts/S04E13.csv,"when we go out to dinner tonight, it's on us."
transcripts/S04E13.csv,is there anything more relaxing than just lazing by the fire  with a good glass of wine?
transcripts/S04E13.csv,"yeah, we didn't think we'd need too many clothes this weekend!"
transcripts/S04E13.csv,"well, i hate to break things up but i'm getting a little  sleepy, so i'm going to get ready for bed."
transcripts/S04E13.csv,what's going on?
transcripts/S04E13.csv,frasier!
transcripts/S04E13.csv,think again!
transcripts/S04E24.csv,"hi, molly. laura again."
transcripts/S04E24.csv,"is that tom on the machine? he sounds nice. anyway,  i just called to remind you i'll have my cello with me.  translation: you might want to clean out your car this time  to make room. i know, . anyway, i  can't wait to see you guys. i've been on my own way too  much lately. see you at 10:30, flight 11. love you.  goodbye."
transcripts/S04E24.csv,"hi, molly. laura again. is that tom on the machine?  he sounds nice. anyw-"
transcripts/S04E24.csv,thanks for all your help. i can take it from here.
transcripts/S04E24.csv,"yes, i am. molly sent a driver?"
transcripts/S04E24.csv,molly's having me committed?
transcripts/S04E24.csv,"oh, from the radio!"
transcripts/S04E24.csv,"yes, i've heard your show, it's great! but your knowing me  is just - weird."
transcripts/S04E24.csv,"oh, no. i must've gotten my sister's new number wrong."
transcripts/S04E24.csv,"so you came all the way down here? what're you, like the  nicest guy in the world?"
transcripts/S04E24.csv,"oh, no, no, no, i'll take a cab."
transcripts/S04E24.csv,"well, she lives an hour away. but, uh, listen, could i buy  you a drink just to say thank you?"
transcripts/S04E24.csv,"aaahhhh... i checked my cello, this is my purse."
transcripts/S04E24.csv,i think that's funny. why doesn't anybody  laugh at that?
transcripts/S04E24.csv,"with a chamber music group, actually. we're based in la, but  we travel quite a bit. i grew up here, so it's always  nice to come back. i miss it."
transcripts/S04E24.csv,um... i think i'll have a glass of sherry.
transcripts/S04E24.csv,"not that you can expect that much from airport bar sherry. oh, goodness. don't i sound like the perfect  snob?"
transcripts/S04E24.csv,"when i was around eleven, my father took me to the symphony.  and this sounds a little silly, but when i heard the cello,  it sounded sad, like it needed me."
transcripts/S04E24.csv,i was always an odd kid. all my girlfriends had posters of  david cassidy. i had pablo cassall.
transcripts/S04E24.csv,but did you kiss him every night before you went to bed?
transcripts/S04E24.csv,i don't think i've ever shared a drink with a psychiatrist.  i'm worried that you must be analyzing me.
transcripts/S04E24.csv,"actually, it's quite good!"
transcripts/S04E24.csv,"frasier, maybe i'm misreading you here, but - i'm married."
transcripts/S04E24.csv,"oh, i've been away on tour."
transcripts/S04E24.csv,no... i think it makes you seem sort of romantic. i used to  do things like this when i was single. it was fun.
transcripts/S04E24.csv,"oh, come on. let me ask you a question. how did you feel,  coming down here?"
transcripts/S04E24.csv,"exactly. the anticipation, the excitement, the hope.  marriage is the death of all that."
transcripts/S04E24.csv,"i'm not down on marriage. it's just that marriage  can be great, but so can not being married."
transcripts/S04E24.csv,i'm sorry it didn't turn out the way you wanted.
transcripts/S04E24.csv,"well, maybe you should. well, i really should be  going."
transcripts/S04E24.csv,i'll remember.
transcripts/S04E24.csv,"this is probably a ridiculous thing to say, but if i weren't  married-"
transcripts/S04E24.csv,okay.
transcripts/S04E24.csv,"if you ever think back on this, could you just-"
transcripts/S04E24.csv,thank you.
transcripts/S06E11.csv,"i waved at you a couple of times, but i didn't think you  saw me."
transcripts/S06E11.csv,same place you're going.
transcripts/S06E11.csv,laura hilton. i live in your building.
transcripts/S06E11.csv,i'm so glad you stopped when you did.
transcripts/S01E22.csv,"i'll never forget it, dr. crane, i cried for two hours straight."
transcripts/S01E22.csv,"yes, the perm destroyed my hair. i was sure my sisters were going to laugh at me. but, they all kissed me and then they marched into the bathroom and shaved their heads too, just so i wouldn't feel like a freak."
transcripts/S04E13.csv,"oh, please do!"
transcripts/S04E13.csv,"i'm laura, and this is beth."
transcripts/S04E13.csv,"it's just boring - to guys, anyway."
transcripts/S04E13.csv,we design kitchens.
transcripts/S04E13.csv,whoa! whose little boy are you?
transcripts/S04E13.csv,"oh, no, no, don't! stay."
transcripts/S04E13.csv,"oh, frasier, what a great apartment."
transcripts/S04E13.csv,"""the man who came to dinner."" it's about a bad-tempered  invalid that moves into these people's house and just drives  them crazy."
transcripts/S04E13.csv,"i think your taste is fabulous. i'm  referring to the brandy, of course."
transcripts/S04E13.csv,"you know, frasier, i'd hate to see you miss a weekend in the  country just to take me to the symphony, we can go next  week."
transcripts/S04E13.csv,i'd love that.
transcripts/S04E13.csv,i am kind of curious to take a peek.
transcripts/S04E13.csv,"great kitchen, frasier! you guys feel like firing up the  cappuccino maker?"
transcripts/S04E13.csv,"oh, this place is perfect."
transcripts/S04E13.csv,me too.
transcripts/S04E13.csv,i guess we'll just have to make our own entertainment!
transcripts/S04E13.csv,"oh, frasier, this place is heaven."
transcripts/S04E13.csv,"er, by the way, beth and i were talking, and i don't know what  you guys have in mind for tonight and sorry if this sounds  kind of forward, but we would like to avoid an awkward,  uncomfortable situation by getting this out in the open right  now."
transcripts/S04E13.csv,"when we go out to dinner tonight, it's on us."
transcripts/S04E13.csv,is there anything more relaxing than just lazing by the fire  with a good glass of wine?
transcripts/S04E13.csv,"yeah, we didn't think we'd need too many clothes this weekend!"
transcripts/S04E13.csv,"well, i hate to break things up but i'm getting a little  sleepy, so i'm going to get ready for bed."
transcripts/S04E13.csv,what's going on?
transcripts/S04E13.csv,frasier!
transcripts/S04E13.csv,think again!
transcripts/S04E24.csv,"hi, molly. laura again."
transcripts/S04E24.csv,"is that tom on the machine? he sounds nice. anyway,  i just called to remind you i'll have my cello with me.  translation: you might want to clean out your car this time  to make room. i know, . anyway, i  can't wait to see you guys. i've been on my own way too  much lately. see you at 10:30, flight 11. love you.  goodbye."
transcripts/S04E24.csv,"hi, molly. laura again. is that tom on the machine?  he sounds nice. anyw-"
transcripts/S04E24.csv,thanks for all your help. i can take it from here.
transcripts/S04E24.csv,"yes, i am. molly sent a driver?"
transcripts/S04E24.csv,molly's having me committed?
transcripts/S04E24.csv,"oh, from the radio!"
transcripts/S04E24.csv,"yes, i've heard your show, it's great! but your knowing me  is just - weird."
transcripts/S04E24.csv,"oh, no. i must've gotten my sister's new number wrong."
transcripts/S04E24.csv,"so you came all the way down here? what're you, like the  nicest guy in the world?"
transcripts/S04E24.csv,"oh, no, no, no, i'll take a cab."
transcripts/S04E24.csv,"well, she lives an hour away. but, uh, listen, could i buy  you a drink just to say thank you?"
transcripts/S04E24.csv,"aaahhhh... i checked my cello, this is my purse."
transcripts/S04E24.csv,i think that's funny. why doesn't anybody  laugh at that?
transcripts/S04E24.csv,"with a chamber music group, actually. we're based in la, but  we travel quite a bit. i grew up here, so it's always  nice to come back. i miss it."
transcripts/S04E24.csv,um... i think i'll have a glass of sherry.
transcripts/S04E24.csv,"not that you can expect that much from airport bar sherry. oh, goodness. don't i sound like the perfect  snob?"
transcripts/S04E24.csv,"when i was around eleven, my father took me to the symphony.  and this sounds a little silly, but when i heard the cello,  it sounded sad, like it needed me."
transcripts/S04E24.csv,i was always an odd kid. all my girlfriends had posters of  david cassidy. i had pablo cassall.
transcripts/S04E24.csv,but did you kiss him every night before you went to bed?
transcripts/S04E24.csv,i don't think i've ever shared a drink with a psychiatrist.  i'm worried that you must be analyzing me.
transcripts/S04E24.csv,"actually, it's quite good!"
transcripts/S04E24.csv,"frasier, maybe i'm misreading you here, but - i'm married."
transcripts/S04E24.csv,"oh, i've been away on tour."
transcripts/S04E24.csv,no... i think it makes you seem sort of romantic. i used to  do things like this when i was single. it was fun.
transcripts/S04E24.csv,"oh, come on. let me ask you a question. how did you feel,  coming down here?"
transcripts/S04E24.csv,"exactly. the anticipation, the excitement, the hope.  marriage is the death of all that."
transcripts/S04E24.csv,"i'm not down on marriage. it's just that marriage  can be great, but so can not being married."
transcripts/S04E24.csv,i'm sorry it didn't turn out the way you wanted.
transcripts/S04E24.csv,"well, maybe you should. well, i really should be  going."
transcripts/S04E24.csv,i'll remember.
transcripts/S04E24.csv,"this is probably a ridiculous thing to say, but if i weren't  married-"
transcripts/S04E24.csv,okay.
transcripts/S04E24.csv,"if you ever think back on this, could you just-"
transcripts/S04E24.csv,thank you.
transcripts/S06E11.csv,"i waved at you a couple of times, but i didn't think you  saw me."
transcripts/S06E11.csv,same place you're going.
transcripts/S06E11.csv,laura hilton. i live in your building.
transcripts/S06E11.csv,i'm so glad you stopped when you did.
transcripts/S01E22.csv,"i'll never forget it, dr. crane, i cried for two hours straight."
transcripts/S01E22.csv,"yes, the perm destroyed my hair. i was sure my sisters were going to laugh at me. but, they all kissed me and then they marched into the bathroom and shaved their heads too, just so i wouldn't feel like a freak."
transcripts/S04E13.csv,"oh, please do!"
transcripts/S04E13.csv,"i'm laura, and this is beth."
transcripts/S04E13.csv,"it's just boring - to guys, anyway."
transcripts/S04E13.csv,we design kitchens.
transcripts/S04E13.csv,whoa! whose little boy are you?
transcripts/S04E13.csv,"oh, no, no, don't! stay."
transcripts/S04E13.csv,"oh, frasier, what a great apartment."
transcripts/S04E13.csv,"""the man who came to dinner."" it's about a bad-tempered  invalid that moves into these people's house and just drives  them crazy."
transcripts/S04E13.csv,"i think your taste is fabulous. i'm  referring to the brandy, of course."
transcripts/S04E13.csv,"you know, frasier, i'd hate to see you miss a weekend in the  country just to take me to the symphony, we can go next  week."
transcripts/S04E13.csv,i'd love that.
transcripts/S04E13.csv,i am kind of curious to take a peek.
transcripts/S04E13.csv,"great kitchen, frasier! you guys feel like firing up the  cappuccino maker?"
transcripts/S04E13.csv,"oh, this place is perfect."
transcripts/S04E13.csv,me too.
transcripts/S04E13.csv,i guess we'll just have to make our own entertainment!
transcripts/S04E13.csv,"oh, frasier, this place is heaven."
transcripts/S04E13.csv,"er, by the way, beth and i were talking, and i don't know what  you guys have in mind for tonight and sorry if this sounds  kind of forward, but we would like to avoid an awkward,  uncomfortable situation by getting this out in the open right  now."
transcripts/S04E13.csv,"when we go out to dinner tonight, it's on us."
transcripts/S04E13.csv,is there anything more relaxing than just lazing by the fire  with a good glass of wine?
transcripts/S04E13.csv,"yeah, we didn't think we'd need too many clothes this weekend!"
transcripts/S04E13.csv,"well, i hate to break things up but i'm getting a little  sleepy, so i'm going to get ready for bed."
transcripts/S04E13.csv,what's going on?
transcripts/S04E13.csv,frasier!
transcripts/S04E13.csv,think again!
transcripts/S04E24.csv,"hi, molly. laura again."
transcripts/S04E24.csv,"is that tom on the machine? he sounds nice. anyway,  i just called to remind you i'll have my cello with me.  translation: you might want to clean out your car this time  to make room. i know, . anyway, i  can't wait to see you guys. i've been on my own way too  much lately. see you at 10:30, flight 11. love you.  goodbye."
transcripts/S04E24.csv,"hi, molly. laura again. is that tom on the machine?  he sounds nice. anyw-"
transcripts/S04E24.csv,thanks for all your help. i can take it from here.
transcripts/S04E24.csv,"yes, i am. molly sent a driver?"
transcripts/S04E24.csv,molly's having me committed?
transcripts/S04E24.csv,"oh, from the radio!"
transcripts/S04E24.csv,"yes, i've heard your show, it's great! but your knowing me  is just - weird."
transcripts/S04E24.csv,"oh, no. i must've gotten my sister's new number wrong."
transcripts/S04E24.csv,"so you came all the way down here? what're you, like the  nicest guy in the world?"
transcripts/S04E24.csv,"oh, no, no, no, i'll take a cab."
transcripts/S04E24.csv,"well, she lives an hour away. but, uh, listen, could i buy  you a drink just to say thank you?"
transcripts/S04E24.csv,"aaahhhh... i checked my cello, this is my purse."
transcripts/S04E24.csv,i think that's funny. why doesn't anybody  laugh at that?
transcripts/S04E24.csv,"with a chamber music group, actually. we're based in la, but  we travel quite a bit. i grew up here, so it's always  nice to come back. i miss it."
transcripts/S04E24.csv,um... i think i'll have a glass of sherry.
transcripts/S04E24.csv,"not that you can expect that much from airport bar sherry. oh, goodness. don't i sound like the perfect  snob?"
transcripts/S04E24.csv,"when i was around eleven, my father took me to the symphony.  and this sounds a little silly, but when i heard the cello,  it sounded sad, like it needed me."
transcripts/S04E24.csv,i was always an odd kid. all my girlfriends had posters of  david cassidy. i had pablo cassall.
transcripts/S04E24.csv,but did you kiss him every night before you went to bed?
transcripts/S04E24.csv,i don't think i've ever shared a drink with a psychiatrist.  i'm worried that you must be analyzing me.
transcripts/S04E24.csv,"actually, it's quite good!"
transcripts/S04E24.csv,"frasier, maybe i'm misreading you here, but - i'm married."
transcripts/S04E24.csv,"oh, i've been away on tour."
transcripts/S04E24.csv,no... i think it makes you seem sort of romantic. i used to  do things like this when i was single. it was fun.
transcripts/S04E24.csv,"oh, come on. let me ask you a question. how did you feel,  coming down here?"
transcripts/S04E24.csv,"exactly. the anticipation, the excitement, the hope.  marriage is the death of all that."
transcripts/S04E24.csv,"i'm not down on marriage. it's just that marriage  can be great, but so can not being married."
transcripts/S04E24.csv,i'm sorry it didn't turn out the way you wanted.
transcripts/S04E24.csv,"well, maybe you should. well, i really should be  going."
transcripts/S04E24.csv,i'll remember.
transcripts/S04E24.csv,"this is probably a ridiculous thing to say, but if i weren't  married-"
transcripts/S04E24.csv,okay.
transcripts/S04E24.csv,"if you ever think back on this, could you just-"
transcripts/S04E24.csv,thank you.
transcripts/S06E11.csv,"i waved at you a couple of times, but i didn't think you  saw me."
transcripts/S06E11.csv,same place you're going.
transcripts/S06E11.csv,laura hilton. i live in your building.
transcripts/S06E11.csv,i'm so glad you stopped when you did.
