transcripts/S08E03.csv,"hey, i know you. mcginty's, right?"
transcripts/S08E03.csv,"yeah, lee zeppowitz."
transcripts/S08E03.csv,"hey, we could really use a fourth for poker, if you're moving  in."
transcripts/S08E03.csv,uh-huh. they told me i was going to the space needle.
transcripts/S08E03.csv,"hey look, marty, there's your son."
transcripts/S08E03.csv,"hey marty, you in? sid's got a pair of tens showing."
transcripts/S08E03.csv,"come on, marty, you in?"
transcripts/S08E03.csv,too rich for my blood.
transcripts/S08E03.csv,"hey, i know you. mcginty's, right?"
transcripts/S08E03.csv,"yeah, lee zeppowitz."
transcripts/S08E03.csv,"hey, we could really use a fourth for poker, if you're moving  in."
transcripts/S08E03.csv,uh-huh. they told me i was going to the space needle.
transcripts/S08E03.csv,"hey look, marty, there's your son."
transcripts/S08E03.csv,"hey marty, you in? sid's got a pair of tens showing."
transcripts/S08E03.csv,"come on, marty, you in?"
transcripts/S08E03.csv,too rich for my blood.
transcripts/S08E03.csv,"hey, i know you. mcginty's, right?"
transcripts/S08E03.csv,"yeah, lee zeppowitz."
transcripts/S08E03.csv,"hey, we could really use a fourth for poker, if you're moving  in."
transcripts/S08E03.csv,uh-huh. they told me i was going to the space needle.
transcripts/S08E03.csv,"hey look, marty, there's your son."
transcripts/S08E03.csv,"hey marty, you in? sid's got a pair of tens showing."
transcripts/S08E03.csv,"come on, marty, you in?"
transcripts/S08E03.csv,too rich for my blood.
