transcripts/S01E15.csv,"your shot, girlie."
transcripts/S01E15.csv,"but before you take that shot, why don't we make this a little  more interesting? all you have to do to win is run those last  five balls. so what do you say we double our bet?"
transcripts/S01E19.csv,"dr. crane, make way."
transcripts/S01E19.csv,"excuse me, but i happen to be a professional. i take a lot of  pride in my work, and i would never-"
transcripts/S01E19.csv,"whoa... how'd that get there? hey look, at least i didn't  lose my license this time, right?"
transcripts/S01E19.csv,and where would that be?
transcripts/S01E19.csv,"hey, that wasn't a dumb question. you got bathrooms too,  dontcha?"
transcripts/S01E19.csv,"ah, no can do, fish n'chips. someone  took it."
transcripts/S01E19.csv,your storage space?
transcripts/S01E19.csv,"oh, man. not another day like last tuesday."
transcripts/S01E19.csv,"i took it down to the dumpster, and someone snagged it.  it was pretty bitchin', you know. i almost kept it myself."
transcripts/S01E19.csv,"""dump the chair,"" ""get the chair,"" ""find the chair,"" what am  i,	the building lackey?"
transcripts/S01E19.csv,"oh, okay."
transcripts/S04E22.csv,"frasier, you made it!"
transcripts/S05E10.csv,no check in rays? three buck limit.
transcripts/S05E10.csv,"so, you guys got your all-weather tires on ya?"
transcripts/S05E10.csv,"oh, boy!"
transcripts/S05E10.csv,"but you agree with me on that one, right? you said you'd rather sleep with angie?"
transcripts/S05E10.csv,"you're in for a real treat, roz. the best thing i ever did was having kids."
transcripts/S05E10.csv,"and it's just you, old and alone in an empty house."
transcripts/S01E15.csv,"your shot, girlie."
transcripts/S01E15.csv,"but before you take that shot, why don't we make this a little  more interesting? all you have to do to win is run those last  five balls. so what do you say we double our bet?"
transcripts/S01E19.csv,"dr. crane, make way."
transcripts/S01E19.csv,"excuse me, but i happen to be a professional. i take a lot of  pride in my work, and i would never-"
transcripts/S01E19.csv,"whoa... how'd that get there? hey look, at least i didn't  lose my license this time, right?"
transcripts/S01E19.csv,and where would that be?
transcripts/S01E19.csv,"hey, that wasn't a dumb question. you got bathrooms too,  dontcha?"
transcripts/S01E19.csv,"ah, no can do, fish n'chips. someone  took it."
transcripts/S01E19.csv,your storage space?
transcripts/S01E19.csv,"oh, man. not another day like last tuesday."
transcripts/S01E19.csv,"i took it down to the dumpster, and someone snagged it.  it was pretty bitchin', you know. i almost kept it myself."
transcripts/S01E19.csv,"""dump the chair,"" ""get the chair,"" ""find the chair,"" what am  i,	the building lackey?"
transcripts/S01E19.csv,"oh, okay."
transcripts/S04E22.csv,"frasier, you made it!"
transcripts/S05E10.csv,no check in rays? three buck limit.
transcripts/S05E10.csv,"so, you guys got your all-weather tires on ya?"
transcripts/S05E10.csv,"oh, boy!"
transcripts/S05E10.csv,"but you agree with me on that one, right? you said you'd rather sleep with angie?"
transcripts/S05E10.csv,"you're in for a real treat, roz. the best thing i ever did was having kids."
transcripts/S05E10.csv,"and it's just you, old and alone in an empty house."
transcripts/S01E15.csv,"your shot, girlie."
transcripts/S01E15.csv,"but before you take that shot, why don't we make this a little  more interesting? all you have to do to win is run those last  five balls. so what do you say we double our bet?"
transcripts/S01E19.csv,"dr. crane, make way."
transcripts/S01E19.csv,"excuse me, but i happen to be a professional. i take a lot of  pride in my work, and i would never-"
transcripts/S01E19.csv,"whoa... how'd that get there? hey look, at least i didn't  lose my license this time, right?"
transcripts/S01E19.csv,and where would that be?
transcripts/S01E19.csv,"hey, that wasn't a dumb question. you got bathrooms too,  dontcha?"
transcripts/S01E19.csv,"ah, no can do, fish n'chips. someone  took it."
transcripts/S01E19.csv,your storage space?
transcripts/S01E19.csv,"oh, man. not another day like last tuesday."
transcripts/S01E19.csv,"i took it down to the dumpster, and someone snagged it.  it was pretty bitchin', you know. i almost kept it myself."
transcripts/S01E19.csv,"""dump the chair,"" ""get the chair,"" ""find the chair,"" what am  i,	the building lackey?"
transcripts/S01E19.csv,"oh, okay."
transcripts/S04E22.csv,"frasier, you made it!"
transcripts/S05E10.csv,no check in rays? three buck limit.
transcripts/S05E10.csv,"so, you guys got your all-weather tires on ya?"
transcripts/S05E10.csv,"oh, boy!"
transcripts/S05E10.csv,"but you agree with me on that one, right? you said you'd rather sleep with angie?"
transcripts/S05E10.csv,"you're in for a real treat, roz. the best thing i ever did was having kids."
transcripts/S05E10.csv,"and it's just you, old and alone in an empty house."
