transcripts/S09E13.csv,i love your curtains!
transcripts/S09E13.csv,"wait, you told me this was your place! you're  probably not even the duke of england!"
transcripts/S09E13.csv,i love your curtains!
transcripts/S09E13.csv,"wait, you told me this was your place! you're  probably not even the duke of england!"
transcripts/S09E13.csv,i love your curtains!
transcripts/S09E13.csv,"wait, you told me this was your place! you're  probably not even the duke of england!"
