transcripts/S09E09.csv,that would be wonderful. but just meeting the  preeminent radio psychologist of this era has been a most  thrilling experience.
transcripts/S09E09.csv,that would be wonderful. but just meeting the  preeminent radio psychologist of this era has been a most  thrilling experience.
transcripts/S09E09.csv,that would be wonderful. but just meeting the  preeminent radio psychologist of this era has been a most  thrilling experience.
