transcripts/S06E15.csv,donny should be here any minute. make yourselves comfortable.
transcripts/S06E15.csv,i've got geoff whalen on line one!
transcripts/S06E15.csv,you're due in court in ten minutes.
transcripts/S06E15.csv,and donny?
transcripts/S06E15.csv,mustard.
transcripts/S06E15.csv,dr. crane? they'll be ready for you in just a few minutes.
transcripts/S07E16.csv,"hi, dr. crane. anyway, he's having an affair and it's  not his first. this has been going on since we were  newlyweds. how do i get him to change?"
transcripts/S07E16.csv,"oh, listen, there's plenty of time for counselors, but at  six o'clock locksmiths start charging extra, so you get on  it, girlfriend. you know, my grampa willie used to say,  ""nothing stops a man from playing the field faster than a  night out on the lawn."" okay? okay!"
transcripts/S06E15.csv,donny should be here any minute. make yourselves comfortable.
transcripts/S06E15.csv,i've got geoff whalen on line one!
transcripts/S06E15.csv,you're due in court in ten minutes.
transcripts/S06E15.csv,and donny?
transcripts/S06E15.csv,mustard.
transcripts/S06E15.csv,dr. crane? they'll be ready for you in just a few minutes.
transcripts/S07E16.csv,"hi, dr. crane. anyway, he's having an affair and it's  not his first. this has been going on since we were  newlyweds. how do i get him to change?"
transcripts/S07E16.csv,"oh, listen, there's plenty of time for counselors, but at  six o'clock locksmiths start charging extra, so you get on  it, girlfriend. you know, my grampa willie used to say,  ""nothing stops a man from playing the field faster than a  night out on the lawn."" okay? okay!"
transcripts/S06E15.csv,donny should be here any minute. make yourselves comfortable.
transcripts/S06E15.csv,i've got geoff whalen on line one!
transcripts/S06E15.csv,you're due in court in ten minutes.
transcripts/S06E15.csv,and donny?
transcripts/S06E15.csv,mustard.
transcripts/S06E15.csv,dr. crane? they'll be ready for you in just a few minutes.
transcripts/S07E16.csv,"hi, dr. crane. anyway, he's having an affair and it's  not his first. this has been going on since we were  newlyweds. how do i get him to change?"
transcripts/S07E16.csv,"oh, listen, there's plenty of time for counselors, but at  six o'clock locksmiths start charging extra, so you get on  it, girlfriend. you know, my grampa willie used to say,  ""nothing stops a man from playing the field faster than a  night out on the lawn."" okay? okay!"
