transcripts/S01E13.csv,"excuse me, is this the crane residence?"
transcripts/S01E13.csv,"well, we've been waiting here for the last fifteen minutes.  did elaine show up, or did we miss her?"
transcripts/S01E13.csv,"oh, it was so romantic, we all have our fingers crossed."
transcripts/S01E13.csv,"i'm marjorie, from down on eleven..."
transcripts/S01E13.csv,and this is norman...
transcripts/S01E13.csv,and the rest of these people i don't know.
transcripts/S01E13.csv,is that him?
transcripts/S01E13.csv,"look, it's coming back up!"
transcripts/S01E23.csv,"hi, dr. crane. this is marjorie. you see, i'm... i'm having a problem with my boss. he doesn't seem to  respect me, and i don't have the courage to confront him."
transcripts/S01E23.csv,"well, ok. ""listen, mr. ross. i've worked for this company for six years and i've never missed a day. but you've constantly promoted people less qualified than i am,  and i don't think that's fair."""
transcripts/S01E23.csv,"hey, that was great!"
transcripts/S02E13.csv,"v.o. and i just wanted to thank you, dr. crane. because of  your advice, i've conquered my fear of heights. i, i took it  slowly, gradually going higher and higher, until here i am,  right now, having lunch at the top of the space needle!"
transcripts/S02E13.csv,"i mean, when i think of how you..."
transcripts/S02E13.csv,i just looked down.
transcripts/S02E13.csv,maybe i wasn't ready for a window table.
transcripts/S02E13.csv,"you're right, i can, dr. crane, if i just..."
transcripts/S02E13.csv,"no, i didn't. my check just came."
transcripts/S01E13.csv,"excuse me, is this the crane residence?"
transcripts/S01E13.csv,"well, we've been waiting here for the last fifteen minutes.  did elaine show up, or did we miss her?"
transcripts/S01E13.csv,"oh, it was so romantic, we all have our fingers crossed."
transcripts/S01E13.csv,"i'm marjorie, from down on eleven..."
transcripts/S01E13.csv,and this is norman...
transcripts/S01E13.csv,and the rest of these people i don't know.
transcripts/S01E13.csv,is that him?
transcripts/S01E13.csv,"look, it's coming back up!"
transcripts/S01E23.csv,"hi, dr. crane. this is marjorie. you see, i'm... i'm having a problem with my boss. he doesn't seem to  respect me, and i don't have the courage to confront him."
transcripts/S01E23.csv,"well, ok. ""listen, mr. ross. i've worked for this company for six years and i've never missed a day. but you've constantly promoted people less qualified than i am,  and i don't think that's fair."""
transcripts/S01E23.csv,"hey, that was great!"
transcripts/S02E13.csv,"v.o. and i just wanted to thank you, dr. crane. because of  your advice, i've conquered my fear of heights. i, i took it  slowly, gradually going higher and higher, until here i am,  right now, having lunch at the top of the space needle!"
transcripts/S02E13.csv,"i mean, when i think of how you..."
transcripts/S02E13.csv,i just looked down.
transcripts/S02E13.csv,maybe i wasn't ready for a window table.
transcripts/S02E13.csv,"you're right, i can, dr. crane, if i just..."
transcripts/S02E13.csv,"no, i didn't. my check just came."
transcripts/S01E13.csv,"excuse me, is this the crane residence?"
transcripts/S01E13.csv,"well, we've been waiting here for the last fifteen minutes.  did elaine show up, or did we miss her?"
transcripts/S01E13.csv,"oh, it was so romantic, we all have our fingers crossed."
transcripts/S01E13.csv,"i'm marjorie, from down on eleven..."
transcripts/S01E13.csv,and this is norman...
transcripts/S01E13.csv,and the rest of these people i don't know.
transcripts/S01E13.csv,is that him?
transcripts/S01E13.csv,"look, it's coming back up!"
transcripts/S01E23.csv,"hi, dr. crane. this is marjorie. you see, i'm... i'm having a problem with my boss. he doesn't seem to  respect me, and i don't have the courage to confront him."
transcripts/S01E23.csv,"well, ok. ""listen, mr. ross. i've worked for this company for six years and i've never missed a day. but you've constantly promoted people less qualified than i am,  and i don't think that's fair."""
transcripts/S01E23.csv,"hey, that was great!"
transcripts/S02E13.csv,"v.o. and i just wanted to thank you, dr. crane. because of  your advice, i've conquered my fear of heights. i, i took it  slowly, gradually going higher and higher, until here i am,  right now, having lunch at the top of the space needle!"
transcripts/S02E13.csv,"i mean, when i think of how you..."
transcripts/S02E13.csv,i just looked down.
transcripts/S02E13.csv,maybe i wasn't ready for a window table.
transcripts/S02E13.csv,"you're right, i can, dr. crane, if i just..."
transcripts/S02E13.csv,"no, i didn't. my check just came."
