transcripts/S02E24.csv,"yeah, well if she keeps her  mouth shut.../if he can keep his big..."
transcripts/S05E19.csv,happy birthday to you...
transcripts/S05E19.csv,"happy birthday, dear eddie, happy birthday to you!"
transcripts/S06E21.csv,yes!/oh!
transcripts/S08E05.csv,fras./morning.
transcripts/S02E24.csv,"yeah, well if she keeps her  mouth shut.../if he can keep his big..."
transcripts/S05E19.csv,happy birthday to you...
transcripts/S05E19.csv,"happy birthday, dear eddie, happy birthday to you!"
transcripts/S06E21.csv,yes!/oh!
transcripts/S08E05.csv,fras./morning.
transcripts/S02E24.csv,"yeah, well if she keeps her  mouth shut.../if he can keep his big..."
transcripts/S05E19.csv,happy birthday to you...
transcripts/S05E19.csv,"happy birthday, dear eddie, happy birthday to you!"
transcripts/S06E21.csv,yes!/oh!
transcripts/S08E05.csv,fras./morning.
