transcripts/S02E21.csv,.
transcripts/S02E21.csv,.
transcripts/S02E21.csv,.
transcripts/S02E21.csv,""
transcripts/S02E21.csv,""
transcripts/S02E21.csv,""
transcripts/S02E21.csv,""
transcripts/S02E21.csv,""
transcripts/S02E21.csv,""
transcripts/S02E21.csv,""
transcripts/S02E21.csv,""
transcripts/S02E21.csv,""
transcripts/S02E21.csv,""
transcripts/S02E21.csv,""
transcripts/S02E21.csv,""
transcripts/S02E21.csv,""
transcripts/S02E21.csv,""
transcripts/S03E08.csv,""
transcripts/S03E08.csv,go away!
transcripts/S03E08.csv,"missy crane say, no you dr. crane, no other dr. crane,  and no crane with a cane!"
transcripts/S03E08.csv,she know. everybody know.
transcripts/S03E08.csv,"uh, the staff, they have a question: can we come with you?"
transcripts/S03E08.csv,dr. crane?
transcripts/S03E08.csv,"missy crane give me message for you: if you say is all your  fault, you no have to leave."
transcripts/S03E08.csv,she waiting upstairs.
transcripts/S04E23.csv,"my pleasure, and this coffee is too, too divine!"
transcripts/S04E23.csv,"yes, she teaching me many words. that  coat is so"
transcripts/S04E23.csv,therapy helping missy crane a lot.
transcripts/S04E23.csv,", missy crane very different: nicer to everyone, and  this time no happy pills! for my birthday she give me  beautiful chanel makeup bag. it's a knock-off, but it's  big!"
transcripts/S04E23.csv,"oh, , please ask dr. crane to come home."
transcripts/S04E23.csv,"no, my beeper's on vibrate, it tickled me. sorry, i have to go, missy crane needs me."
transcripts/S04E23.csv,thanks for coffee. call me!
transcripts/S04E23.csv,"missy crane very different, nicer to everyone."
transcripts/S11E13.csv,here is everything. i tell missy crane you are here.
transcripts/S11E13.csv,"yes, dr. crane."
transcripts/S11E13.csv,"you were right, missy crane. they take the painting right away."
transcripts/S11E13.csv,"now drink your protein shake, you've got a long trip ahead of you."
transcripts/S11E13.csv,"oh, very good, missy crane, you drink a lot! ... what? too much? okay."
transcripts/S11E13.csv,"oh, here they come!"
transcripts/S11E13.csv,i no find missy crane. i go up to her room and all there is is this note.
transcripts/S11E13.csv,just before you come.
transcripts/S11E13.csv,"perfect, missy crane. i put the tracking bracelet behind the painting just like you say. the workmen will take you in a minute... what? okay."
transcripts/S02E21.csv,.
transcripts/S02E21.csv,.
transcripts/S02E21.csv,.
transcripts/S02E21.csv,""
transcripts/S02E21.csv,""
transcripts/S02E21.csv,""
transcripts/S02E21.csv,""
transcripts/S02E21.csv,""
transcripts/S02E21.csv,""
transcripts/S02E21.csv,""
transcripts/S02E21.csv,""
transcripts/S02E21.csv,""
transcripts/S02E21.csv,""
transcripts/S02E21.csv,""
transcripts/S02E21.csv,""
transcripts/S02E21.csv,""
transcripts/S02E21.csv,""
transcripts/S03E08.csv,""
transcripts/S03E08.csv,go away!
transcripts/S03E08.csv,"missy crane say, no you dr. crane, no other dr. crane,  and no crane with a cane!"
transcripts/S03E08.csv,she know. everybody know.
transcripts/S03E08.csv,"uh, the staff, they have a question: can we come with you?"
transcripts/S03E08.csv,dr. crane?
transcripts/S03E08.csv,"missy crane give me message for you: if you say is all your  fault, you no have to leave."
transcripts/S03E08.csv,she waiting upstairs.
transcripts/S04E23.csv,"my pleasure, and this coffee is too, too divine!"
transcripts/S04E23.csv,"yes, she teaching me many words. that  coat is so"
transcripts/S04E23.csv,therapy helping missy crane a lot.
transcripts/S04E23.csv,", missy crane very different: nicer to everyone, and  this time no happy pills! for my birthday she give me  beautiful chanel makeup bag. it's a knock-off, but it's  big!"
transcripts/S04E23.csv,"oh, , please ask dr. crane to come home."
transcripts/S04E23.csv,"no, my beeper's on vibrate, it tickled me. sorry, i have to go, missy crane needs me."
transcripts/S04E23.csv,thanks for coffee. call me!
transcripts/S04E23.csv,"missy crane very different, nicer to everyone."
transcripts/S11E13.csv,here is everything. i tell missy crane you are here.
transcripts/S11E13.csv,"yes, dr. crane."
transcripts/S11E13.csv,"you were right, missy crane. they take the painting right away."
transcripts/S11E13.csv,"now drink your protein shake, you've got a long trip ahead of you."
transcripts/S11E13.csv,"oh, very good, missy crane, you drink a lot! ... what? too much? okay."
transcripts/S11E13.csv,"oh, here they come!"
transcripts/S11E13.csv,i no find missy crane. i go up to her room and all there is is this note.
transcripts/S11E13.csv,just before you come.
transcripts/S11E13.csv,"perfect, missy crane. i put the tracking bracelet behind the painting just like you say. the workmen will take you in a minute... what? okay."
transcripts/S02E21.csv,.
transcripts/S02E21.csv,.
transcripts/S02E21.csv,.
transcripts/S02E21.csv,""
transcripts/S02E21.csv,""
transcripts/S02E21.csv,""
transcripts/S02E21.csv,""
transcripts/S02E21.csv,""
transcripts/S02E21.csv,""
transcripts/S02E21.csv,""
transcripts/S02E21.csv,""
transcripts/S02E21.csv,""
transcripts/S02E21.csv,""
transcripts/S02E21.csv,""
transcripts/S02E21.csv,""
transcripts/S02E21.csv,""
transcripts/S02E21.csv,""
transcripts/S03E08.csv,""
transcripts/S03E08.csv,go away!
transcripts/S03E08.csv,"missy crane say, no you dr. crane, no other dr. crane,  and no crane with a cane!"
transcripts/S03E08.csv,she know. everybody know.
transcripts/S03E08.csv,"uh, the staff, they have a question: can we come with you?"
transcripts/S03E08.csv,dr. crane?
transcripts/S03E08.csv,"missy crane give me message for you: if you say is all your  fault, you no have to leave."
transcripts/S03E08.csv,she waiting upstairs.
transcripts/S04E23.csv,"my pleasure, and this coffee is too, too divine!"
transcripts/S04E23.csv,"yes, she teaching me many words. that  coat is so"
transcripts/S04E23.csv,therapy helping missy crane a lot.
transcripts/S04E23.csv,", missy crane very different: nicer to everyone, and  this time no happy pills! for my birthday she give me  beautiful chanel makeup bag. it's a knock-off, but it's  big!"
transcripts/S04E23.csv,"oh, , please ask dr. crane to come home."
transcripts/S04E23.csv,"no, my beeper's on vibrate, it tickled me. sorry, i have to go, missy crane needs me."
transcripts/S04E23.csv,thanks for coffee. call me!
transcripts/S04E23.csv,"missy crane very different, nicer to everyone."
transcripts/S11E13.csv,here is everything. i tell missy crane you are here.
transcripts/S11E13.csv,"yes, dr. crane."
transcripts/S11E13.csv,"you were right, missy crane. they take the painting right away."
transcripts/S11E13.csv,"now drink your protein shake, you've got a long trip ahead of you."
transcripts/S11E13.csv,"oh, very good, missy crane, you drink a lot! ... what? too much? okay."
transcripts/S11E13.csv,"oh, here they come!"
transcripts/S11E13.csv,i no find missy crane. i go up to her room and all there is is this note.
transcripts/S11E13.csv,just before you come.
transcripts/S11E13.csv,"perfect, missy crane. i put the tracking bracelet behind the painting just like you say. the workmen will take you in a minute... what? okay."
