transcripts/S03E20.csv,"hey, frasier crane."
transcripts/S03E20.csv,come on — sixty-two in a forty-mile zone with a half-naked  girl in the backseat?
transcripts/S03E20.csv,how do you do? i'm maureen cutler.
transcripts/S03E20.csv,nice to meet you.
transcripts/S03E20.csv,"yeah, why not?"
transcripts/S03E20.csv,that's fine by me.
transcripts/S03E20.csv,"so, what brings you guys here? this is mostly a cop hangout."
transcripts/S03E20.csv,really?
transcripts/S03E20.csv,wait a minute. marty crane? you're martin crane!
transcripts/S03E20.csv,"no, i mean i remember you when i was training. you gave this  great lecture at the academy on how to deal with an armed  suspect."
transcripts/S03E20.csv,how come you left the force?
transcripts/S03E20.csv,i'm sorry.
transcripts/S03E20.csv,"so, do you miss it?"
transcripts/S03E20.csv,"oh. oh, i'm sorry. i have to get over to the  hospital. i told them to beep me if there was any news  about my sergeant."
transcripts/S03E20.csv,she's having a baby.
transcripts/S03E20.csv,"thanks... listen, um, i never do this, but i would love  to have a beer or go to dinner sometime."
transcripts/S03E20.csv,"i don't want to put you on the spot. if  you, uh, if you want to go out, just give me a call."
transcripts/S03E20.csv,you're the only one here.
transcripts/S03E20.csv,"i'm sorry, i just got beeped."
transcripts/S03E20.csv,"yeah, but it was nice to see you. maybe i'll bump into you  again here sometime."
transcripts/S03E20.csv,"ok, bye."
transcripts/S03E20.csv,"so, they finally put my transfer through, and i'm moving out  of traffic and into narcotics. yeah, i'm gonna be working  with, uh, bill henderson at the 31st."
transcripts/S03E20.csv,"yeah, i'm excited, although i hear he can be pretty tough."
transcripts/S03E20.csv,"yeah, he is pretty impressive."
transcripts/S03E20.csv,frasier!
transcripts/S03E20.csv,am i missing something?
transcripts/S03E20.csv,martin?
transcripts/S03E20.csv,why don't i give you two a moment?
transcripts/S04E09.csv,"hi, niles."
transcripts/S04E09.csv,"thanks, frasier."
transcripts/S04E09.csv,thanks.
transcripts/S04E09.csv,"oh, i should have known that you'd hate indian food."
transcripts/S04E09.csv,"yeah, it does. you should try it again sometime."
transcripts/S04E09.csv,nah. you're not feeling too well. i think i'll just call  it a night.
transcripts/S04E09.csv,it can wait.
transcripts/S04E09.csv,yes i did. um...
transcripts/S04E09.csv,there's something that i've been meaning to say to you and  i keep putting it off and that's not fair to you.
transcripts/S04E09.csv,i don't think it's working out.
transcripts/S04E09.csv,"marty, it's not the age difference. it's just all we ever  talk about is the police force - and i enjoy that - but i  just think..."
transcripts/S04E09.csv,"so, are you ok?"
transcripts/S04E09.csv,"yeah, you too."
transcripts/S10E20.csv,"excuse me, is there a problem?"
transcripts/S10E20.csv,i think he's great.
transcripts/S10E20.csv,i am the owner.
transcripts/S10E20.csv,maureen nervosa.
transcripts/S10E20.csv,"actually, ben will be playing afternoons from now on."
transcripts/S10E20.csv,i choose ben.
transcripts/S03E20.csv,"hey, frasier crane."
transcripts/S03E20.csv,come on — sixty-two in a forty-mile zone with a half-naked  girl in the backseat?
transcripts/S03E20.csv,how do you do? i'm maureen cutler.
transcripts/S03E20.csv,nice to meet you.
transcripts/S03E20.csv,"yeah, why not?"
transcripts/S03E20.csv,that's fine by me.
transcripts/S03E20.csv,"so, what brings you guys here? this is mostly a cop hangout."
transcripts/S03E20.csv,really?
transcripts/S03E20.csv,wait a minute. marty crane? you're martin crane!
transcripts/S03E20.csv,"no, i mean i remember you when i was training. you gave this  great lecture at the academy on how to deal with an armed  suspect."
transcripts/S03E20.csv,how come you left the force?
transcripts/S03E20.csv,i'm sorry.
transcripts/S03E20.csv,"so, do you miss it?"
transcripts/S03E20.csv,"oh. oh, i'm sorry. i have to get over to the  hospital. i told them to beep me if there was any news  about my sergeant."
transcripts/S03E20.csv,she's having a baby.
transcripts/S03E20.csv,"thanks... listen, um, i never do this, but i would love  to have a beer or go to dinner sometime."
transcripts/S03E20.csv,"i don't want to put you on the spot. if  you, uh, if you want to go out, just give me a call."
transcripts/S03E20.csv,you're the only one here.
transcripts/S03E20.csv,"i'm sorry, i just got beeped."
transcripts/S03E20.csv,"yeah, but it was nice to see you. maybe i'll bump into you  again here sometime."
transcripts/S03E20.csv,"ok, bye."
transcripts/S03E20.csv,"so, they finally put my transfer through, and i'm moving out  of traffic and into narcotics. yeah, i'm gonna be working  with, uh, bill henderson at the 31st."
transcripts/S03E20.csv,"yeah, i'm excited, although i hear he can be pretty tough."
transcripts/S03E20.csv,"yeah, he is pretty impressive."
transcripts/S03E20.csv,frasier!
transcripts/S03E20.csv,am i missing something?
transcripts/S03E20.csv,martin?
transcripts/S03E20.csv,why don't i give you two a moment?
transcripts/S04E09.csv,"hi, niles."
transcripts/S04E09.csv,"thanks, frasier."
transcripts/S04E09.csv,thanks.
transcripts/S04E09.csv,"oh, i should have known that you'd hate indian food."
transcripts/S04E09.csv,"yeah, it does. you should try it again sometime."
transcripts/S04E09.csv,nah. you're not feeling too well. i think i'll just call  it a night.
transcripts/S04E09.csv,it can wait.
transcripts/S04E09.csv,yes i did. um...
transcripts/S04E09.csv,there's something that i've been meaning to say to you and  i keep putting it off and that's not fair to you.
transcripts/S04E09.csv,i don't think it's working out.
transcripts/S04E09.csv,"marty, it's not the age difference. it's just all we ever  talk about is the police force - and i enjoy that - but i  just think..."
transcripts/S04E09.csv,"so, are you ok?"
transcripts/S04E09.csv,"yeah, you too."
transcripts/S10E20.csv,"excuse me, is there a problem?"
transcripts/S10E20.csv,i think he's great.
transcripts/S10E20.csv,i am the owner.
transcripts/S10E20.csv,maureen nervosa.
transcripts/S10E20.csv,"actually, ben will be playing afternoons from now on."
transcripts/S10E20.csv,i choose ben.
transcripts/S03E20.csv,"hey, frasier crane."
transcripts/S03E20.csv,come on — sixty-two in a forty-mile zone with a half-naked  girl in the backseat?
transcripts/S03E20.csv,how do you do? i'm maureen cutler.
transcripts/S03E20.csv,nice to meet you.
transcripts/S03E20.csv,"yeah, why not?"
transcripts/S03E20.csv,that's fine by me.
transcripts/S03E20.csv,"so, what brings you guys here? this is mostly a cop hangout."
transcripts/S03E20.csv,really?
transcripts/S03E20.csv,wait a minute. marty crane? you're martin crane!
transcripts/S03E20.csv,"no, i mean i remember you when i was training. you gave this  great lecture at the academy on how to deal with an armed  suspect."
transcripts/S03E20.csv,how come you left the force?
transcripts/S03E20.csv,i'm sorry.
transcripts/S03E20.csv,"so, do you miss it?"
transcripts/S03E20.csv,"oh. oh, i'm sorry. i have to get over to the  hospital. i told them to beep me if there was any news  about my sergeant."
transcripts/S03E20.csv,she's having a baby.
transcripts/S03E20.csv,"thanks... listen, um, i never do this, but i would love  to have a beer or go to dinner sometime."
transcripts/S03E20.csv,"i don't want to put you on the spot. if  you, uh, if you want to go out, just give me a call."
transcripts/S03E20.csv,you're the only one here.
transcripts/S03E20.csv,"i'm sorry, i just got beeped."
transcripts/S03E20.csv,"yeah, but it was nice to see you. maybe i'll bump into you  again here sometime."
transcripts/S03E20.csv,"ok, bye."
transcripts/S03E20.csv,"so, they finally put my transfer through, and i'm moving out  of traffic and into narcotics. yeah, i'm gonna be working  with, uh, bill henderson at the 31st."
transcripts/S03E20.csv,"yeah, i'm excited, although i hear he can be pretty tough."
transcripts/S03E20.csv,"yeah, he is pretty impressive."
transcripts/S03E20.csv,frasier!
transcripts/S03E20.csv,am i missing something?
transcripts/S03E20.csv,martin?
transcripts/S03E20.csv,why don't i give you two a moment?
transcripts/S04E09.csv,"hi, niles."
transcripts/S04E09.csv,"thanks, frasier."
transcripts/S04E09.csv,thanks.
transcripts/S04E09.csv,"oh, i should have known that you'd hate indian food."
transcripts/S04E09.csv,"yeah, it does. you should try it again sometime."
transcripts/S04E09.csv,nah. you're not feeling too well. i think i'll just call  it a night.
transcripts/S04E09.csv,it can wait.
transcripts/S04E09.csv,yes i did. um...
transcripts/S04E09.csv,there's something that i've been meaning to say to you and  i keep putting it off and that's not fair to you.
transcripts/S04E09.csv,i don't think it's working out.
transcripts/S04E09.csv,"marty, it's not the age difference. it's just all we ever  talk about is the police force - and i enjoy that - but i  just think..."
transcripts/S04E09.csv,"so, are you ok?"
transcripts/S04E09.csv,"yeah, you too."
transcripts/S10E20.csv,"excuse me, is there a problem?"
transcripts/S10E20.csv,i think he's great.
transcripts/S10E20.csv,i am the owner.
transcripts/S10E20.csv,maureen nervosa.
transcripts/S10E20.csv,"actually, ben will be playing afternoons from now on."
transcripts/S10E20.csv,i choose ben.
