transcripts/S05E06.csv,niles?
transcripts/S05E06.csv,"oh, just looking for the bar... oh, there it is! let me buy you a cocktail."
transcripts/S05E06.csv,"i don't know what it is about being on the water that makes me  so thirsty! ooh, have you been working out?"
transcripts/S05E06.csv,"so, are you still separated?"
transcripts/S05E06.csv,"oh, you poor thing."
transcripts/S05E06.csv,"oh, good! you know i've always thought the world of you and,  uh..."
transcripts/S05E06.csv,"yeah, an angel! anyway, if there's ever anything i can do to  be of comfort to you, you  just let me know. ooh, what is that marvelous fragrance?"
transcripts/S05E06.csv,"i'm sure you can convince maris that this is all completely  innocent—if not, i'm in cabin 712."
transcripts/S11E16.csv,right.
transcripts/S11E16.csv,i know.
transcripts/S11E16.csv,i feel good.
transcripts/S11E16.csv,really?
transcripts/S11E16.csv,"tiny little hat, right."
transcripts/S11E16.csv,the big red nose.
transcripts/S11E16.csv,please don't kill me!
transcripts/S11E16.csv,"oh, uh, i mean, you're my friend and i like you."
transcripts/S11E16.csv,"no, i really don't think that..."
transcripts/S11E16.csv,and you really think that'll work?
transcripts/S11E16.csv,you mean you're not controlling him?!
transcripts/S05E06.csv,niles?
transcripts/S05E06.csv,"oh, just looking for the bar... oh, there it is! let me buy you a cocktail."
transcripts/S05E06.csv,"i don't know what it is about being on the water that makes me  so thirsty! ooh, have you been working out?"
transcripts/S05E06.csv,"so, are you still separated?"
transcripts/S05E06.csv,"oh, you poor thing."
transcripts/S05E06.csv,"oh, good! you know i've always thought the world of you and,  uh..."
transcripts/S05E06.csv,"yeah, an angel! anyway, if there's ever anything i can do to  be of comfort to you, you  just let me know. ooh, what is that marvelous fragrance?"
transcripts/S05E06.csv,"i'm sure you can convince maris that this is all completely  innocent—if not, i'm in cabin 712."
transcripts/S11E16.csv,right.
transcripts/S11E16.csv,i know.
transcripts/S11E16.csv,i feel good.
transcripts/S11E16.csv,really?
transcripts/S11E16.csv,"tiny little hat, right."
transcripts/S11E16.csv,the big red nose.
transcripts/S11E16.csv,please don't kill me!
transcripts/S11E16.csv,"oh, uh, i mean, you're my friend and i like you."
transcripts/S11E16.csv,"no, i really don't think that..."
transcripts/S11E16.csv,and you really think that'll work?
transcripts/S11E16.csv,you mean you're not controlling him?!
transcripts/S05E06.csv,niles?
transcripts/S05E06.csv,"oh, just looking for the bar... oh, there it is! let me buy you a cocktail."
transcripts/S05E06.csv,"i don't know what it is about being on the water that makes me  so thirsty! ooh, have you been working out?"
transcripts/S05E06.csv,"so, are you still separated?"
transcripts/S05E06.csv,"oh, you poor thing."
transcripts/S05E06.csv,"oh, good! you know i've always thought the world of you and,  uh..."
transcripts/S05E06.csv,"yeah, an angel! anyway, if there's ever anything i can do to  be of comfort to you, you  just let me know. ooh, what is that marvelous fragrance?"
transcripts/S05E06.csv,"i'm sure you can convince maris that this is all completely  innocent—if not, i'm in cabin 712."
transcripts/S11E16.csv,right.
transcripts/S11E16.csv,i know.
transcripts/S11E16.csv,i feel good.
transcripts/S11E16.csv,really?
transcripts/S11E16.csv,"tiny little hat, right."
transcripts/S11E16.csv,the big red nose.
transcripts/S11E16.csv,please don't kill me!
transcripts/S11E16.csv,"oh, uh, i mean, you're my friend and i like you."
transcripts/S11E16.csv,"no, i really don't think that..."
transcripts/S11E16.csv,and you really think that'll work?
transcripts/S11E16.csv,you mean you're not controlling him?!
