transcripts/S02E04.csv,eight weeks.
transcripts/S11E12.csv,celeste?
transcripts/S11E12.csv,you're all on the radio. i'm listening down in the kitchen.
transcripts/S02E04.csv,eight weeks.
transcripts/S11E12.csv,celeste?
transcripts/S11E12.csv,you're all on the radio. i'm listening down in the kitchen.
transcripts/S02E04.csv,eight weeks.
transcripts/S11E12.csv,celeste?
transcripts/S11E12.csv,you're all on the radio. i'm listening down in the kitchen.
