transcripts/S08E23.csv,"well, we're certainly interested as well, but we've- we've heard that a lot of homes in this area have a  flooding problem. now, what do you know about the  basement here?"
transcripts/S08E23.csv,yes.
transcripts/S08E23.csv,oh!
transcripts/S08E23.csv,"if he could give us a break in the price, i'm sure  we'll make an offer."
transcripts/S08E23.csv,"bye, sonny."
transcripts/S08E23.csv,"well, we're certainly interested as well, but we've- we've heard that a lot of homes in this area have a  flooding problem. now, what do you know about the  basement here?"
transcripts/S08E23.csv,yes.
transcripts/S08E23.csv,oh!
transcripts/S08E23.csv,"if he could give us a break in the price, i'm sure  we'll make an offer."
transcripts/S08E23.csv,"bye, sonny."
transcripts/S08E23.csv,"well, we're certainly interested as well, but we've- we've heard that a lot of homes in this area have a  flooding problem. now, what do you know about the  basement here?"
transcripts/S08E23.csv,yes.
transcripts/S08E23.csv,oh!
transcripts/S08E23.csv,"if he could give us a break in the price, i'm sure  we'll make an offer."
transcripts/S08E23.csv,"bye, sonny."
