transcripts/S10E18.csv,"very kind of you to have us here, crane."
transcripts/S10E18.csv,"now, tell me. how can we get our hands on some of this fantastic caviar?"
transcripts/S10E18.csv,"well, perhaps i should mention then that, uh, this is for our yacht party, at which there just might be room enough for another guest."
transcripts/S10E18.csv,"well, maybe five, six ounces?"
transcripts/S10E18.csv,"thatta boy, crane!"
transcripts/S10E18.csv,"very kind of you to have us here, crane."
transcripts/S10E18.csv,"now, tell me. how can we get our hands on some of this fantastic caviar?"
transcripts/S10E18.csv,"well, perhaps i should mention then that, uh, this is for our yacht party, at which there just might be room enough for another guest."
transcripts/S10E18.csv,"well, maybe five, six ounces?"
transcripts/S10E18.csv,"thatta boy, crane!"
transcripts/S10E18.csv,"very kind of you to have us here, crane."
transcripts/S10E18.csv,"now, tell me. how can we get our hands on some of this fantastic caviar?"
transcripts/S10E18.csv,"well, perhaps i should mention then that, uh, this is for our yacht party, at which there just might be room enough for another guest."
transcripts/S10E18.csv,"well, maybe five, six ounces?"
transcripts/S10E18.csv,"thatta boy, crane!"
