transcripts/S09E12.csv,"of course. you know, i was quite cross with you when you stole my daughter away from that rich lawyer. but from the looks of this place, you do all right."
transcripts/S09E12.csv,"oh, of course, you're the one who's kind enough to keep my daughter employed."
transcripts/S09E12.csv,"well, she does what she can with what god gave her."
transcripts/S09E12.csv,"oh, i could use a tiny nip of something myself."
transcripts/S09E12.csv,"you know, that flight made my feet swell up like a couple of christmas hams. simon, give 'em a rub."
transcripts/S09E12.csv,"oh, look who's the lady of the house. spend a lot of time here, do you?"
transcripts/S09E12.csv,"simon moon, bite your tongue! my baby girl's a virgin. isn't that so, daphne?"
transcripts/S09E12.csv,it's you that'll have your leg over any filth that moves.
transcripts/S09E12.csv,daphne...
transcripts/S09E12.csv,"daphne, dear, i've finally figured out what's wrong with your outfit: it's made for a smaller woman."
transcripts/S09E12.csv,"daphne, don't go picking' on your brother. i'll just have me tea. niles, be a dear and get me a pillow for me head."
transcripts/S09E12.csv,"oh, and i wouldn't get too settled in, you'll need to take me home soon so i can take me medicine."
transcripts/S09E12.csv,"daphne, dear, aren't you lucky to be dating a man who's always right?"
transcripts/S09E12.csv,"oh, listen to my silly girl! if she knew how to deal with men, she'd have a husband by now."
transcripts/S09E12.csv,an empty can? i'd have thought with all your fancy dingle dangles you'd have something nicer for your guests who smoke.
transcripts/S09E12.csv,"this is lovely, thank you."
transcripts/S09E12.csv,"oh, tell them, son."
transcripts/S09E12.csv,it's true.
transcripts/S09E12.csv,"well, i thought meself for the first week, but no, he's gone  for good."
transcripts/S09E12.csv,"oh, what's left for me there? an empty house full of  memories? no, i'd rather stay right here, in the company of my babies. thank goodness i have my children to lean upon."
transcripts/S09E13.csv,it's true. thank goodness i have my children to lean upon.
transcripts/S09E13.csv,"oh, that would be lovely - if i thought i could keep anything  down. how could your father do this to  me? you sleep down the hall from someone for forty years,  you think you know them!"
transcripts/S09E13.csv,"that's because there's no such thing! you young modern  people think marriage is some sort of promenade through  paradise, when it's more like a march through hell with  a man strapped to your back and a litter of nasty babies  swinging from your teats!"
transcripts/S09E13.csv,"you're right, dear. and the sooner you get home to bed,  the sooner it'll be here."
transcripts/S09E13.csv,"and with every tick of the clock, your womanly resistance  weakens, and before you know it he'll be on top of you like  one of those bloody badgers at the zoo."
transcripts/S09E13.csv,"well, show us what you got."
transcripts/S09E13.csv,"two sixes, then."
transcripts/S09E13.csv,"i'm sorry, love. i've got aces over deuces."
transcripts/S09E13.csv,"you'd better make it soon, i won't be around much longer."
transcripts/S09E13.csv,"no, i mean i'll be going back to england soon. well, it's  nice enough here, but you and daphne aren't the most  exciting people, are you? no,  as soon as i've sorted myself out, simon and i are back  on the plane."
transcripts/S09E13.csv,"thank you, no. oh, the shock's worn off, really. i've  come to realize i've spent most of my life taking care  of a layabout husband. well, now it's my turn to be taken  care of. thank god i've got simon."
transcripts/S09E13.csv,"oh, well of course he will! i know he plays the fool  sometimes, but he'd never let me down."
transcripts/S09E13.csv,oh... you good for a few more hands?
transcripts/S09E13.csv,"oh, not to worry. we can play for rubs."
transcripts/S09E13.csv,"a bit late at night for a single lady to be in a man's home,  isn't it?"
transcripts/S09E13.csv,"oh... well, but that's courageous! good to see him  finally taking charge of his life."
transcripts/S09E13.csv,"that is not so! simon is a special boy, he wasn't meant to  be kept at home. he has dreams. you wouldn't understand  that!"
transcripts/S09E13.csv,"is that so? well, if that's how you repay me for all my  sacrifices-"
transcripts/S09E13.csv,"fine! just for that, i'm not spending another night under  this roof. i intend to fetch my things, find a hotel, and  be on the first flight home tomorrow! excuse me!"
transcripts/S09E13.csv,just so you know - i won't be needing a lift to the hotel.  i shall call a taxi.
transcripts/S09E13.csv,"you'll see. i don't need any of you rotten ingrates, i can  take perfectly good care of myself!"
transcripts/S09E13.csv,ow!
transcripts/S09E13.csv,"well, of course i'm hurt! oh, get me ice-"
transcripts/S09E13.csv,and whiskey!
transcripts/S09E13.csv,"not cheap stuff! oh, i don't know how i'm gonna fly now,  the pain is unbearable! though i know i'm not welcome here.  oh, i can't say i blame you. no sense burdening yourself  with an old woman... who can't take care of herself...  and has nowhere else to go..."
transcripts/S09E13.csv,"well, move along, the whiskey's not pouring itself."
transcripts/S09E13.csv,"then why did he give me sedatives,  smarty?"
transcripts/S09E13.csv,"oh, fetch me my water."
transcripts/S09E13.csv,i'm still waiting out here!
transcripts/S09E13.csv,why? am i interrupting your dirty sex?
transcripts/S09E13.csv,"don't empty the sink, i'm soaking my smalls!"
transcripts/S09E13.csv,"no, didn't say a word about flying. that's probably a  bad sign, eh?"
transcripts/S09E12.csv,"of course. you know, i was quite cross with you when you stole my daughter away from that rich lawyer. but from the looks of this place, you do all right."
transcripts/S09E12.csv,"oh, of course, you're the one who's kind enough to keep my daughter employed."
transcripts/S09E12.csv,"well, she does what she can with what god gave her."
transcripts/S09E12.csv,"oh, i could use a tiny nip of something myself."
transcripts/S09E12.csv,"you know, that flight made my feet swell up like a couple of christmas hams. simon, give 'em a rub."
transcripts/S09E12.csv,"oh, look who's the lady of the house. spend a lot of time here, do you?"
transcripts/S09E12.csv,"simon moon, bite your tongue! my baby girl's a virgin. isn't that so, daphne?"
transcripts/S09E12.csv,it's you that'll have your leg over any filth that moves.
transcripts/S09E12.csv,daphne...
transcripts/S09E12.csv,"daphne, dear, i've finally figured out what's wrong with your outfit: it's made for a smaller woman."
transcripts/S09E12.csv,"daphne, don't go picking' on your brother. i'll just have me tea. niles, be a dear and get me a pillow for me head."
transcripts/S09E12.csv,"oh, and i wouldn't get too settled in, you'll need to take me home soon so i can take me medicine."
transcripts/S09E12.csv,"daphne, dear, aren't you lucky to be dating a man who's always right?"
transcripts/S09E12.csv,"oh, listen to my silly girl! if she knew how to deal with men, she'd have a husband by now."
transcripts/S09E12.csv,an empty can? i'd have thought with all your fancy dingle dangles you'd have something nicer for your guests who smoke.
transcripts/S09E12.csv,"this is lovely, thank you."
transcripts/S09E12.csv,"oh, tell them, son."
transcripts/S09E12.csv,it's true.
transcripts/S09E12.csv,"well, i thought meself for the first week, but no, he's gone  for good."
transcripts/S09E12.csv,"oh, what's left for me there? an empty house full of  memories? no, i'd rather stay right here, in the company of my babies. thank goodness i have my children to lean upon."
transcripts/S09E13.csv,it's true. thank goodness i have my children to lean upon.
transcripts/S09E13.csv,"oh, that would be lovely - if i thought i could keep anything  down. how could your father do this to  me? you sleep down the hall from someone for forty years,  you think you know them!"
transcripts/S09E13.csv,"that's because there's no such thing! you young modern  people think marriage is some sort of promenade through  paradise, when it's more like a march through hell with  a man strapped to your back and a litter of nasty babies  swinging from your teats!"
transcripts/S09E13.csv,"you're right, dear. and the sooner you get home to bed,  the sooner it'll be here."
transcripts/S09E13.csv,"and with every tick of the clock, your womanly resistance  weakens, and before you know it he'll be on top of you like  one of those bloody badgers at the zoo."
transcripts/S09E13.csv,"well, show us what you got."
transcripts/S09E13.csv,"two sixes, then."
transcripts/S09E13.csv,"i'm sorry, love. i've got aces over deuces."
transcripts/S09E13.csv,"you'd better make it soon, i won't be around much longer."
transcripts/S09E13.csv,"no, i mean i'll be going back to england soon. well, it's  nice enough here, but you and daphne aren't the most  exciting people, are you? no,  as soon as i've sorted myself out, simon and i are back  on the plane."
transcripts/S09E13.csv,"thank you, no. oh, the shock's worn off, really. i've  come to realize i've spent most of my life taking care  of a layabout husband. well, now it's my turn to be taken  care of. thank god i've got simon."
transcripts/S09E13.csv,"oh, well of course he will! i know he plays the fool  sometimes, but he'd never let me down."
transcripts/S09E13.csv,oh... you good for a few more hands?
transcripts/S09E13.csv,"oh, not to worry. we can play for rubs."
transcripts/S09E13.csv,"a bit late at night for a single lady to be in a man's home,  isn't it?"
transcripts/S09E13.csv,"oh... well, but that's courageous! good to see him  finally taking charge of his life."
transcripts/S09E13.csv,"that is not so! simon is a special boy, he wasn't meant to  be kept at home. he has dreams. you wouldn't understand  that!"
transcripts/S09E13.csv,"is that so? well, if that's how you repay me for all my  sacrifices-"
transcripts/S09E13.csv,"fine! just for that, i'm not spending another night under  this roof. i intend to fetch my things, find a hotel, and  be on the first flight home tomorrow! excuse me!"
transcripts/S09E13.csv,just so you know - i won't be needing a lift to the hotel.  i shall call a taxi.
transcripts/S09E13.csv,"you'll see. i don't need any of you rotten ingrates, i can  take perfectly good care of myself!"
transcripts/S09E13.csv,ow!
transcripts/S09E13.csv,"well, of course i'm hurt! oh, get me ice-"
transcripts/S09E13.csv,and whiskey!
transcripts/S09E13.csv,"not cheap stuff! oh, i don't know how i'm gonna fly now,  the pain is unbearable! though i know i'm not welcome here.  oh, i can't say i blame you. no sense burdening yourself  with an old woman... who can't take care of herself...  and has nowhere else to go..."
transcripts/S09E13.csv,"well, move along, the whiskey's not pouring itself."
transcripts/S09E13.csv,"then why did he give me sedatives,  smarty?"
transcripts/S09E13.csv,"oh, fetch me my water."
transcripts/S09E13.csv,i'm still waiting out here!
transcripts/S09E13.csv,why? am i interrupting your dirty sex?
transcripts/S09E13.csv,"don't empty the sink, i'm soaking my smalls!"
transcripts/S09E13.csv,"no, didn't say a word about flying. that's probably a  bad sign, eh?"
transcripts/S09E12.csv,"of course. you know, i was quite cross with you when you stole my daughter away from that rich lawyer. but from the looks of this place, you do all right."
transcripts/S09E12.csv,"oh, of course, you're the one who's kind enough to keep my daughter employed."
transcripts/S09E12.csv,"well, she does what she can with what god gave her."
transcripts/S09E12.csv,"oh, i could use a tiny nip of something myself."
transcripts/S09E12.csv,"you know, that flight made my feet swell up like a couple of christmas hams. simon, give 'em a rub."
transcripts/S09E12.csv,"oh, look who's the lady of the house. spend a lot of time here, do you?"
transcripts/S09E12.csv,"simon moon, bite your tongue! my baby girl's a virgin. isn't that so, daphne?"
transcripts/S09E12.csv,it's you that'll have your leg over any filth that moves.
transcripts/S09E12.csv,daphne...
transcripts/S09E12.csv,"daphne, dear, i've finally figured out what's wrong with your outfit: it's made for a smaller woman."
transcripts/S09E12.csv,"daphne, don't go picking' on your brother. i'll just have me tea. niles, be a dear and get me a pillow for me head."
transcripts/S09E12.csv,"oh, and i wouldn't get too settled in, you'll need to take me home soon so i can take me medicine."
transcripts/S09E12.csv,"daphne, dear, aren't you lucky to be dating a man who's always right?"
transcripts/S09E12.csv,"oh, listen to my silly girl! if she knew how to deal with men, she'd have a husband by now."
transcripts/S09E12.csv,an empty can? i'd have thought with all your fancy dingle dangles you'd have something nicer for your guests who smoke.
transcripts/S09E12.csv,"this is lovely, thank you."
transcripts/S09E12.csv,"oh, tell them, son."
transcripts/S09E12.csv,it's true.
transcripts/S09E12.csv,"well, i thought meself for the first week, but no, he's gone  for good."
transcripts/S09E12.csv,"oh, what's left for me there? an empty house full of  memories? no, i'd rather stay right here, in the company of my babies. thank goodness i have my children to lean upon."
transcripts/S09E13.csv,it's true. thank goodness i have my children to lean upon.
transcripts/S09E13.csv,"oh, that would be lovely - if i thought i could keep anything  down. how could your father do this to  me? you sleep down the hall from someone for forty years,  you think you know them!"
transcripts/S09E13.csv,"that's because there's no such thing! you young modern  people think marriage is some sort of promenade through  paradise, when it's more like a march through hell with  a man strapped to your back and a litter of nasty babies  swinging from your teats!"
transcripts/S09E13.csv,"you're right, dear. and the sooner you get home to bed,  the sooner it'll be here."
transcripts/S09E13.csv,"and with every tick of the clock, your womanly resistance  weakens, and before you know it he'll be on top of you like  one of those bloody badgers at the zoo."
transcripts/S09E13.csv,"well, show us what you got."
transcripts/S09E13.csv,"two sixes, then."
transcripts/S09E13.csv,"i'm sorry, love. i've got aces over deuces."
transcripts/S09E13.csv,"you'd better make it soon, i won't be around much longer."
transcripts/S09E13.csv,"no, i mean i'll be going back to england soon. well, it's  nice enough here, but you and daphne aren't the most  exciting people, are you? no,  as soon as i've sorted myself out, simon and i are back  on the plane."
transcripts/S09E13.csv,"thank you, no. oh, the shock's worn off, really. i've  come to realize i've spent most of my life taking care  of a layabout husband. well, now it's my turn to be taken  care of. thank god i've got simon."
transcripts/S09E13.csv,"oh, well of course he will! i know he plays the fool  sometimes, but he'd never let me down."
transcripts/S09E13.csv,oh... you good for a few more hands?
transcripts/S09E13.csv,"oh, not to worry. we can play for rubs."
transcripts/S09E13.csv,"a bit late at night for a single lady to be in a man's home,  isn't it?"
transcripts/S09E13.csv,"oh... well, but that's courageous! good to see him  finally taking charge of his life."
transcripts/S09E13.csv,"that is not so! simon is a special boy, he wasn't meant to  be kept at home. he has dreams. you wouldn't understand  that!"
transcripts/S09E13.csv,"is that so? well, if that's how you repay me for all my  sacrifices-"
transcripts/S09E13.csv,"fine! just for that, i'm not spending another night under  this roof. i intend to fetch my things, find a hotel, and  be on the first flight home tomorrow! excuse me!"
transcripts/S09E13.csv,just so you know - i won't be needing a lift to the hotel.  i shall call a taxi.
transcripts/S09E13.csv,"you'll see. i don't need any of you rotten ingrates, i can  take perfectly good care of myself!"
transcripts/S09E13.csv,ow!
transcripts/S09E13.csv,"well, of course i'm hurt! oh, get me ice-"
transcripts/S09E13.csv,and whiskey!
transcripts/S09E13.csv,"not cheap stuff! oh, i don't know how i'm gonna fly now,  the pain is unbearable! though i know i'm not welcome here.  oh, i can't say i blame you. no sense burdening yourself  with an old woman... who can't take care of herself...  and has nowhere else to go..."
transcripts/S09E13.csv,"well, move along, the whiskey's not pouring itself."
transcripts/S09E13.csv,"then why did he give me sedatives,  smarty?"
transcripts/S09E13.csv,"oh, fetch me my water."
transcripts/S09E13.csv,i'm still waiting out here!
transcripts/S09E13.csv,why? am i interrupting your dirty sex?
transcripts/S09E13.csv,"don't empty the sink, i'm soaking my smalls!"
transcripts/S09E13.csv,"no, didn't say a word about flying. that's probably a  bad sign, eh?"
