transcripts/S07E24.csv,there's my baby!
transcripts/S07E24.csv,"oh, i know who he is, love. i want to thank you,  donny, for rescuing my daughter from that horrible dr. crane."
transcripts/S07E24.csv,"every time i call her, i'm not on the phone five minutes,  before that tyrant is ordering her to hang up. cup of tea, please. thought my daughter might get me one,  but she didn't. oh, this seat's worse than that  winnebago! though not half as uncomfortable as that sardine- tin of a room you arranged for me."
transcripts/S07E24.csv,"oh, god, can't bear the smell of that, take it away.  reminds me of the salmon they served on that airplane.  oh, if it doesn't have me hurling me guts out, it'll  be by god's own intervention. now, give your new mom  a kiss, donny."
transcripts/S07E24.csv,"well, come here, let's have a good look at you. we were starting to think our daphne would never find herself  a young man. and i see she hasn't. but,  beggars can't be choosers. well, i'm gonna see if  your father's stomach is feeling any better. he keeps saying  it's tension! what he's got to be tense about, i'll never  know."
transcripts/S07E24.csv,so here you all are. what is the point of bringing the party  down to the winnebago when there's a perfectly nice room  right here?
transcripts/S07E24.csv,"oh, daphne, don't get your blood pressure up! you've got  your baby to think of. here, have a drink and relax."
transcripts/S07E24.csv,there's my baby!
transcripts/S07E24.csv,"oh, i know who he is, love. i want to thank you,  donny, for rescuing my daughter from that horrible dr. crane."
transcripts/S07E24.csv,"every time i call her, i'm not on the phone five minutes,  before that tyrant is ordering her to hang up. cup of tea, please. thought my daughter might get me one,  but she didn't. oh, this seat's worse than that  winnebago! though not half as uncomfortable as that sardine- tin of a room you arranged for me."
transcripts/S07E24.csv,"oh, god, can't bear the smell of that, take it away.  reminds me of the salmon they served on that airplane.  oh, if it doesn't have me hurling me guts out, it'll  be by god's own intervention. now, give your new mom  a kiss, donny."
transcripts/S07E24.csv,"well, come here, let's have a good look at you. we were starting to think our daphne would never find herself  a young man. and i see she hasn't. but,  beggars can't be choosers. well, i'm gonna see if  your father's stomach is feeling any better. he keeps saying  it's tension! what he's got to be tense about, i'll never  know."
transcripts/S07E24.csv,so here you all are. what is the point of bringing the party  down to the winnebago when there's a perfectly nice room  right here?
transcripts/S07E24.csv,"oh, daphne, don't get your blood pressure up! you've got  your baby to think of. here, have a drink and relax."
transcripts/S07E24.csv,there's my baby!
transcripts/S07E24.csv,"oh, i know who he is, love. i want to thank you,  donny, for rescuing my daughter from that horrible dr. crane."
transcripts/S07E24.csv,"every time i call her, i'm not on the phone five minutes,  before that tyrant is ordering her to hang up. cup of tea, please. thought my daughter might get me one,  but she didn't. oh, this seat's worse than that  winnebago! though not half as uncomfortable as that sardine- tin of a room you arranged for me."
transcripts/S07E24.csv,"oh, god, can't bear the smell of that, take it away.  reminds me of the salmon they served on that airplane.  oh, if it doesn't have me hurling me guts out, it'll  be by god's own intervention. now, give your new mom  a kiss, donny."
transcripts/S07E24.csv,"well, come here, let's have a good look at you. we were starting to think our daphne would never find herself  a young man. and i see she hasn't. but,  beggars can't be choosers. well, i'm gonna see if  your father's stomach is feeling any better. he keeps saying  it's tension! what he's got to be tense about, i'll never  know."
transcripts/S07E24.csv,so here you all are. what is the point of bringing the party  down to the winnebago when there's a perfectly nice room  right here?
transcripts/S07E24.csv,"oh, daphne, don't get your blood pressure up! you've got  your baby to think of. here, have a drink and relax."
