transcripts/S05E23.csv,"mustn't mind old rhino, always in a vile mood."
transcripts/S05E23.csv,"karl landis, allison's husband. they call him ""rhino""  because of his mean temper."
transcripts/S05E23.csv,"not surprised people don't know. man's always on safari.  loves guns. guns and women. no secret, notorious for  it. cheats on her constantly. mark my words, one of  these days she'll pay him back and then rub his  bloodthirsty nose in it."
transcripts/S07E24.csv,"oi, simon! bit o' bad news."
transcripts/S07E24.csv,"peter's gotten sick into the piano, so we've been asked  to vacate the bar."
transcripts/S07E24.csv,"right. give us a hand, lads!"
transcripts/S05E23.csv,"mustn't mind old rhino, always in a vile mood."
transcripts/S05E23.csv,"karl landis, allison's husband. they call him ""rhino""  because of his mean temper."
transcripts/S05E23.csv,"not surprised people don't know. man's always on safari.  loves guns. guns and women. no secret, notorious for  it. cheats on her constantly. mark my words, one of  these days she'll pay him back and then rub his  bloodthirsty nose in it."
transcripts/S07E24.csv,"oi, simon! bit o' bad news."
transcripts/S07E24.csv,"peter's gotten sick into the piano, so we've been asked  to vacate the bar."
transcripts/S07E24.csv,"right. give us a hand, lads!"
transcripts/S05E23.csv,"mustn't mind old rhino, always in a vile mood."
transcripts/S05E23.csv,"karl landis, allison's husband. they call him ""rhino""  because of his mean temper."
transcripts/S05E23.csv,"not surprised people don't know. man's always on safari.  loves guns. guns and women. no secret, notorious for  it. cheats on her constantly. mark my words, one of  these days she'll pay him back and then rub his  bloodthirsty nose in it."
transcripts/S07E24.csv,"oi, simon! bit o' bad news."
transcripts/S07E24.csv,"peter's gotten sick into the piano, so we've been asked  to vacate the bar."
transcripts/S07E24.csv,"right. give us a hand, lads!"
