transcripts/S05E16.csv,"i was in the neighborhood, i thought  i'd stop by!"
transcripts/S05E16.csv,it's nice to meet you.
transcripts/S05E16.csv,i think he's ashamed of me. why else would he turn down an  invitation to my wedding?
transcripts/S05E16.csv,"yeah, on saturday. don't tell me you didn't get the  invitation."
transcripts/S05E16.csv,i knew it. i knew mom wasn't telling the truth. she said  she never heard back from you.
transcripts/S05E16.csv,"oh, it's all so silly. mom has never forgiven frasier for  some career advice he gave me. and, trust me, he saved me  from going down the wrong path."
transcripts/S05E16.csv,sure.
transcripts/S05E16.csv,my folks wanted me to go to medical school.
transcripts/S05E16.csv,i became a juggler. i perform on street corners.
transcripts/S05E16.csv,"sure, lots of times."
transcripts/S05E16.csv,"this is my fiancée, mary-ann taubeneck."
transcripts/S05E16.csv,mary-ann has some issues with her family.
transcripts/S05E16.csv,performer. street performer.
transcripts/S05E16.csv,"great, isn't she?"
transcripts/S05E16.csv,"a few months back, i performed at one of her parents' garden  parties. they were really snooty to me. that seemed to spark  something in her. she asked me for a date right in front of  them. that's how she is. she likes to play with her parents'  heads."
transcripts/S05E16.csv,what do you mean?
transcripts/S05E16.csv,"yeah, she really is. my family adores her. you should hear  my mom, she thinks crystal's the best thing that ever happened  to me."
transcripts/S05E16.csv,"did i say that? i mean mary-ann. i must have been admiring  the beautiful crystal over there, that's why i called her  crystal."
transcripts/S05E16.csv,"i'm so nervous these days, i don't know what i'm saying.  i guess it's just a case of pre-wedding jitters, right?"
transcripts/S05E16.csv,"it was a career conflict. she's a juggler, too. you may  have heard of her — crystal baker?"
transcripts/S05E16.csv,"fabulous performer. fabulous girl, for that matter. but, she  wanted to work in paris and i wanted to stay here."
transcripts/S05E16.csv,"we had a big fight about it. then mary-ann came along.  by the time crystal got back, i was engaged."
transcripts/S05E16.csv,"she was crushed. but she's been wonderful, like she called  me a few nights ago to congratulate me. we talked for hours,  just like old times. she's a sweetheart."
transcripts/S05E16.csv,"yeah, it was really great talking with her. i felt happy...  purely happy. maybe the last time i did. i mean, since  then it's been all the usual pre-wedding stuff. you know,  the jitters, night-sweats, vomiting."
transcripts/S05E16.csv,interfere? you saved me from making a terrible mistake!  i-i value your advice above anything.
transcripts/S05E16.csv,crystal!
transcripts/S05E16.csv,"i'm sorry, mary-ann, but crystal's the one i'm meant to be  with."
transcripts/S05E16.csv,"excuse me, everyone. this may not exactly be appropriate,  but i have a toast too. to the man who reunited me with the  woman i plan to spend my life with—"
transcripts/S05E16.csv,but we want to offer you our thanks—
transcripts/S05E16.csv,"once again, he saved me from making a terrible mistake.  so, everyone, please lift your glasses to my cousin,  frasier crane!"
transcripts/S05E16.csv,"i was in the neighborhood, i thought  i'd stop by!"
transcripts/S05E16.csv,it's nice to meet you.
transcripts/S05E16.csv,i think he's ashamed of me. why else would he turn down an  invitation to my wedding?
transcripts/S05E16.csv,"yeah, on saturday. don't tell me you didn't get the  invitation."
transcripts/S05E16.csv,i knew it. i knew mom wasn't telling the truth. she said  she never heard back from you.
transcripts/S05E16.csv,"oh, it's all so silly. mom has never forgiven frasier for  some career advice he gave me. and, trust me, he saved me  from going down the wrong path."
transcripts/S05E16.csv,sure.
transcripts/S05E16.csv,my folks wanted me to go to medical school.
transcripts/S05E16.csv,i became a juggler. i perform on street corners.
transcripts/S05E16.csv,"sure, lots of times."
transcripts/S05E16.csv,"this is my fiancée, mary-ann taubeneck."
transcripts/S05E16.csv,mary-ann has some issues with her family.
transcripts/S05E16.csv,performer. street performer.
transcripts/S05E16.csv,"great, isn't she?"
transcripts/S05E16.csv,"a few months back, i performed at one of her parents' garden  parties. they were really snooty to me. that seemed to spark  something in her. she asked me for a date right in front of  them. that's how she is. she likes to play with her parents'  heads."
transcripts/S05E16.csv,what do you mean?
transcripts/S05E16.csv,"yeah, she really is. my family adores her. you should hear  my mom, she thinks crystal's the best thing that ever happened  to me."
transcripts/S05E16.csv,"did i say that? i mean mary-ann. i must have been admiring  the beautiful crystal over there, that's why i called her  crystal."
transcripts/S05E16.csv,"i'm so nervous these days, i don't know what i'm saying.  i guess it's just a case of pre-wedding jitters, right?"
transcripts/S05E16.csv,"it was a career conflict. she's a juggler, too. you may  have heard of her — crystal baker?"
transcripts/S05E16.csv,"fabulous performer. fabulous girl, for that matter. but, she  wanted to work in paris and i wanted to stay here."
transcripts/S05E16.csv,"we had a big fight about it. then mary-ann came along.  by the time crystal got back, i was engaged."
transcripts/S05E16.csv,"she was crushed. but she's been wonderful, like she called  me a few nights ago to congratulate me. we talked for hours,  just like old times. she's a sweetheart."
transcripts/S05E16.csv,"yeah, it was really great talking with her. i felt happy...  purely happy. maybe the last time i did. i mean, since  then it's been all the usual pre-wedding stuff. you know,  the jitters, night-sweats, vomiting."
transcripts/S05E16.csv,interfere? you saved me from making a terrible mistake!  i-i value your advice above anything.
transcripts/S05E16.csv,crystal!
transcripts/S05E16.csv,"i'm sorry, mary-ann, but crystal's the one i'm meant to be  with."
transcripts/S05E16.csv,"excuse me, everyone. this may not exactly be appropriate,  but i have a toast too. to the man who reunited me with the  woman i plan to spend my life with—"
transcripts/S05E16.csv,but we want to offer you our thanks—
transcripts/S05E16.csv,"once again, he saved me from making a terrible mistake.  so, everyone, please lift your glasses to my cousin,  frasier crane!"
transcripts/S05E16.csv,"i was in the neighborhood, i thought  i'd stop by!"
transcripts/S05E16.csv,it's nice to meet you.
transcripts/S05E16.csv,i think he's ashamed of me. why else would he turn down an  invitation to my wedding?
transcripts/S05E16.csv,"yeah, on saturday. don't tell me you didn't get the  invitation."
transcripts/S05E16.csv,i knew it. i knew mom wasn't telling the truth. she said  she never heard back from you.
transcripts/S05E16.csv,"oh, it's all so silly. mom has never forgiven frasier for  some career advice he gave me. and, trust me, he saved me  from going down the wrong path."
transcripts/S05E16.csv,sure.
transcripts/S05E16.csv,my folks wanted me to go to medical school.
transcripts/S05E16.csv,i became a juggler. i perform on street corners.
transcripts/S05E16.csv,"sure, lots of times."
transcripts/S05E16.csv,"this is my fiancée, mary-ann taubeneck."
transcripts/S05E16.csv,mary-ann has some issues with her family.
transcripts/S05E16.csv,performer. street performer.
transcripts/S05E16.csv,"great, isn't she?"
transcripts/S05E16.csv,"a few months back, i performed at one of her parents' garden  parties. they were really snooty to me. that seemed to spark  something in her. she asked me for a date right in front of  them. that's how she is. she likes to play with her parents'  heads."
transcripts/S05E16.csv,what do you mean?
transcripts/S05E16.csv,"yeah, she really is. my family adores her. you should hear  my mom, she thinks crystal's the best thing that ever happened  to me."
transcripts/S05E16.csv,"did i say that? i mean mary-ann. i must have been admiring  the beautiful crystal over there, that's why i called her  crystal."
transcripts/S05E16.csv,"i'm so nervous these days, i don't know what i'm saying.  i guess it's just a case of pre-wedding jitters, right?"
transcripts/S05E16.csv,"it was a career conflict. she's a juggler, too. you may  have heard of her — crystal baker?"
transcripts/S05E16.csv,"fabulous performer. fabulous girl, for that matter. but, she  wanted to work in paris and i wanted to stay here."
transcripts/S05E16.csv,"we had a big fight about it. then mary-ann came along.  by the time crystal got back, i was engaged."
transcripts/S05E16.csv,"she was crushed. but she's been wonderful, like she called  me a few nights ago to congratulate me. we talked for hours,  just like old times. she's a sweetheart."
transcripts/S05E16.csv,"yeah, it was really great talking with her. i felt happy...  purely happy. maybe the last time i did. i mean, since  then it's been all the usual pre-wedding stuff. you know,  the jitters, night-sweats, vomiting."
transcripts/S05E16.csv,interfere? you saved me from making a terrible mistake!  i-i value your advice above anything.
transcripts/S05E16.csv,crystal!
transcripts/S05E16.csv,"i'm sorry, mary-ann, but crystal's the one i'm meant to be  with."
transcripts/S05E16.csv,"excuse me, everyone. this may not exactly be appropriate,  but i have a toast too. to the man who reunited me with the  woman i plan to spend my life with—"
transcripts/S05E16.csv,but we want to offer you our thanks—
transcripts/S05E16.csv,"once again, he saved me from making a terrible mistake.  so, everyone, please lift your glasses to my cousin,  frasier crane!"
