transcripts/S10E08.csv,"dr. crane? mrs. crane? it's that time. okay, we're gonna need you to slide over."
transcripts/S10E08.csv,"okay, you ready to take a little trip?"
transcripts/S10E08.csv,of course.
transcripts/S10E08.csv,do i need to call security here?
transcripts/S10E08.csv,"all right, but keep this area clear until i can get it cleaned up."
transcripts/S10E08.csv,"dr. crane? mrs. crane? it's that time. okay, we're gonna need you to slide over."
transcripts/S10E08.csv,"okay, you ready to take a little trip?"
transcripts/S10E08.csv,of course.
transcripts/S10E08.csv,do i need to call security here?
transcripts/S10E08.csv,"all right, but keep this area clear until i can get it cleaned up."
transcripts/S10E08.csv,"dr. crane? mrs. crane? it's that time. okay, we're gonna need you to slide over."
transcripts/S10E08.csv,"okay, you ready to take a little trip?"
transcripts/S10E08.csv,of course.
transcripts/S10E08.csv,do i need to call security here?
transcripts/S10E08.csv,"all right, but keep this area clear until i can get it cleaned up."
