transcripts/S11E15.csv,and a panda!
transcripts/S11E15.csv,who the hell are you?
transcripts/S11E15.csv,"a new set comes on, the bed flies out to the rafters — fast."
transcripts/S11E15.csv,and a panda!
transcripts/S11E15.csv,who the hell are you?
transcripts/S11E15.csv,"a new set comes on, the bed flies out to the rafters — fast."
transcripts/S11E15.csv,and a panda!
transcripts/S11E15.csv,who the hell are you?
transcripts/S11E15.csv,"a new set comes on, the bed flies out to the rafters — fast."
