transcripts/S05E11.csv,"ah, excuse me, ma'am, i saw you cross against the light.  i'm going to have to write you a ticket."
transcripts/S05E11.csv,"you're pregnant? well, i know a little bit about that myself."
transcripts/S05E11.csv,i'm not pregnant!
transcripts/S05E11.csv,would you step over here?
transcripts/S05E11.csv,"ah, excuse me, ma'am, i saw you cross against the light.  i'm going to have to write you a ticket."
transcripts/S05E11.csv,"you're pregnant? well, i know a little bit about that myself."
transcripts/S05E11.csv,i'm not pregnant!
transcripts/S05E11.csv,would you step over here?
transcripts/S05E11.csv,"ah, excuse me, ma'am, i saw you cross against the light.  i'm going to have to write you a ticket."
transcripts/S05E11.csv,"you're pregnant? well, i know a little bit about that myself."
transcripts/S05E11.csv,i'm not pregnant!
transcripts/S05E11.csv,would you step over here?
