transcripts/S03E11.csv,thanks.
transcripts/S03E11.csv,"you know, i can't stay long. i've got 4 more pools to clean  today besides yours and i'm gonna to lose sunlight."
transcripts/S03E11.csv,there's a lot of leaves this year!
transcripts/S03E11.csv,blue one's nice.
transcripts/S03E11.csv,i live in my van!
transcripts/S03E11.csv,"you know, dr. crane to be perfectly honest, when you asked if  i wanted coffee — i thought you were gonna bring me one."
transcripts/S06E11.csv,"hi, dr. crane. this is ralph. the guy whose tire  you changed tonight?"
transcripts/S06E11.csv,"dr. crane, i was just wondering, do you wear cuff links?"
transcripts/S06E11.csv,a gift?! you scratched the hell out of my paint job with  those things! you owe me money!
transcripts/S06E11.csv,"ah, you'll find out when my lawyer sends you the bill!"
transcripts/S03E11.csv,thanks.
transcripts/S03E11.csv,"you know, i can't stay long. i've got 4 more pools to clean  today besides yours and i'm gonna to lose sunlight."
transcripts/S03E11.csv,there's a lot of leaves this year!
transcripts/S03E11.csv,blue one's nice.
transcripts/S03E11.csv,i live in my van!
transcripts/S03E11.csv,"you know, dr. crane to be perfectly honest, when you asked if  i wanted coffee — i thought you were gonna bring me one."
transcripts/S06E11.csv,"hi, dr. crane. this is ralph. the guy whose tire  you changed tonight?"
transcripts/S06E11.csv,"dr. crane, i was just wondering, do you wear cuff links?"
transcripts/S06E11.csv,a gift?! you scratched the hell out of my paint job with  those things! you owe me money!
transcripts/S06E11.csv,"ah, you'll find out when my lawyer sends you the bill!"
transcripts/S03E11.csv,thanks.
transcripts/S03E11.csv,"you know, i can't stay long. i've got 4 more pools to clean  today besides yours and i'm gonna to lose sunlight."
transcripts/S03E11.csv,there's a lot of leaves this year!
transcripts/S03E11.csv,blue one's nice.
transcripts/S03E11.csv,i live in my van!
transcripts/S03E11.csv,"you know, dr. crane to be perfectly honest, when you asked if  i wanted coffee — i thought you were gonna bring me one."
transcripts/S06E11.csv,"hi, dr. crane. this is ralph. the guy whose tire  you changed tonight?"
transcripts/S06E11.csv,"dr. crane, i was just wondering, do you wear cuff links?"
transcripts/S06E11.csv,a gift?! you scratched the hell out of my paint job with  those things! you owe me money!
transcripts/S06E11.csv,"ah, you'll find out when my lawyer sends you the bill!"
