transcripts/S07E06.csv,"well, what the hell are you doing?"
transcripts/S07E06.csv,i've been waiting for twenty minutes. i am so sorry. you're probably  wondering who i am.
transcripts/S07E06.csv,"i got into the shower - my shower. i just moved in next door.  i probably should have started with that, huh? i'm regan shaw, by the way. anyway, the doorbell rang,  and i figured it was the phone guy because i've been waiting  all day long. i ran to catch him, and stepped out into the  hallway and locked myself out. luckily your father came  along."
transcripts/S07E06.csv,thanks for the tea.
transcripts/S07E06.csv,i bet he never wandered into your apartment wearing a towel.
transcripts/S07E06.csv,"from ""king lear,"" yeah. one of the ungrateful daughters.  i don't know what my dad was thinking. never do. i'm sorry,  i have some issues with my father."
transcripts/S07E06.csv,i actually listen to your show.
transcripts/S07E06.csv,i think if i hadn't gone into veterinary medicine it would  have been psychology. think i was just always drawn to  animals.
transcripts/S07E06.csv,hello.
transcripts/S07E06.csv,i just wanted to return this tea cup.
transcripts/S07E06.csv,"i'm so sorry, dr. crane. i just was a little startled seeing  you outside your office."
transcripts/S07E06.csv,yes. right next door to your brother who i just met. is that  so strange?
transcripts/S07E06.csv,"actually, i can't stay. i've got the heating man coming."
transcripts/S07E06.csv,can i take a rain check?
transcripts/S07E06.csv,"yeah, i'd like that. bye."
transcripts/S07E06.csv,you're looking at your brother again.
transcripts/S07E06.csv,"yeah, women hate that."
transcripts/S07E06.csv,what is going on with you two tonight?
transcripts/S07E06.csv,you do?
transcripts/S07E06.csv,"oh my god, really?"
transcripts/S07E06.csv,"well, actually, dr. crane-"
transcripts/S07E06.csv,you do realize that i'm interested in your brother.
transcripts/S07E06.csv,yeah.
transcripts/S07E06.csv,oh!
transcripts/S07E06.csv,"frasier, can i talk to you for a moment alone?"
transcripts/S07E06.csv,"frasier, i think i'd like to leave if that's all right."
transcripts/S07E06.csv,"well, i guess. i'm just feeling a little uncomfortable."
transcripts/S07E06.csv,"that is a relief. i mean, you can understand why i was kinda  freaked out by all that."
transcripts/S07E06.csv,right? frasier?
transcripts/S07E06.csv,can we go?
transcripts/S07E06.csv,oh my god!
transcripts/S07E06.csv,i think i'm going to catch a cab.
transcripts/S07E06.csv,"frankly, no. are you?"
transcripts/S07E06.csv,"actually, poppy, there's something you should know about  niles."
transcripts/S07E20.csv,frasier! long time no see.
transcripts/S07E20.csv,i think the last time was when you came over with that  bottle of wine.
transcripts/S07E20.csv,scott.
transcripts/S07E20.csv,and he's not my boyfriend anymore.
transcripts/S07E20.csv,"well, it's nice seeing you again,  frasier."
transcripts/S07E20.csv,frasier.
transcripts/S07E20.csv,"really, it's none of my business."
transcripts/S07E20.csv,"that's not the ""seattle times."""
transcripts/S07E20.csv,it was nice seeing you.
transcripts/S07E20.csv,frasier.
transcripts/S07E20.csv,"oh, forget about that, it was no big deal. by the way i was  wondering if you'd be available to..."
transcripts/S07E20.csv,let me get all this cleaned up first.
transcripts/S07E20.csv,"hi, daphne."
transcripts/S07E20.csv,"em, oh, frasier, i was concerned about your back."
transcripts/S07E20.csv,we'll each take a side.
transcripts/S07E20.csv,"yes, impinging on your lumbar nerves."
transcripts/S07E06.csv,"well, what the hell are you doing?"
transcripts/S07E06.csv,i've been waiting for twenty minutes. i am so sorry. you're probably  wondering who i am.
transcripts/S07E06.csv,"i got into the shower - my shower. i just moved in next door.  i probably should have started with that, huh? i'm regan shaw, by the way. anyway, the doorbell rang,  and i figured it was the phone guy because i've been waiting  all day long. i ran to catch him, and stepped out into the  hallway and locked myself out. luckily your father came  along."
transcripts/S07E06.csv,thanks for the tea.
transcripts/S07E06.csv,i bet he never wandered into your apartment wearing a towel.
transcripts/S07E06.csv,"from ""king lear,"" yeah. one of the ungrateful daughters.  i don't know what my dad was thinking. never do. i'm sorry,  i have some issues with my father."
transcripts/S07E06.csv,i actually listen to your show.
transcripts/S07E06.csv,i think if i hadn't gone into veterinary medicine it would  have been psychology. think i was just always drawn to  animals.
transcripts/S07E06.csv,hello.
transcripts/S07E06.csv,i just wanted to return this tea cup.
transcripts/S07E06.csv,"i'm so sorry, dr. crane. i just was a little startled seeing  you outside your office."
transcripts/S07E06.csv,yes. right next door to your brother who i just met. is that  so strange?
transcripts/S07E06.csv,"actually, i can't stay. i've got the heating man coming."
transcripts/S07E06.csv,can i take a rain check?
transcripts/S07E06.csv,"yeah, i'd like that. bye."
transcripts/S07E06.csv,you're looking at your brother again.
transcripts/S07E06.csv,"yeah, women hate that."
transcripts/S07E06.csv,what is going on with you two tonight?
transcripts/S07E06.csv,you do?
transcripts/S07E06.csv,"oh my god, really?"
transcripts/S07E06.csv,"well, actually, dr. crane-"
transcripts/S07E06.csv,you do realize that i'm interested in your brother.
transcripts/S07E06.csv,yeah.
transcripts/S07E06.csv,oh!
transcripts/S07E06.csv,"frasier, can i talk to you for a moment alone?"
transcripts/S07E06.csv,"frasier, i think i'd like to leave if that's all right."
transcripts/S07E06.csv,"well, i guess. i'm just feeling a little uncomfortable."
transcripts/S07E06.csv,"that is a relief. i mean, you can understand why i was kinda  freaked out by all that."
transcripts/S07E06.csv,right? frasier?
transcripts/S07E06.csv,can we go?
transcripts/S07E06.csv,oh my god!
transcripts/S07E06.csv,i think i'm going to catch a cab.
transcripts/S07E06.csv,"frankly, no. are you?"
transcripts/S07E06.csv,"actually, poppy, there's something you should know about  niles."
transcripts/S07E20.csv,frasier! long time no see.
transcripts/S07E20.csv,i think the last time was when you came over with that  bottle of wine.
transcripts/S07E20.csv,scott.
transcripts/S07E20.csv,and he's not my boyfriend anymore.
transcripts/S07E20.csv,"well, it's nice seeing you again,  frasier."
transcripts/S07E20.csv,frasier.
transcripts/S07E20.csv,"really, it's none of my business."
transcripts/S07E20.csv,"that's not the ""seattle times."""
transcripts/S07E20.csv,it was nice seeing you.
transcripts/S07E20.csv,frasier.
transcripts/S07E20.csv,"oh, forget about that, it was no big deal. by the way i was  wondering if you'd be available to..."
transcripts/S07E20.csv,let me get all this cleaned up first.
transcripts/S07E20.csv,"hi, daphne."
transcripts/S07E20.csv,"em, oh, frasier, i was concerned about your back."
transcripts/S07E20.csv,we'll each take a side.
transcripts/S07E20.csv,"yes, impinging on your lumbar nerves."
transcripts/S07E06.csv,"well, what the hell are you doing?"
transcripts/S07E06.csv,i've been waiting for twenty minutes. i am so sorry. you're probably  wondering who i am.
transcripts/S07E06.csv,"i got into the shower - my shower. i just moved in next door.  i probably should have started with that, huh? i'm regan shaw, by the way. anyway, the doorbell rang,  and i figured it was the phone guy because i've been waiting  all day long. i ran to catch him, and stepped out into the  hallway and locked myself out. luckily your father came  along."
transcripts/S07E06.csv,thanks for the tea.
transcripts/S07E06.csv,i bet he never wandered into your apartment wearing a towel.
transcripts/S07E06.csv,"from ""king lear,"" yeah. one of the ungrateful daughters.  i don't know what my dad was thinking. never do. i'm sorry,  i have some issues with my father."
transcripts/S07E06.csv,i actually listen to your show.
transcripts/S07E06.csv,i think if i hadn't gone into veterinary medicine it would  have been psychology. think i was just always drawn to  animals.
transcripts/S07E06.csv,hello.
transcripts/S07E06.csv,i just wanted to return this tea cup.
transcripts/S07E06.csv,"i'm so sorry, dr. crane. i just was a little startled seeing  you outside your office."
transcripts/S07E06.csv,yes. right next door to your brother who i just met. is that  so strange?
transcripts/S07E06.csv,"actually, i can't stay. i've got the heating man coming."
transcripts/S07E06.csv,can i take a rain check?
transcripts/S07E06.csv,"yeah, i'd like that. bye."
transcripts/S07E06.csv,you're looking at your brother again.
transcripts/S07E06.csv,"yeah, women hate that."
transcripts/S07E06.csv,what is going on with you two tonight?
transcripts/S07E06.csv,you do?
transcripts/S07E06.csv,"oh my god, really?"
transcripts/S07E06.csv,"well, actually, dr. crane-"
transcripts/S07E06.csv,you do realize that i'm interested in your brother.
transcripts/S07E06.csv,yeah.
transcripts/S07E06.csv,oh!
transcripts/S07E06.csv,"frasier, can i talk to you for a moment alone?"
transcripts/S07E06.csv,"frasier, i think i'd like to leave if that's all right."
transcripts/S07E06.csv,"well, i guess. i'm just feeling a little uncomfortable."
transcripts/S07E06.csv,"that is a relief. i mean, you can understand why i was kinda  freaked out by all that."
transcripts/S07E06.csv,right? frasier?
transcripts/S07E06.csv,can we go?
transcripts/S07E06.csv,oh my god!
transcripts/S07E06.csv,i think i'm going to catch a cab.
transcripts/S07E06.csv,"frankly, no. are you?"
transcripts/S07E06.csv,"actually, poppy, there's something you should know about  niles."
transcripts/S07E20.csv,frasier! long time no see.
transcripts/S07E20.csv,i think the last time was when you came over with that  bottle of wine.
transcripts/S07E20.csv,scott.
transcripts/S07E20.csv,and he's not my boyfriend anymore.
transcripts/S07E20.csv,"well, it's nice seeing you again,  frasier."
transcripts/S07E20.csv,frasier.
transcripts/S07E20.csv,"really, it's none of my business."
transcripts/S07E20.csv,"that's not the ""seattle times."""
transcripts/S07E20.csv,it was nice seeing you.
transcripts/S07E20.csv,frasier.
transcripts/S07E20.csv,"oh, forget about that, it was no big deal. by the way i was  wondering if you'd be available to..."
transcripts/S07E20.csv,let me get all this cleaned up first.
transcripts/S07E20.csv,"hi, daphne."
transcripts/S07E20.csv,"em, oh, frasier, i was concerned about your back."
transcripts/S07E20.csv,we'll each take a side.
transcripts/S07E20.csv,"yes, impinging on your lumbar nerves."
