transcripts/S11E17.csv,"all right. all right, everybody. put down your gifts, give me  your coats and i'll put them in the bedroom."
transcripts/S11E17.csv,did someone invite you?
transcripts/S11E17.csv,then how'd you get in here?
transcripts/S11E17.csv,i could swear...
transcripts/S11E17.csv,"no, not until we take the family picture, mother."
transcripts/S11E17.csv,where is it?
transcripts/S11E17.csv,what are you doing?
transcripts/S11E17.csv,why not?
transcripts/S11E17.csv,"all right. all right, everybody. put down your gifts, give me  your coats and i'll put them in the bedroom."
transcripts/S11E17.csv,did someone invite you?
transcripts/S11E17.csv,then how'd you get in here?
transcripts/S11E17.csv,i could swear...
transcripts/S11E17.csv,"no, not until we take the family picture, mother."
transcripts/S11E17.csv,where is it?
transcripts/S11E17.csv,what are you doing?
transcripts/S11E17.csv,why not?
transcripts/S11E17.csv,"all right. all right, everybody. put down your gifts, give me  your coats and i'll put them in the bedroom."
transcripts/S11E17.csv,did someone invite you?
transcripts/S11E17.csv,then how'd you get in here?
transcripts/S11E17.csv,i could swear...
transcripts/S11E17.csv,"no, not until we take the family picture, mother."
transcripts/S11E17.csv,where is it?
transcripts/S11E17.csv,what are you doing?
transcripts/S11E17.csv,why not?
