transcripts/S09E14.csv,"february 9, 1993. does that date mean anything to you?"
transcripts/S09E14.csv,according to the you spent two hours on a ledge  threatening to jump if your wife left you.
transcripts/S09E14.csv,how many of your listeners are aware that they're taking  advice from a man who was nearly a stain on the sidewalk?
transcripts/S09E14.csv,"speaking of truth, i have a few questions about your last tax return..."
transcripts/S09E14.csv,"uh, dr. crane!"
transcripts/S09E14.csv,"so, do you have any good advice for  kids that want to go to college?"
transcripts/S09E14.csv,"february 9, 1993. does that date mean anything to you?"
transcripts/S09E14.csv,according to the you spent two hours on a ledge  threatening to jump if your wife left you.
transcripts/S09E14.csv,how many of your listeners are aware that they're taking  advice from a man who was nearly a stain on the sidewalk?
transcripts/S09E14.csv,"speaking of truth, i have a few questions about your last tax return..."
transcripts/S09E14.csv,"uh, dr. crane!"
transcripts/S09E14.csv,"so, do you have any good advice for  kids that want to go to college?"
transcripts/S09E14.csv,"february 9, 1993. does that date mean anything to you?"
transcripts/S09E14.csv,according to the you spent two hours on a ledge  threatening to jump if your wife left you.
transcripts/S09E14.csv,how many of your listeners are aware that they're taking  advice from a man who was nearly a stain on the sidewalk?
transcripts/S09E14.csv,"speaking of truth, i have a few questions about your last tax return..."
transcripts/S09E14.csv,"uh, dr. crane!"
transcripts/S09E14.csv,"so, do you have any good advice for  kids that want to go to college?"
