transcripts/S05E13.csv,niles!
transcripts/S05E13.csv,"well, it's not what it looks like... what am i saying?"
transcripts/S05E13.csv,"bear with me, i'm sorry. i'm, i'm feeling a little  stressed."
transcripts/S05E13.csv,put yourself in my place.
transcripts/S05E13.csv,two weeks. maris and i were waiting to tell you when i felt  that you were ready.
transcripts/S05E13.csv,"could be. they bind a little in the crotch. listen,  whatever anger you're feeling can't to approach  my guilt."
transcripts/S05E13.csv,"ah good, that's good, vent that rage. you have every right to."
transcripts/S05E13.csv,furious.
transcripts/S05E13.csv,livid.
transcripts/S05E13.csv,"yes, you're dealing with it very well, by the way."
transcripts/S05E13.csv,i don't suppose you'd care-
transcripts/S05E13.csv,"yes, and i deserve to. but it was a risk worth taking,  because of love. ah... oh! i love her, niles. i've never  known a woman so warm... so nurturing... so unselfish..."
transcripts/S05E13.csv,"thanks to our sessions, maris has been unafraid to show me the real woman inside."
transcripts/S05E13.csv,"wow, there's a lot of new issues here, aren't there? think maybe we should kick it up to three sessions a week?"
transcripts/S05E13.csv,niles!
transcripts/S05E13.csv,"well, it's not what it looks like... what am i saying?"
transcripts/S05E13.csv,"bear with me, i'm sorry. i'm, i'm feeling a little  stressed."
transcripts/S05E13.csv,put yourself in my place.
transcripts/S05E13.csv,two weeks. maris and i were waiting to tell you when i felt  that you were ready.
transcripts/S05E13.csv,"could be. they bind a little in the crotch. listen,  whatever anger you're feeling can't to approach  my guilt."
transcripts/S05E13.csv,"ah good, that's good, vent that rage. you have every right to."
transcripts/S05E13.csv,furious.
transcripts/S05E13.csv,livid.
transcripts/S05E13.csv,"yes, you're dealing with it very well, by the way."
transcripts/S05E13.csv,i don't suppose you'd care-
transcripts/S05E13.csv,"yes, and i deserve to. but it was a risk worth taking,  because of love. ah... oh! i love her, niles. i've never  known a woman so warm... so nurturing... so unselfish..."
transcripts/S05E13.csv,"thanks to our sessions, maris has been unafraid to show me the real woman inside."
transcripts/S05E13.csv,"wow, there's a lot of new issues here, aren't there? think maybe we should kick it up to three sessions a week?"
transcripts/S05E13.csv,niles!
transcripts/S05E13.csv,"well, it's not what it looks like... what am i saying?"
transcripts/S05E13.csv,"bear with me, i'm sorry. i'm, i'm feeling a little  stressed."
transcripts/S05E13.csv,put yourself in my place.
transcripts/S05E13.csv,two weeks. maris and i were waiting to tell you when i felt  that you were ready.
transcripts/S05E13.csv,"could be. they bind a little in the crotch. listen,  whatever anger you're feeling can't to approach  my guilt."
transcripts/S05E13.csv,"ah good, that's good, vent that rage. you have every right to."
transcripts/S05E13.csv,furious.
transcripts/S05E13.csv,livid.
transcripts/S05E13.csv,"yes, you're dealing with it very well, by the way."
transcripts/S05E13.csv,i don't suppose you'd care-
transcripts/S05E13.csv,"yes, and i deserve to. but it was a risk worth taking,  because of love. ah... oh! i love her, niles. i've never  known a woman so warm... so nurturing... so unselfish..."
transcripts/S05E13.csv,"thanks to our sessions, maris has been unafraid to show me the real woman inside."
transcripts/S05E13.csv,"wow, there's a lot of new issues here, aren't there? think maybe we should kick it up to three sessions a week?"
