transcripts/S11E07.csv,hi.
transcripts/S11E07.csv,i'm shannon palmer.
transcripts/S11E07.csv,"okay. um, geez, this is a little hard to talk about..."
transcripts/S11E07.csv,"um, okay."
transcripts/S11E07.csv,"well, i guess i have problems with men. no matter what they say, all they really seem to want is sex."
transcripts/S11E07.csv,"it's hard, because i want to be loved for who i am, of course, but if who i am is an attractive woman..."
transcripts/S11E07.csv,what was that?
transcripts/S11E07.csv,"it's at the point now, i meet a perfectly nice man and i don't trust him."
transcripts/S11E07.csv,what the hell?!
transcripts/S11E07.csv,what is wrong with you?!
transcripts/S11E07.csv,hi.
transcripts/S11E07.csv,i'm shannon palmer.
transcripts/S11E07.csv,"okay. um, geez, this is a little hard to talk about..."
transcripts/S11E07.csv,"um, okay."
transcripts/S11E07.csv,"well, i guess i have problems with men. no matter what they say, all they really seem to want is sex."
transcripts/S11E07.csv,"it's hard, because i want to be loved for who i am, of course, but if who i am is an attractive woman..."
transcripts/S11E07.csv,what was that?
transcripts/S11E07.csv,"it's at the point now, i meet a perfectly nice man and i don't trust him."
transcripts/S11E07.csv,what the hell?!
transcripts/S11E07.csv,what is wrong with you?!
transcripts/S11E07.csv,hi.
transcripts/S11E07.csv,i'm shannon palmer.
transcripts/S11E07.csv,"okay. um, geez, this is a little hard to talk about..."
transcripts/S11E07.csv,"um, okay."
transcripts/S11E07.csv,"well, i guess i have problems with men. no matter what they say, all they really seem to want is sex."
transcripts/S11E07.csv,"it's hard, because i want to be loved for who i am, of course, but if who i am is an attractive woman..."
transcripts/S11E07.csv,what was that?
transcripts/S11E07.csv,"it's at the point now, i meet a perfectly nice man and i don't trust him."
transcripts/S11E07.csv,what the hell?!
transcripts/S11E07.csv,what is wrong with you?!
