transcripts/S03E16.csv,a helicopter rises above the skyline.
transcripts/S07E01.csv,"above the seattle skyline flies a plane trailing behind it a banner reading ""kacl."""
transcripts/S07E13.csv,a moon rises above the city.
transcripts/S08E03.csv,doppler waves radiate from the tip of the space needle as if from a radio antenna.
transcripts/S08E04.csv,a silver dirigible floats across the skyline.
transcripts/S08E05.csv,a heavy construction crane lifts a load above the skyscrapers.
transcripts/S08E07.csv,the full yellow moon rises over the skyline.
transcripts/S09E09.csv,a yellow sun rises over the city.
transcripts/S09E11.csv,nothing happens.
transcripts/S09E14.csv,the light atop the space needle flashes.
transcripts/S09E23.csv,a helicopter rises above the buildings.
transcripts/S10E05.csv,"an orange moon rises above the cityscape, taking on the face of a grinning jack-o-lantern."
transcripts/S10E06.csv,a blimp flies over the city.
transcripts/S10E09.csv,"red, yellow, and blue balloons fly over the city."
transcripts/S11E03.csv,an elevator rises to the top of the space needle.
transcripts/S11E06.csv,: lightning flashes.
transcripts/S11E09.csv,: doppler waves radiate from the tip of the space needle.
transcripts/S11E11.csv,christmas lights on the space needle.
transcripts/S11E12.csv,plane with kacl banner.
transcripts/S11E14.csv,the crescent moon rises over the city.
transcripts/S11E18.csv,a silver dirigible floats above the skyline.
transcripts/S11E21.csv,a crane is seen on the horizon lifting a load.
transcripts/S11E22.csv,fireworks explode.
transcripts/S11E23.csv,a rainbow arcs out of the building line and touches the first letter of the title.
transcripts/S03E16.csv,a helicopter rises above the skyline.
transcripts/S07E01.csv,"above the seattle skyline flies a plane trailing behind it a banner reading ""kacl."""
transcripts/S07E13.csv,a moon rises above the city.
transcripts/S08E03.csv,doppler waves radiate from the tip of the space needle as if from a radio antenna.
transcripts/S08E04.csv,a silver dirigible floats across the skyline.
transcripts/S08E05.csv,a heavy construction crane lifts a load above the skyscrapers.
transcripts/S08E07.csv,the full yellow moon rises over the skyline.
transcripts/S09E09.csv,a yellow sun rises over the city.
transcripts/S09E11.csv,nothing happens.
transcripts/S09E14.csv,the light atop the space needle flashes.
transcripts/S09E23.csv,a helicopter rises above the buildings.
transcripts/S10E05.csv,"an orange moon rises above the cityscape, taking on the face of a grinning jack-o-lantern."
transcripts/S10E06.csv,a blimp flies over the city.
transcripts/S10E09.csv,"red, yellow, and blue balloons fly over the city."
transcripts/S11E03.csv,an elevator rises to the top of the space needle.
transcripts/S11E06.csv,: lightning flashes.
transcripts/S11E09.csv,: doppler waves radiate from the tip of the space needle.
transcripts/S11E11.csv,christmas lights on the space needle.
transcripts/S11E12.csv,plane with kacl banner.
transcripts/S11E14.csv,the crescent moon rises over the city.
transcripts/S11E18.csv,a silver dirigible floats above the skyline.
transcripts/S11E21.csv,a crane is seen on the horizon lifting a load.
transcripts/S11E22.csv,fireworks explode.
transcripts/S11E23.csv,a rainbow arcs out of the building line and touches the first letter of the title.
transcripts/S03E16.csv,a helicopter rises above the skyline.
transcripts/S07E01.csv,"above the seattle skyline flies a plane trailing behind it a banner reading ""kacl."""
transcripts/S07E13.csv,a moon rises above the city.
transcripts/S08E03.csv,doppler waves radiate from the tip of the space needle as if from a radio antenna.
transcripts/S08E04.csv,a silver dirigible floats across the skyline.
transcripts/S08E05.csv,a heavy construction crane lifts a load above the skyscrapers.
transcripts/S08E07.csv,the full yellow moon rises over the skyline.
transcripts/S09E09.csv,a yellow sun rises over the city.
transcripts/S09E11.csv,nothing happens.
transcripts/S09E14.csv,the light atop the space needle flashes.
transcripts/S09E23.csv,a helicopter rises above the buildings.
transcripts/S10E05.csv,"an orange moon rises above the cityscape, taking on the face of a grinning jack-o-lantern."
transcripts/S10E06.csv,a blimp flies over the city.
transcripts/S10E09.csv,"red, yellow, and blue balloons fly over the city."
transcripts/S11E03.csv,an elevator rises to the top of the space needle.
transcripts/S11E06.csv,: lightning flashes.
transcripts/S11E09.csv,: doppler waves radiate from the tip of the space needle.
transcripts/S11E11.csv,christmas lights on the space needle.
transcripts/S11E12.csv,plane with kacl banner.
transcripts/S11E14.csv,the crescent moon rises over the city.
transcripts/S11E18.csv,a silver dirigible floats above the skyline.
transcripts/S11E21.csv,a crane is seen on the horizon lifting a load.
transcripts/S11E22.csv,fireworks explode.
transcripts/S11E23.csv,a rainbow arcs out of the building line and touches the first letter of the title.
