transcripts/S02E23.csv,anguille.
transcripts/S02E23.csv,"it's maurice's specialty. he prefers to kill them to order,  then serve them with their heads still on."
transcripts/S02E23.csv,what should we do?
transcripts/S02E23.csv,that one's out cold.
transcripts/S02E23.csv,sank you.
transcripts/S02E23.csv,""
transcripts/S02E23.csv,anguille.
transcripts/S02E23.csv,"it's maurice's specialty. he prefers to kill them to order,  then serve them with their heads still on."
transcripts/S02E23.csv,what should we do?
transcripts/S02E23.csv,that one's out cold.
transcripts/S02E23.csv,sank you.
transcripts/S02E23.csv,""
transcripts/S02E23.csv,anguille.
transcripts/S02E23.csv,"it's maurice's specialty. he prefers to kill them to order,  then serve them with their heads still on."
transcripts/S02E23.csv,what should we do?
transcripts/S02E23.csv,that one's out cold.
transcripts/S02E23.csv,sank you.
transcripts/S02E23.csv,""
