transcripts/S04E05.csv,reggie — got a minute? great game tonight. seems like  your slump is over.
transcripts/S04E05.csv,what turned it around for you?
transcripts/S04E05.csv,"well, good luck against utah."
transcripts/S04E05.csv,let's head it back upstairs.
transcripts/S04E05.csv,reggie — got a minute? great game tonight. seems like  your slump is over.
transcripts/S04E05.csv,what turned it around for you?
transcripts/S04E05.csv,"well, good luck against utah."
transcripts/S04E05.csv,let's head it back upstairs.
transcripts/S04E05.csv,reggie — got a minute? great game tonight. seems like  your slump is over.
transcripts/S04E05.csv,what turned it around for you?
transcripts/S04E05.csv,"well, good luck against utah."
transcripts/S04E05.csv,let's head it back upstairs.
