transcripts/S01E10.csv,niles.
transcripts/S01E10.csv,"hey, bulldog. how's it going?"
transcripts/S01E10.csv,could be.
transcripts/S01E10.csv,but he has been in that salary beef with management.
transcripts/S01E10.csv,niles.
transcripts/S01E10.csv,"hey, bulldog. how's it going?"
transcripts/S01E10.csv,could be.
transcripts/S01E10.csv,but he has been in that salary beef with management.
transcripts/S01E10.csv,niles.
transcripts/S01E10.csv,"hey, bulldog. how's it going?"
transcripts/S01E10.csv,could be.
transcripts/S01E10.csv,but he has been in that salary beef with management.
