transcripts/S05E08.csv,half caff latte!
transcripts/S05E08.csv,"well, it's more efficient. what can i get for you?"
transcripts/S05E08.csv,"double shot, low fat, no foam latte!"
transcripts/S05E08.csv,"double shot, non fat, low foam latte!"
transcripts/S05E08.csv,nutmeg?
transcripts/S05E08.csv,inflames his stomach lining!
transcripts/S05E08.csv,half caff latte!
transcripts/S05E08.csv,"well, it's more efficient. what can i get for you?"
transcripts/S05E08.csv,"double shot, low fat, no foam latte!"
transcripts/S05E08.csv,"double shot, non fat, low foam latte!"
transcripts/S05E08.csv,nutmeg?
transcripts/S05E08.csv,inflames his stomach lining!
transcripts/S05E08.csv,half caff latte!
transcripts/S05E08.csv,"well, it's more efficient. what can i get for you?"
transcripts/S05E08.csv,"double shot, low fat, no foam latte!"
transcripts/S05E08.csv,"double shot, non fat, low foam latte!"
transcripts/S05E08.csv,nutmeg?
transcripts/S05E08.csv,inflames his stomach lining!
