transcripts/S01E04.csv,can i get you something?
transcripts/S01E04.csv,"it's my job, i'm a waiter."
transcripts/S01E15.csv,got it. two gutless wonders!
transcripts/S01E15.csv,here's your coffee. anything else?
transcripts/S01E15.csv,the topaz room? i thought the cops  shut that place down after the last shooting.
transcripts/S02E14.csv,who's next here?
transcripts/S02E23.csv,there's a party at the door without a tie or a reservation.
transcripts/S02E23.csv,"uh, that's the ""in"" door, sir."
transcripts/S03E17.csv,is the owner of a red hatchback here? it's about to be towed.
transcripts/S04E24.csv,"i'm very sorry, sir, but they're all reserved. but don't  worry, most of our patrons only have eyes for each other."
transcripts/S04E24.csv,"i'm so sorry, sir."
transcripts/S04E24.csv,"your glass of cabernet, sir."
transcripts/S04E24.csv,"oh, and i see your candle has gone out. enrico!"
transcripts/S05E01.csv,my wife had trouble conceiving too. it turned out to be me!
transcripts/S05E05.csv,"hey, how're you doing, doc? the usual?"
transcripts/S05E05.csv,and that would be...?
transcripts/S05E05.csv,nutmeg.
transcripts/S05E05.csv,"there you go, doc. anything for you, ma'am?"
transcripts/S05E05.csv,"oh, i'm sorry, you had the..."
transcripts/S05E08.csv,your first course.
transcripts/S05E08.csv,"six, sir."
transcripts/S05E10.csv,do you want to pay?
transcripts/S05E15.csv,"room service, ma'am."
transcripts/S05E15.csv,"good morning ma'am, good morning sir. i have eggs benedict and eggs florentine."
transcripts/S05E15.csv,"uh, no. sorry, let me get that for you right now."
transcripts/S05E15.csv,"oh! your, uh, first breakfast together?"
transcripts/S05E15.csv,"but i've got your ketchup, ma'am."
transcripts/S05E15.csv,"ok, but i still need the bill."
transcripts/S05E15.csv,"i'm sorry to disturb you, but here's the... ketchup. sorry it took so...  long. i, er, still need the bill. where's  the cart?"
transcripts/S05E15.csv,"yes sir, that's ...er... wonderful."
transcripts/S05E15.csv,oh...kay.
transcripts/S05E15.csv,"thank you, ma'am."
transcripts/S05E15.csv,oh...kay.
transcripts/S05E15.csv,"here's your eggs benedict, if you could just..."
transcripts/S05E15.csv,oh...kay!
transcripts/S05E19.csv,café nervosa.
transcripts/S05E22.csv,can i offer you something?
transcripts/S06E01.csv,"some crab puffs, dr. crane?"
transcripts/S06E01.csv,"sorry to interrupt, but i need to carve the second turkey."
transcripts/S06E01.csv,"er, still the crab puffs. shall i get you something else?"
transcripts/S06E13.csv,triple espresso to go.
transcripts/S06E14.csv,"it's not my place to say so, miss, but i think your father's  right. you're a very attractive woman."
transcripts/S06E15.csv,"yes, it is."
transcripts/S06E19.csv,"gentlemen, may i offer you... sir, is your eye  bothering you?"
transcripts/S06E19.csv,can i get you something to drink?
transcripts/S07E18.csv,"sorry to disturb you, but the manager wanted to apologize  for the mix-up with the room. this is on us."
transcripts/S07E18.csv,it won't fit in the mini-bar.
transcripts/S07E18.csv,thank you.
transcripts/S07E24.csv,"here's your wine, sir."
transcripts/S08E14.csv,"yes, ma'am."
transcripts/S08E14.csv,are you ready to order?
transcripts/S08E17.csv,"i'm sorry, ma'am, we're out of lemon bars."
transcripts/S08E17.csv,"i'm sorry, our baker doesn't come in 'til tomorrow. i can give you the recipe."
transcripts/S08E17.csv,bake?
transcripts/S08E24.csv,would you like a menu?
transcripts/S08E24.csv,"i'm sorry, sir, but we're out of all three."
transcripts/S08E24.csv,we make a decent swordfish.
transcripts/S08E24.csv,"i'm sorry sir, may i suggest the pepper steak?"
transcripts/S09E01.csv,here is your special order.
transcripts/S09E07.csv,"hi, i'd like to tell you about our new frozen coffee drink, the ""caffalanche."" it comes in three flavors: ""frostycoffee,""  ""so cocoa cold""... and ""chilla in vanilla""!"
transcripts/S09E20.csv,it's on the house. we love the machine.
transcripts/S10E07.csv,i heard you the first time.
transcripts/S10E13.csv,are you ready to order?
transcripts/S10E13.csv,mmm. very good miss.
transcripts/S10E13.csv,excellent.
transcripts/S10E13.csv,"bravo, sir."
transcripts/S11E05.csv,"that's our appetizer sampler for two. a bruschetta for you, a bruschetta for your love, and so on."
transcripts/S11E05.csv,one?
transcripts/S11E05.csv,"i'm sorry, it's or no."
transcripts/S11E05.csv,very good.
transcripts/S11E11.csv,"cappuccino to go. holiday cookies, anyone?"
transcripts/S11E11.csv,cookie?
transcripts/S11E11.csv,okay.
transcripts/S01E04.csv,can i get you something?
transcripts/S01E04.csv,"it's my job, i'm a waiter."
transcripts/S01E15.csv,got it. two gutless wonders!
transcripts/S01E15.csv,here's your coffee. anything else?
transcripts/S01E15.csv,the topaz room? i thought the cops  shut that place down after the last shooting.
transcripts/S02E14.csv,who's next here?
transcripts/S02E23.csv,there's a party at the door without a tie or a reservation.
transcripts/S02E23.csv,"uh, that's the ""in"" door, sir."
transcripts/S03E17.csv,is the owner of a red hatchback here? it's about to be towed.
transcripts/S04E24.csv,"i'm very sorry, sir, but they're all reserved. but don't  worry, most of our patrons only have eyes for each other."
transcripts/S04E24.csv,"i'm so sorry, sir."
transcripts/S04E24.csv,"your glass of cabernet, sir."
transcripts/S04E24.csv,"oh, and i see your candle has gone out. enrico!"
transcripts/S05E01.csv,my wife had trouble conceiving too. it turned out to be me!
transcripts/S05E05.csv,"hey, how're you doing, doc? the usual?"
transcripts/S05E05.csv,and that would be...?
transcripts/S05E05.csv,nutmeg.
transcripts/S05E05.csv,"there you go, doc. anything for you, ma'am?"
transcripts/S05E05.csv,"oh, i'm sorry, you had the..."
transcripts/S05E08.csv,your first course.
transcripts/S05E08.csv,"six, sir."
transcripts/S05E10.csv,do you want to pay?
transcripts/S05E15.csv,"room service, ma'am."
transcripts/S05E15.csv,"good morning ma'am, good morning sir. i have eggs benedict and eggs florentine."
transcripts/S05E15.csv,"uh, no. sorry, let me get that for you right now."
transcripts/S05E15.csv,"oh! your, uh, first breakfast together?"
transcripts/S05E15.csv,"but i've got your ketchup, ma'am."
transcripts/S05E15.csv,"ok, but i still need the bill."
transcripts/S05E15.csv,"i'm sorry to disturb you, but here's the... ketchup. sorry it took so...  long. i, er, still need the bill. where's  the cart?"
transcripts/S05E15.csv,"yes sir, that's ...er... wonderful."
transcripts/S05E15.csv,oh...kay.
transcripts/S05E15.csv,"thank you, ma'am."
transcripts/S05E15.csv,oh...kay.
transcripts/S05E15.csv,"here's your eggs benedict, if you could just..."
transcripts/S05E15.csv,oh...kay!
transcripts/S05E19.csv,café nervosa.
transcripts/S05E22.csv,can i offer you something?
transcripts/S06E01.csv,"some crab puffs, dr. crane?"
transcripts/S06E01.csv,"sorry to interrupt, but i need to carve the second turkey."
transcripts/S06E01.csv,"er, still the crab puffs. shall i get you something else?"
transcripts/S06E13.csv,triple espresso to go.
transcripts/S06E14.csv,"it's not my place to say so, miss, but i think your father's  right. you're a very attractive woman."
transcripts/S06E15.csv,"yes, it is."
transcripts/S06E19.csv,"gentlemen, may i offer you... sir, is your eye  bothering you?"
transcripts/S06E19.csv,can i get you something to drink?
transcripts/S07E18.csv,"sorry to disturb you, but the manager wanted to apologize  for the mix-up with the room. this is on us."
transcripts/S07E18.csv,it won't fit in the mini-bar.
transcripts/S07E18.csv,thank you.
transcripts/S07E24.csv,"here's your wine, sir."
transcripts/S08E14.csv,"yes, ma'am."
transcripts/S08E14.csv,are you ready to order?
transcripts/S08E17.csv,"i'm sorry, ma'am, we're out of lemon bars."
transcripts/S08E17.csv,"i'm sorry, our baker doesn't come in 'til tomorrow. i can give you the recipe."
transcripts/S08E17.csv,bake?
transcripts/S08E24.csv,would you like a menu?
transcripts/S08E24.csv,"i'm sorry, sir, but we're out of all three."
transcripts/S08E24.csv,we make a decent swordfish.
transcripts/S08E24.csv,"i'm sorry sir, may i suggest the pepper steak?"
transcripts/S09E01.csv,here is your special order.
transcripts/S09E07.csv,"hi, i'd like to tell you about our new frozen coffee drink, the ""caffalanche."" it comes in three flavors: ""frostycoffee,""  ""so cocoa cold""... and ""chilla in vanilla""!"
transcripts/S09E20.csv,it's on the house. we love the machine.
transcripts/S10E07.csv,i heard you the first time.
transcripts/S10E13.csv,are you ready to order?
transcripts/S10E13.csv,mmm. very good miss.
transcripts/S10E13.csv,excellent.
transcripts/S10E13.csv,"bravo, sir."
transcripts/S11E05.csv,"that's our appetizer sampler for two. a bruschetta for you, a bruschetta for your love, and so on."
transcripts/S11E05.csv,one?
transcripts/S11E05.csv,"i'm sorry, it's or no."
transcripts/S11E05.csv,very good.
transcripts/S11E11.csv,"cappuccino to go. holiday cookies, anyone?"
transcripts/S11E11.csv,cookie?
transcripts/S11E11.csv,okay.
transcripts/S01E04.csv,can i get you something?
transcripts/S01E04.csv,"it's my job, i'm a waiter."
transcripts/S01E15.csv,got it. two gutless wonders!
transcripts/S01E15.csv,here's your coffee. anything else?
transcripts/S01E15.csv,the topaz room? i thought the cops  shut that place down after the last shooting.
transcripts/S02E14.csv,who's next here?
transcripts/S02E23.csv,there's a party at the door without a tie or a reservation.
transcripts/S02E23.csv,"uh, that's the ""in"" door, sir."
transcripts/S03E17.csv,is the owner of a red hatchback here? it's about to be towed.
transcripts/S04E24.csv,"i'm very sorry, sir, but they're all reserved. but don't  worry, most of our patrons only have eyes for each other."
transcripts/S04E24.csv,"i'm so sorry, sir."
transcripts/S04E24.csv,"your glass of cabernet, sir."
transcripts/S04E24.csv,"oh, and i see your candle has gone out. enrico!"
transcripts/S05E01.csv,my wife had trouble conceiving too. it turned out to be me!
transcripts/S05E05.csv,"hey, how're you doing, doc? the usual?"
transcripts/S05E05.csv,and that would be...?
transcripts/S05E05.csv,nutmeg.
transcripts/S05E05.csv,"there you go, doc. anything for you, ma'am?"
transcripts/S05E05.csv,"oh, i'm sorry, you had the..."
transcripts/S05E08.csv,your first course.
transcripts/S05E08.csv,"six, sir."
transcripts/S05E10.csv,do you want to pay?
transcripts/S05E15.csv,"room service, ma'am."
transcripts/S05E15.csv,"good morning ma'am, good morning sir. i have eggs benedict and eggs florentine."
transcripts/S05E15.csv,"uh, no. sorry, let me get that for you right now."
transcripts/S05E15.csv,"oh! your, uh, first breakfast together?"
transcripts/S05E15.csv,"but i've got your ketchup, ma'am."
transcripts/S05E15.csv,"ok, but i still need the bill."
transcripts/S05E15.csv,"i'm sorry to disturb you, but here's the... ketchup. sorry it took so...  long. i, er, still need the bill. where's  the cart?"
transcripts/S05E15.csv,"yes sir, that's ...er... wonderful."
transcripts/S05E15.csv,oh...kay.
transcripts/S05E15.csv,"thank you, ma'am."
transcripts/S05E15.csv,oh...kay.
transcripts/S05E15.csv,"here's your eggs benedict, if you could just..."
transcripts/S05E15.csv,oh...kay!
transcripts/S05E19.csv,café nervosa.
transcripts/S05E22.csv,can i offer you something?
transcripts/S06E01.csv,"some crab puffs, dr. crane?"
transcripts/S06E01.csv,"sorry to interrupt, but i need to carve the second turkey."
transcripts/S06E01.csv,"er, still the crab puffs. shall i get you something else?"
transcripts/S06E13.csv,triple espresso to go.
transcripts/S06E14.csv,"it's not my place to say so, miss, but i think your father's  right. you're a very attractive woman."
transcripts/S06E15.csv,"yes, it is."
transcripts/S06E19.csv,"gentlemen, may i offer you... sir, is your eye  bothering you?"
transcripts/S06E19.csv,can i get you something to drink?
transcripts/S07E18.csv,"sorry to disturb you, but the manager wanted to apologize  for the mix-up with the room. this is on us."
transcripts/S07E18.csv,it won't fit in the mini-bar.
transcripts/S07E18.csv,thank you.
transcripts/S07E24.csv,"here's your wine, sir."
transcripts/S08E14.csv,"yes, ma'am."
transcripts/S08E14.csv,are you ready to order?
transcripts/S08E17.csv,"i'm sorry, ma'am, we're out of lemon bars."
transcripts/S08E17.csv,"i'm sorry, our baker doesn't come in 'til tomorrow. i can give you the recipe."
transcripts/S08E17.csv,bake?
transcripts/S08E24.csv,would you like a menu?
transcripts/S08E24.csv,"i'm sorry, sir, but we're out of all three."
transcripts/S08E24.csv,we make a decent swordfish.
transcripts/S08E24.csv,"i'm sorry sir, may i suggest the pepper steak?"
transcripts/S09E01.csv,here is your special order.
transcripts/S09E07.csv,"hi, i'd like to tell you about our new frozen coffee drink, the ""caffalanche."" it comes in three flavors: ""frostycoffee,""  ""so cocoa cold""... and ""chilla in vanilla""!"
transcripts/S09E20.csv,it's on the house. we love the machine.
transcripts/S10E07.csv,i heard you the first time.
transcripts/S10E13.csv,are you ready to order?
transcripts/S10E13.csv,mmm. very good miss.
transcripts/S10E13.csv,excellent.
transcripts/S10E13.csv,"bravo, sir."
transcripts/S11E05.csv,"that's our appetizer sampler for two. a bruschetta for you, a bruschetta for your love, and so on."
transcripts/S11E05.csv,one?
transcripts/S11E05.csv,"i'm sorry, it's or no."
transcripts/S11E05.csv,very good.
transcripts/S11E11.csv,"cappuccino to go. holiday cookies, anyone?"
transcripts/S11E11.csv,cookie?
transcripts/S11E11.csv,okay.
