transcripts/S11E17.csv,"oh, i'm sorry. i-i didn't realize this spot was reserved."
transcripts/S11E17.csv,yes.
transcripts/S11E17.csv,"it's on your sign. willa haver. i'm so sorry. my assigned  spot is on the roof, and with the rain and everything..."
transcripts/S11E17.csv,"oh, well, that is so sweet of you, but i can't right now."
transcripts/S11E17.csv,"uh, no tomorrow's no good either."
transcripts/S11E17.csv,"next week, uh, i'll be out of town."
transcripts/S11E17.csv,"oh, i'm sorry. i-i didn't realize this spot was reserved."
transcripts/S11E17.csv,yes.
transcripts/S11E17.csv,"it's on your sign. willa haver. i'm so sorry. my assigned  spot is on the roof, and with the rain and everything..."
transcripts/S11E17.csv,"oh, well, that is so sweet of you, but i can't right now."
transcripts/S11E17.csv,"uh, no tomorrow's no good either."
transcripts/S11E17.csv,"next week, uh, i'll be out of town."
transcripts/S11E17.csv,"oh, i'm sorry. i-i didn't realize this spot was reserved."
transcripts/S11E17.csv,yes.
transcripts/S11E17.csv,"it's on your sign. willa haver. i'm so sorry. my assigned  spot is on the roof, and with the rain and everything..."
transcripts/S11E17.csv,"oh, well, that is so sweet of you, but i can't right now."
transcripts/S11E17.csv,"uh, no tomorrow's no good either."
transcripts/S11E17.csv,"next week, uh, i'll be out of town."
