transcripts/S03E23.csv,"yeah, it's funny. i mean, he takes his callers seriously,  but he can kid around with them too."
transcripts/S03E23.csv,it's a great show.
transcripts/S05E18.csv,": bulldog, i'm lonely."
transcripts/S03E23.csv,"yeah, it's funny. i mean, he takes his callers seriously,  but he can kid around with them too."
transcripts/S03E23.csv,it's a great show.
transcripts/S05E18.csv,": bulldog, i'm lonely."
transcripts/S03E23.csv,"yeah, it's funny. i mean, he takes his callers seriously,  but he can kid around with them too."
transcripts/S03E23.csv,it's a great show.
transcripts/S05E18.csv,": bulldog, i'm lonely."
