transcripts/S06E13.csv,dr crane? it's woody. i'm in seattle and i'm a little  lost.
transcripts/S06E13.csv,"well, i've been driving around for about an hour, i can't seem to get out of the airport."
transcripts/S06E13.csv,"i was doing okay, but all this talk about today's fast-paced,  high-pressure world's starting to get me down."
transcripts/S06E13.csv,sounds great. i'm in town all week.
transcripts/S06E13.csv,that'd be great. so i hear you're on the radio?
transcripts/S06E13.csv,"no, no, no. i'm still tending bar at cheers. how do these rumors get started?"
transcripts/S06E13.csv,"hey, dr crane!"
transcripts/S06E13.csv,you look great.
transcripts/S06E13.csv,"aah, this place is awesome."
transcripts/S06E13.csv,i'm not surprised you  need all these roommates to help you pay for it.
transcripts/S06E13.csv,"well, hi. i remember hearing about you, you were a policeman, right?"
transcripts/S06E13.csv,"oh, wow!"
transcripts/S06E13.csv,"oh hi. i like your accent. aah, you're from england, right?"
transcripts/S06E13.csv,"darn! i'm usually pretty good at that. oh hey, who's this little guy?"
transcripts/S06E13.csv,my dad's getting the same way.
transcripts/S06E13.csv,"that's funny, huh? y'know, all those years i was waiting on  you, and now you're getting me a beer."
transcripts/S06E13.csv,my cousin's getting married.
transcripts/S06E13.csv,"actually, both are."
transcripts/S06E13.csv,"ho, they're doing a lot more than that! that's why they have  to get married."
transcripts/S06E13.csv,"no no, she's visiting her mom with the kids, but she sends  her love."
transcripts/S06E13.csv,"oh well, they haven't changed much. sam's doing great,  carla's terrific... oh, y'know, we almost had a wedding. mr.  clavin got himself one of those eastern european mail-order  brides, but ah, they lived together for a couple of days,  and decided to call it off."
transcripts/S06E13.csv,yeah. she said she was homesick. that bosnia must be a  beautiful place.
transcripts/S06E13.csv,sounds good by me.
transcripts/S06E13.csv,"oh hey, if you don't mind, could we make that half  rapscallions, half pepperoni?"
transcripts/S06E13.csv,that wasn't the best prank we played. you remember that time with mr. clavin?
transcripts/S06E13.csv,he was about to go on his round and we shoved  an angry ferret into his mailbag.
transcripts/S06E13.csv,"well, for starters, you shove him into a mailbag."
transcripts/S06E13.csv,"y'know, i never saw his face. i was too busy looking at mr.  clavin."
transcripts/S06E13.csv,"oh, thanks."
transcripts/S06E13.csv,"well, y'know what, on second thought i think i'm gonna pass.  i'm feeling a little bit jet-lagged."
transcripts/S06E13.csv,"you know, i probably should. but this was so much fun. i'd  really like to do it again."
transcripts/S06E13.csv,"oh yeah, that sounds great."
transcripts/S06E13.csv,"hey, goodbye y'all, nice to meet you."
transcripts/S06E13.csv,i didn't know you speak spanish?
transcripts/S06E13.csv,"i know ahh, ""dos"" means two, what does ""burro"" mean?"
transcripts/S06E13.csv,"sorry, just asking."
transcripts/S06E13.csv,"oh, great. we told one old story, we told a hundred. hey, how you doin', little guy?"
transcripts/S06E13.csv,"hey, good for you, mr crane. they have good days, and they have bad days."
transcripts/S06E13.csv,"oh, thanks."
transcripts/S06E13.csv,"wow, look at that view, you can  see the whole city."
transcripts/S06E13.csv,"gosh. you're right, this is better."
transcripts/S06E13.csv,ohh. you mind if i go out there?
transcripts/S06E13.csv,remember the time we went out on the balcony of melville's and threw pudding?
transcripts/S06E13.csv,"oh yeah, hey."
transcripts/S06E13.csv,"oh, i will."
transcripts/S06E13.csv,you got it.
transcripts/S06E13.csv,"no, i won't, i won't. so, where are we going for dinner tonight?"
transcripts/S06E13.csv,"hey, dr crane. hey, everybody. listen, i... when i  got back to my hotel i called kelly to say goodnight, and  uh... it turns out our little girl has an ear infection,  so i'm taking the redeye right now and my cab is waiting  for me downstairs."
transcripts/S06E13.csv,"yeah, i'm afraid so."
transcripts/S06E13.csv,"oh, will do."
transcripts/S06E13.csv,thank you. it was great spending time with you.
transcripts/S06E13.csv,yeah.
transcripts/S06E13.csv,"it sure is. well, goodbye."
transcripts/S06E13.csv,""
transcripts/S06E13.csv,it means i don't speak english.
transcripts/S06E13.csv,"i can't even look at you. i'm so ashamed. i... i lied to  you, dr. crane."
transcripts/S06E13.csv,"well, i guess i didn't want you to know it was me in the  bathroom."
transcripts/S06E13.csv,"oh, well. i feel terrible saying this but, i just couldn't  face another day of us hanging out together."
transcripts/S06E13.csv,"no, i... i had a great time that first night, but after that,  i don't know, you were still having a good time, but ahhh,  it was less and less fun for me."
transcripts/S06E13.csv,"see, you're still having a good time and i'm miserable."
transcripts/S06E13.csv,"well, i don't know, i didn't want to hurt your feelings.  to tell you the truth, i felt kinda bad for ya."
transcripts/S06E13.csv,"well no offense, but look at your life. you live with your  dad, you hang out with your brother, you have no plans. and  let's face it, those karaoke friends of yours, i wouldn't  want to be stranded on a desert island with them. well,  maybe that english guy, he's a good entertainer."
transcripts/S06E13.csv,you mean it?
transcripts/S06E13.csv,what?
transcripts/S06E13.csv,i just stopped in for a beer...
transcripts/S06E13.csv,that'd be nice.
transcripts/S06E13.csv,"you know, i meant what i said. i had a great time hanging out  with you. that first night."
transcripts/S06E13.csv,"maybe we could do it again, in five or ten years."
transcripts/S06E13.csv,cheers.
transcripts/S10E23.csv,"oh, that's not necessary. i mean, this is just a formality.  trust me, i know what you can do."
transcripts/S10E23.csv,"yeah. i, uh, i already told the guys about you."
transcripts/S10E23.csv,"oh, you know — how incredible you are."
transcripts/S10E23.csv,"what are you talking about? look, i think you have me mistaken  for someone else."
transcripts/S10E23.csv,"yeah, well, just me and my dad."
transcripts/S06E13.csv,dr crane? it's woody. i'm in seattle and i'm a little  lost.
transcripts/S06E13.csv,"well, i've been driving around for about an hour, i can't seem to get out of the airport."
transcripts/S06E13.csv,"i was doing okay, but all this talk about today's fast-paced,  high-pressure world's starting to get me down."
transcripts/S06E13.csv,sounds great. i'm in town all week.
transcripts/S06E13.csv,that'd be great. so i hear you're on the radio?
transcripts/S06E13.csv,"no, no, no. i'm still tending bar at cheers. how do these rumors get started?"
transcripts/S06E13.csv,"hey, dr crane!"
transcripts/S06E13.csv,you look great.
transcripts/S06E13.csv,"aah, this place is awesome."
transcripts/S06E13.csv,i'm not surprised you  need all these roommates to help you pay for it.
transcripts/S06E13.csv,"well, hi. i remember hearing about you, you were a policeman, right?"
transcripts/S06E13.csv,"oh, wow!"
transcripts/S06E13.csv,"oh hi. i like your accent. aah, you're from england, right?"
transcripts/S06E13.csv,"darn! i'm usually pretty good at that. oh hey, who's this little guy?"
transcripts/S06E13.csv,my dad's getting the same way.
transcripts/S06E13.csv,"that's funny, huh? y'know, all those years i was waiting on  you, and now you're getting me a beer."
transcripts/S06E13.csv,my cousin's getting married.
transcripts/S06E13.csv,"actually, both are."
transcripts/S06E13.csv,"ho, they're doing a lot more than that! that's why they have  to get married."
transcripts/S06E13.csv,"no no, she's visiting her mom with the kids, but she sends  her love."
transcripts/S06E13.csv,"oh well, they haven't changed much. sam's doing great,  carla's terrific... oh, y'know, we almost had a wedding. mr.  clavin got himself one of those eastern european mail-order  brides, but ah, they lived together for a couple of days,  and decided to call it off."
transcripts/S06E13.csv,yeah. she said she was homesick. that bosnia must be a  beautiful place.
transcripts/S06E13.csv,sounds good by me.
transcripts/S06E13.csv,"oh hey, if you don't mind, could we make that half  rapscallions, half pepperoni?"
transcripts/S06E13.csv,that wasn't the best prank we played. you remember that time with mr. clavin?
transcripts/S06E13.csv,he was about to go on his round and we shoved  an angry ferret into his mailbag.
transcripts/S06E13.csv,"well, for starters, you shove him into a mailbag."
transcripts/S06E13.csv,"y'know, i never saw his face. i was too busy looking at mr.  clavin."
transcripts/S06E13.csv,"oh, thanks."
transcripts/S06E13.csv,"well, y'know what, on second thought i think i'm gonna pass.  i'm feeling a little bit jet-lagged."
transcripts/S06E13.csv,"you know, i probably should. but this was so much fun. i'd  really like to do it again."
transcripts/S06E13.csv,"oh yeah, that sounds great."
transcripts/S06E13.csv,"hey, goodbye y'all, nice to meet you."
transcripts/S06E13.csv,i didn't know you speak spanish?
transcripts/S06E13.csv,"i know ahh, ""dos"" means two, what does ""burro"" mean?"
transcripts/S06E13.csv,"sorry, just asking."
transcripts/S06E13.csv,"oh, great. we told one old story, we told a hundred. hey, how you doin', little guy?"
transcripts/S06E13.csv,"hey, good for you, mr crane. they have good days, and they have bad days."
transcripts/S06E13.csv,"oh, thanks."
transcripts/S06E13.csv,"wow, look at that view, you can  see the whole city."
transcripts/S06E13.csv,"gosh. you're right, this is better."
transcripts/S06E13.csv,ohh. you mind if i go out there?
transcripts/S06E13.csv,remember the time we went out on the balcony of melville's and threw pudding?
transcripts/S06E13.csv,"oh yeah, hey."
transcripts/S06E13.csv,"oh, i will."
transcripts/S06E13.csv,you got it.
transcripts/S06E13.csv,"no, i won't, i won't. so, where are we going for dinner tonight?"
transcripts/S06E13.csv,"hey, dr crane. hey, everybody. listen, i... when i  got back to my hotel i called kelly to say goodnight, and  uh... it turns out our little girl has an ear infection,  so i'm taking the redeye right now and my cab is waiting  for me downstairs."
transcripts/S06E13.csv,"yeah, i'm afraid so."
transcripts/S06E13.csv,"oh, will do."
transcripts/S06E13.csv,thank you. it was great spending time with you.
transcripts/S06E13.csv,yeah.
transcripts/S06E13.csv,"it sure is. well, goodbye."
transcripts/S06E13.csv,""
transcripts/S06E13.csv,it means i don't speak english.
transcripts/S06E13.csv,"i can't even look at you. i'm so ashamed. i... i lied to  you, dr. crane."
transcripts/S06E13.csv,"well, i guess i didn't want you to know it was me in the  bathroom."
transcripts/S06E13.csv,"oh, well. i feel terrible saying this but, i just couldn't  face another day of us hanging out together."
transcripts/S06E13.csv,"no, i... i had a great time that first night, but after that,  i don't know, you were still having a good time, but ahhh,  it was less and less fun for me."
transcripts/S06E13.csv,"see, you're still having a good time and i'm miserable."
transcripts/S06E13.csv,"well, i don't know, i didn't want to hurt your feelings.  to tell you the truth, i felt kinda bad for ya."
transcripts/S06E13.csv,"well no offense, but look at your life. you live with your  dad, you hang out with your brother, you have no plans. and  let's face it, those karaoke friends of yours, i wouldn't  want to be stranded on a desert island with them. well,  maybe that english guy, he's a good entertainer."
transcripts/S06E13.csv,you mean it?
transcripts/S06E13.csv,what?
transcripts/S06E13.csv,i just stopped in for a beer...
transcripts/S06E13.csv,that'd be nice.
transcripts/S06E13.csv,"you know, i meant what i said. i had a great time hanging out  with you. that first night."
transcripts/S06E13.csv,"maybe we could do it again, in five or ten years."
transcripts/S06E13.csv,cheers.
transcripts/S10E23.csv,"oh, that's not necessary. i mean, this is just a formality.  trust me, i know what you can do."
transcripts/S10E23.csv,"yeah. i, uh, i already told the guys about you."
transcripts/S10E23.csv,"oh, you know — how incredible you are."
transcripts/S10E23.csv,"what are you talking about? look, i think you have me mistaken  for someone else."
transcripts/S10E23.csv,"yeah, well, just me and my dad."
transcripts/S06E13.csv,dr crane? it's woody. i'm in seattle and i'm a little  lost.
transcripts/S06E13.csv,"well, i've been driving around for about an hour, i can't seem to get out of the airport."
transcripts/S06E13.csv,"i was doing okay, but all this talk about today's fast-paced,  high-pressure world's starting to get me down."
transcripts/S06E13.csv,sounds great. i'm in town all week.
transcripts/S06E13.csv,that'd be great. so i hear you're on the radio?
transcripts/S06E13.csv,"no, no, no. i'm still tending bar at cheers. how do these rumors get started?"
transcripts/S06E13.csv,"hey, dr crane!"
transcripts/S06E13.csv,you look great.
transcripts/S06E13.csv,"aah, this place is awesome."
transcripts/S06E13.csv,i'm not surprised you  need all these roommates to help you pay for it.
transcripts/S06E13.csv,"well, hi. i remember hearing about you, you were a policeman, right?"
transcripts/S06E13.csv,"oh, wow!"
transcripts/S06E13.csv,"oh hi. i like your accent. aah, you're from england, right?"
transcripts/S06E13.csv,"darn! i'm usually pretty good at that. oh hey, who's this little guy?"
transcripts/S06E13.csv,my dad's getting the same way.
transcripts/S06E13.csv,"that's funny, huh? y'know, all those years i was waiting on  you, and now you're getting me a beer."
transcripts/S06E13.csv,my cousin's getting married.
transcripts/S06E13.csv,"actually, both are."
transcripts/S06E13.csv,"ho, they're doing a lot more than that! that's why they have  to get married."
transcripts/S06E13.csv,"no no, she's visiting her mom with the kids, but she sends  her love."
transcripts/S06E13.csv,"oh well, they haven't changed much. sam's doing great,  carla's terrific... oh, y'know, we almost had a wedding. mr.  clavin got himself one of those eastern european mail-order  brides, but ah, they lived together for a couple of days,  and decided to call it off."
transcripts/S06E13.csv,yeah. she said she was homesick. that bosnia must be a  beautiful place.
transcripts/S06E13.csv,sounds good by me.
transcripts/S06E13.csv,"oh hey, if you don't mind, could we make that half  rapscallions, half pepperoni?"
transcripts/S06E13.csv,that wasn't the best prank we played. you remember that time with mr. clavin?
transcripts/S06E13.csv,he was about to go on his round and we shoved  an angry ferret into his mailbag.
transcripts/S06E13.csv,"well, for starters, you shove him into a mailbag."
transcripts/S06E13.csv,"y'know, i never saw his face. i was too busy looking at mr.  clavin."
transcripts/S06E13.csv,"oh, thanks."
transcripts/S06E13.csv,"well, y'know what, on second thought i think i'm gonna pass.  i'm feeling a little bit jet-lagged."
transcripts/S06E13.csv,"you know, i probably should. but this was so much fun. i'd  really like to do it again."
transcripts/S06E13.csv,"oh yeah, that sounds great."
transcripts/S06E13.csv,"hey, goodbye y'all, nice to meet you."
transcripts/S06E13.csv,i didn't know you speak spanish?
transcripts/S06E13.csv,"i know ahh, ""dos"" means two, what does ""burro"" mean?"
transcripts/S06E13.csv,"sorry, just asking."
transcripts/S06E13.csv,"oh, great. we told one old story, we told a hundred. hey, how you doin', little guy?"
transcripts/S06E13.csv,"hey, good for you, mr crane. they have good days, and they have bad days."
transcripts/S06E13.csv,"oh, thanks."
transcripts/S06E13.csv,"wow, look at that view, you can  see the whole city."
transcripts/S06E13.csv,"gosh. you're right, this is better."
transcripts/S06E13.csv,ohh. you mind if i go out there?
transcripts/S06E13.csv,remember the time we went out on the balcony of melville's and threw pudding?
transcripts/S06E13.csv,"oh yeah, hey."
transcripts/S06E13.csv,"oh, i will."
transcripts/S06E13.csv,you got it.
transcripts/S06E13.csv,"no, i won't, i won't. so, where are we going for dinner tonight?"
transcripts/S06E13.csv,"hey, dr crane. hey, everybody. listen, i... when i  got back to my hotel i called kelly to say goodnight, and  uh... it turns out our little girl has an ear infection,  so i'm taking the redeye right now and my cab is waiting  for me downstairs."
transcripts/S06E13.csv,"yeah, i'm afraid so."
transcripts/S06E13.csv,"oh, will do."
transcripts/S06E13.csv,thank you. it was great spending time with you.
transcripts/S06E13.csv,yeah.
transcripts/S06E13.csv,"it sure is. well, goodbye."
transcripts/S06E13.csv,""
transcripts/S06E13.csv,it means i don't speak english.
transcripts/S06E13.csv,"i can't even look at you. i'm so ashamed. i... i lied to  you, dr. crane."
transcripts/S06E13.csv,"well, i guess i didn't want you to know it was me in the  bathroom."
transcripts/S06E13.csv,"oh, well. i feel terrible saying this but, i just couldn't  face another day of us hanging out together."
transcripts/S06E13.csv,"no, i... i had a great time that first night, but after that,  i don't know, you were still having a good time, but ahhh,  it was less and less fun for me."
transcripts/S06E13.csv,"see, you're still having a good time and i'm miserable."
transcripts/S06E13.csv,"well, i don't know, i didn't want to hurt your feelings.  to tell you the truth, i felt kinda bad for ya."
transcripts/S06E13.csv,"well no offense, but look at your life. you live with your  dad, you hang out with your brother, you have no plans. and  let's face it, those karaoke friends of yours, i wouldn't  want to be stranded on a desert island with them. well,  maybe that english guy, he's a good entertainer."
transcripts/S06E13.csv,you mean it?
transcripts/S06E13.csv,what?
transcripts/S06E13.csv,i just stopped in for a beer...
transcripts/S06E13.csv,that'd be nice.
transcripts/S06E13.csv,"you know, i meant what i said. i had a great time hanging out  with you. that first night."
transcripts/S06E13.csv,"maybe we could do it again, in five or ten years."
transcripts/S06E13.csv,cheers.
transcripts/S10E23.csv,"oh, that's not necessary. i mean, this is just a formality.  trust me, i know what you can do."
transcripts/S10E23.csv,"yeah. i, uh, i already told the guys about you."
transcripts/S10E23.csv,"oh, you know — how incredible you are."
transcripts/S10E23.csv,"what are you talking about? look, i think you have me mistaken  for someone else."
transcripts/S10E23.csv,"yeah, well, just me and my dad."
