transcripts/S05E16.csv,"dmitri, pick up your order, don't make me hurt you again!"
transcripts/S05E16.csv,more pepper!
transcripts/S05E16.csv,sponge off this countertop!
transcripts/S05E16.csv,mop up this slop!
transcripts/S05E16.csv,"when i find out who bent this skewer,  i'm ramming it right in his eye!"
transcripts/S05E16.csv,frasier!
transcripts/S05E16.csv,"of course, of course! and you don't just come to the wedding!  you come to the rehearsal dinner too! tomorrow night, right  here, because we are family! here, eat!"
transcripts/S05E16.csv,"my very special , for a very special nephew!  oh god, i'm such a softie! i'll be crying in a minute!"
transcripts/S05E16.csv,"there they are, my two favorite nephews! ed, get  me with the boys! you know, i am so glad  you are coming to the wedding tomorrow. there is nothing  sadder than a divided family, am i right?"
transcripts/S05E16.csv,"oh, go on, enjoy! it's none of that sissy french wine,  it's real greek champagne!"
transcripts/S05E16.csv,"and here he is, my favorite brother-in-law! martin, it's  been too long!"
transcripts/S05E16.csv,"oh, don't worry, he'll be here. who is this  pretty young thing?"
transcripts/S05E16.csv,oh. that's what they call it these days? you dirty old man!
transcripts/S05E16.csv,"nikos, nikos, go check on the sous-chef, make sure he isn't  into the ouzo!"
transcripts/S05E16.csv,"last time, he drank until he got his head caught in the duck  press."
transcripts/S05E16.csv,"with my help. so, what were you and nikos  talking about?"
transcripts/S05E16.csv,"or soon after. so, you met mary-ann?"
transcripts/S05E16.csv,"oh, and relieved! do you know that crazy son of mine was  going steady with a juggler for three years? crystal- somebody. can you imagine having  a daughter-in-law who throws things for a living? it's  embarrassing."
transcripts/S05E16.csv,"dance, people! let us celebrate tonight!"
transcripts/S05E16.csv,"nikos, please go make your uncle stavros to stop dancing on  the table."
transcripts/S05E16.csv,"just once it would be nice to have a family gathering where  no one leaves in an ambulance, am i right?"
transcripts/S05E16.csv,"ok, everybody, gather round, we're going to have some toasts  here! so, if everybody will stop what they're doing for just  one minute and come closer..."
transcripts/S05E16.csv,frasier? where's frasier crane?
transcripts/S05E16.csv,"ah, there you are! come up here and make a toast to the  happy couple!"
transcripts/S05E16.csv,"but when the right one comes along, you  know it! hmm?"
transcripts/S05E16.csv,"more important, makes me feel happy, eh?"
transcripts/S05E16.csv,"hey, what the hell kind of toast is this, anyway?!"
transcripts/S05E16.csv,"oh, well, there! cheers, everybody! oh, thank you, frasier. if i may say a word or two? my son  nikos and i have had our ups and downs, but tonight, at this  moment, i can honestly say... what the hell are you doing  here?!"
transcripts/S05E16.csv,"nikos, what are you doing? stop it!"
transcripts/S05E16.csv,"nikos, you are ruining everything! you, shoo,  shoo, shoo!"
transcripts/S05E16.csv,"frasier, he's lost his mind! talk to him, he listens to you!"
transcripts/S05E16.csv,why are they thanking you?
transcripts/S05E16.csv,"oh, i can do better than a glass!"
transcripts/S05E16.csv,"dmitri, pick up your order, don't make me hurt you again!"
transcripts/S05E16.csv,more pepper!
transcripts/S05E16.csv,sponge off this countertop!
transcripts/S05E16.csv,mop up this slop!
transcripts/S05E16.csv,"when i find out who bent this skewer,  i'm ramming it right in his eye!"
transcripts/S05E16.csv,frasier!
transcripts/S05E16.csv,"of course, of course! and you don't just come to the wedding!  you come to the rehearsal dinner too! tomorrow night, right  here, because we are family! here, eat!"
transcripts/S05E16.csv,"my very special , for a very special nephew!  oh god, i'm such a softie! i'll be crying in a minute!"
transcripts/S05E16.csv,"there they are, my two favorite nephews! ed, get  me with the boys! you know, i am so glad  you are coming to the wedding tomorrow. there is nothing  sadder than a divided family, am i right?"
transcripts/S05E16.csv,"oh, go on, enjoy! it's none of that sissy french wine,  it's real greek champagne!"
transcripts/S05E16.csv,"and here he is, my favorite brother-in-law! martin, it's  been too long!"
transcripts/S05E16.csv,"oh, don't worry, he'll be here. who is this  pretty young thing?"
transcripts/S05E16.csv,oh. that's what they call it these days? you dirty old man!
transcripts/S05E16.csv,"nikos, nikos, go check on the sous-chef, make sure he isn't  into the ouzo!"
transcripts/S05E16.csv,"last time, he drank until he got his head caught in the duck  press."
transcripts/S05E16.csv,"with my help. so, what were you and nikos  talking about?"
transcripts/S05E16.csv,"or soon after. so, you met mary-ann?"
transcripts/S05E16.csv,"oh, and relieved! do you know that crazy son of mine was  going steady with a juggler for three years? crystal- somebody. can you imagine having  a daughter-in-law who throws things for a living? it's  embarrassing."
transcripts/S05E16.csv,"dance, people! let us celebrate tonight!"
transcripts/S05E16.csv,"nikos, please go make your uncle stavros to stop dancing on  the table."
transcripts/S05E16.csv,"just once it would be nice to have a family gathering where  no one leaves in an ambulance, am i right?"
transcripts/S05E16.csv,"ok, everybody, gather round, we're going to have some toasts  here! so, if everybody will stop what they're doing for just  one minute and come closer..."
transcripts/S05E16.csv,frasier? where's frasier crane?
transcripts/S05E16.csv,"ah, there you are! come up here and make a toast to the  happy couple!"
transcripts/S05E16.csv,"but when the right one comes along, you  know it! hmm?"
transcripts/S05E16.csv,"more important, makes me feel happy, eh?"
transcripts/S05E16.csv,"hey, what the hell kind of toast is this, anyway?!"
transcripts/S05E16.csv,"oh, well, there! cheers, everybody! oh, thank you, frasier. if i may say a word or two? my son  nikos and i have had our ups and downs, but tonight, at this  moment, i can honestly say... what the hell are you doing  here?!"
transcripts/S05E16.csv,"nikos, what are you doing? stop it!"
transcripts/S05E16.csv,"nikos, you are ruining everything! you, shoo,  shoo, shoo!"
transcripts/S05E16.csv,"frasier, he's lost his mind! talk to him, he listens to you!"
transcripts/S05E16.csv,why are they thanking you?
transcripts/S05E16.csv,"oh, i can do better than a glass!"
transcripts/S05E16.csv,"dmitri, pick up your order, don't make me hurt you again!"
transcripts/S05E16.csv,more pepper!
transcripts/S05E16.csv,sponge off this countertop!
transcripts/S05E16.csv,mop up this slop!
transcripts/S05E16.csv,"when i find out who bent this skewer,  i'm ramming it right in his eye!"
transcripts/S05E16.csv,frasier!
transcripts/S05E16.csv,"of course, of course! and you don't just come to the wedding!  you come to the rehearsal dinner too! tomorrow night, right  here, because we are family! here, eat!"
transcripts/S05E16.csv,"my very special , for a very special nephew!  oh god, i'm such a softie! i'll be crying in a minute!"
transcripts/S05E16.csv,"there they are, my two favorite nephews! ed, get  me with the boys! you know, i am so glad  you are coming to the wedding tomorrow. there is nothing  sadder than a divided family, am i right?"
transcripts/S05E16.csv,"oh, go on, enjoy! it's none of that sissy french wine,  it's real greek champagne!"
transcripts/S05E16.csv,"and here he is, my favorite brother-in-law! martin, it's  been too long!"
transcripts/S05E16.csv,"oh, don't worry, he'll be here. who is this  pretty young thing?"
transcripts/S05E16.csv,oh. that's what they call it these days? you dirty old man!
transcripts/S05E16.csv,"nikos, nikos, go check on the sous-chef, make sure he isn't  into the ouzo!"
transcripts/S05E16.csv,"last time, he drank until he got his head caught in the duck  press."
transcripts/S05E16.csv,"with my help. so, what were you and nikos  talking about?"
transcripts/S05E16.csv,"or soon after. so, you met mary-ann?"
transcripts/S05E16.csv,"oh, and relieved! do you know that crazy son of mine was  going steady with a juggler for three years? crystal- somebody. can you imagine having  a daughter-in-law who throws things for a living? it's  embarrassing."
transcripts/S05E16.csv,"dance, people! let us celebrate tonight!"
transcripts/S05E16.csv,"nikos, please go make your uncle stavros to stop dancing on  the table."
transcripts/S05E16.csv,"just once it would be nice to have a family gathering where  no one leaves in an ambulance, am i right?"
transcripts/S05E16.csv,"ok, everybody, gather round, we're going to have some toasts  here! so, if everybody will stop what they're doing for just  one minute and come closer..."
transcripts/S05E16.csv,frasier? where's frasier crane?
transcripts/S05E16.csv,"ah, there you are! come up here and make a toast to the  happy couple!"
transcripts/S05E16.csv,"but when the right one comes along, you  know it! hmm?"
transcripts/S05E16.csv,"more important, makes me feel happy, eh?"
transcripts/S05E16.csv,"hey, what the hell kind of toast is this, anyway?!"
transcripts/S05E16.csv,"oh, well, there! cheers, everybody! oh, thank you, frasier. if i may say a word or two? my son  nikos and i have had our ups and downs, but tonight, at this  moment, i can honestly say... what the hell are you doing  here?!"
transcripts/S05E16.csv,"nikos, what are you doing? stop it!"
transcripts/S05E16.csv,"nikos, you are ruining everything! you, shoo,  shoo, shoo!"
transcripts/S05E16.csv,"frasier, he's lost his mind! talk to him, he listens to you!"
transcripts/S05E16.csv,why are they thanking you?
transcripts/S05E16.csv,"oh, i can do better than a glass!"
